xof 0303txt 0032
template ColorRGBA {
 <35ff44e0-6c7c-11cf-8f52-0040333594a3>
 FLOAT red;
 FLOAT green;
 FLOAT blue;
 FLOAT alpha;
}

template ColorRGB {
 <d3e16e81-7835-11cf-8f52-0040333594a3>
 FLOAT red;
 FLOAT green;
 FLOAT blue;
}

template Material {
 <3d82ab4d-62da-11cf-ab39-0020af71e433>
 ColorRGBA faceColor;
 FLOAT power;
 ColorRGB specularColor;
 ColorRGB emissiveColor;
 [...]
}

template TextureFilename {
 <a42790e1-7810-11cf-8f52-0040333594a3>
 STRING filename;
}

template Frame {
 <3d82ab46-62da-11cf-ab39-0020af71e433>
 [...]
}

template Matrix4x4 {
 <f6f23f45-7686-11cf-8f52-0040333594a3>
 array FLOAT matrix[16];
}

template FrameTransformMatrix {
 <f6f23f41-7686-11cf-8f52-0040333594a3>
 Matrix4x4 frameMatrix;
}

template Vector {
 <3d82ab5e-62da-11cf-ab39-0020af71e433>
 FLOAT x;
 FLOAT y;
 FLOAT z;
}

template MeshFace {
 <3d82ab5f-62da-11cf-ab39-0020af71e433>
 DWORD nFaceVertexIndices;
 array DWORD faceVertexIndices[nFaceVertexIndices];
}

template Mesh {
 <3d82ab44-62da-11cf-ab39-0020af71e433>
 DWORD nVertices;
 array Vector vertices[nVertices];
 DWORD nFaces;
 array MeshFace faces[nFaces];
 [...]
}

template MeshMaterialList {
 <f6f23f42-7686-11cf-8f52-0040333594a3>
 DWORD nMaterials;
 DWORD nFaceIndexes;
 array DWORD faceIndexes[nFaceIndexes];
 [Material <3d82ab4d-62da-11cf-ab39-0020af71e433>]
}

template VertexElement {
 <f752461c-1e23-48f6-b9f8-8350850f336f>
 DWORD Type;
 DWORD Method;
 DWORD Usage;
 DWORD UsageIndex;
}

template DeclData {
 <bf22e553-292c-4781-9fea-62bd554bdd93>
 DWORD nElements;
 array VertexElement Elements[nElements];
 DWORD nDWords;
 array DWORD data[nDWords];
}


Material MI_HOS_Debris01 {
 1.000000;1.000000;1.000000;1.000000;;
 10.000000;
 0.000000;0.000000;0.000000;;
 0.000000;0.000000;0.000000;;

 TextureFilename {
  "T_Concrete05_D.tga";
 }
}

Frame SM_DebrisConcrete02 {
 

 FrameTransformMatrix {
  1.000000,0.000000,0.000000,0.000000,0.000000,1.000000,0.000000,0.000000,0.000000,0.000000,1.000000,0.000000,0.000000,0.000000,0.000000,1.000000;;
 }

 Mesh SM_DebrisConcrete02 {
  400;
  -88.400378;0.447166;-32.516579;,
  -87.847277;1.315969;-31.822003;,
  -88.923488;1.336888;-34.763485;,
  -76.873094;0.447166;-30.311510;,
  -77.737165;1.232183;-31.050806;,
  -82.659302;1.749759;-31.747274;,
  -68.568051;0.472833;-50.836099;,
  -67.851226;1.314430;-50.410483;,
  -69.942874;1.314430;-52.145744;,
  -62.103021;0.472833;-51.006358;,
  -62.991373;1.314406;-51.069011;,
  -65.057248;1.820753;-50.993216;,
  28.369853;0.012562;-32.333219;,
  28.060970;1.078027;-32.544813;,
  26.500021;1.132183;-33.866675;,
  29.843389;1.132183;-35.079347;,
  45.634291;0.298476;-38.030806;,
  44.058211;1.004922;-36.862198;,
  46.918794;1.004928;-34.457322;,
  42.945037;1.004922;-38.295670;,
  22.918731;0.322550;-17.749210;,
  21.617843;0.998128;-17.663067;,
  21.769187;0.998134;-15.045330;,
  21.988270;0.998128;-18.741341;,
  -73.831757;0.163970;-42.267891;,
  -73.688806;1.834900;-42.066758;,
  -71.231917;1.834909;-43.161728;,
  -74.843565;1.834909;-41.706528;,
  -106.388602;0.773593;-48.740522;,
  -105.598413;0.773625;-53.237542;,
  -107.240448;-0.377301;-48.936230;,
  -106.807942;-0.377301;-53.916992;,
  62.517843;0.000000;-0.814373;,
  61.911853;1.370283;-1.166145;,
  48.518998;1.370296;-6.470405;,
  66.777235;1.370296;-2.667690;,
  -68.688627;0.322450;-78.881882;,
  -68.525542;1.492573;-78.409869;,
  -62.998061;1.492586;-77.278125;,
  -70.799878;1.492573;-78.930906;,
  -61.709222;0.472833;-52.006906;,
  -62.991373;1.314406;-51.069011;,
  -62.103021;0.472833;-51.006358;,
  -62.126189;0.472833;-52.726454;,
  -63.022592;0.472833;-53.657117;,
  -64.805542;1.314406;-53.724742;,
  -64.173248;0.472833;-54.587987;,
  -65.594579;0.472833;-54.436512;,
  -65.057248;1.820753;-50.993216;,
  -67.494400;0.885246;-54.304589;,
  -68.084045;0.472833;-54.868646;,
  -69.583021;0.472833;-53.898682;,
  -70.974394;0.472833;-53.484214;,
  -69.942874;1.314430;-52.145744;,
  -70.785299;0.472833;-51.929389;,
  -68.568051;0.472833;-50.836099;,
  -67.851226;1.314430;-50.410483;,
  -68.307219;0.472833;-50.029504;,
  -66.707642;0.472833;-49.580822;,
  -65.078035;0.472833;-49.619328;,
  -63.766374;0.472833;-49.930349;,
  -62.550758;0.472833;-50.139542;,
  31.179254;0.202545;-34.344614;,
  29.843389;1.132183;-35.079347;,
  28.369853;0.012562;-32.333219;,
  30.142758;1.132174;-36.656835;,
  31.654102;0.202565;-36.365843;,
  31.145309;0.202555;-39.047539;,
  27.005446;1.733963;-38.268176;,
  28.060970;1.078027;-32.544813;,
  29.863533;1.132174;-39.398182;,
  26.500021;1.132183;-33.866675;,
  30.006179;0.202545;-41.400893;,
  27.447430;0.202555;-32.393770;,
  28.531738;1.132194;-41.828224;,
  28.678416;0.202555;-43.061290;,
  25.753094;0.202555;-44.173936;,
  25.089403;0.545012;-34.684323;,
  24.420226;0.202555;-34.991613;,
  28.121523;1.733973;-40.693792;,
  22.992317;0.545002;-37.741837;,
  22.820720;0.202545;-37.586922;,
  22.461851;1.132183;-40.811504;,
  20.215784;1.132174;-40.338240;,
  19.113290;0.202545;-40.100531;,
  16.833787;0.202545;-42.023872;,
  24.784970;1.132194;-42.008134;,
  20.172925;1.132174;-41.898131;,
  26.386018;1.132183;-43.252141;,
  24.228166;1.132183;-43.541498;,
  22.393806;0.202555;-45.288246;,
  22.168173;1.132183;-43.984150;,
  20.734275;0.202545;-45.370838;,
  18.866974;0.202555;-45.070573;,
  19.912059;1.132174;-43.029037;,
  17.174579;0.202555;-44.471411;,
  -106.807942;-0.377301;-53.916992;,
  -105.598413;0.773625;-53.237542;,
  -102.662765;-0.377301;-55.830406;,
  -101.670547;0.773625;-54.950438;,
  -99.421722;-0.377301;-57.890426;,
  -102.320710;1.889713;-50.089264;,
  -106.388602;0.773593;-48.740522;,
  -98.675635;0.773625;-56.713466;,
  -96.127040;-0.377301;-55.391098;,
  -96.652480;0.773625;-54.588474;,
  -97.847949;1.889713;-51.031178;,
  -91.530778;0.773625;-56.099258;,
  -91.776186;-0.377301;-56.979597;,
  -99.072128;2.631580;-47.723136;,
  -86.427552;0.773625;-57.900326;,
  -86.068461;-0.377301;-58.802637;,
  -81.084397;-0.377301;-57.644659;,
  -93.980909;1.317203;-48.866851;,
  -99.998061;1.889713;-45.440877;,
  -105.778906;0.773625;-44.943834;,
  -107.240448;-0.377301;-48.936230;,
  -106.588832;-0.377301;-44.682406;,
  -101.702272;-0.377301;-42.444794;,
  -100.951808;0.773625;-43.079133;,
  -96.928704;-0.377301;-42.106845;,
  -96.645747;0.773625;-43.005802;,
  -90.771898;0.773625;-42.602403;,
  -90.439200;-0.377301;-41.503312;,
  -88.917178;1.860781;-49.134224;,
  -86.981606;0.773609;-44.208970;,
  -86.290118;-0.377301;-43.127786;,
  -87.672525;1.860781;-53.517568;,
  -83.542816;0.773609;-44.167619;,
  -82.580800;-0.377301;-43.363072;,
  -81.578240;0.773625;-55.494176;,
  -77.818502;-0.377301;-55.863046;,
  -83.527456;1.860781;-51.021226;,
  -79.656774;0.773625;-51.959046;,
  -76.063373;-0.377301;-53.016627;,
  -80.194842;0.773609;-45.992867;,
  -77.488922;-0.377301;-44.167206;,
  -75.765792;-0.377301;-47.682778;,
  -78.857779;0.773625;-48.744493;,
  30.050934;1.143367;63.319834;,
  30.498464;0.270094;62.676346;,
  26.575386;0.022034;66.968934;,
  27.317686;1.014070;66.979859;,
  25.135834;0.014183;68.002950;,
  25.728485;0.974639;70.087603;,
  24.981902;0.012452;70.140083;,
  26.081675;0.016824;72.095155;,
  26.421138;0.985563;71.710054;,
  29.492282;0.032940;73.512390;,
  26.422330;2.352239;69.613805;,
  29.745856;1.040989;73.020160;,
  31.018432;0.038285;73.376256;,
  27.861978;2.368370;72.064307;,
  27.571834;3.071437;67.930150;,
  29.514355;2.391907;72.474093;,
  30.775859;1.057146;72.577165;,
  32.113651;0.047389;71.823744;,
  31.078582;3.117256;68.988410;,
  29.876762;2.448634;64.952352;,
  31.649075;1.071901;71.221293;,
  30.983082;2.443315;65.726016;,
  34.579232;1.087445;66.049171;,
  35.155190;0.051997;66.095667;,
  32.855808;1.595671;66.991366;,
  33.936608;0.060210;63.859731;,
  31.726864;1.119341;64.287379;,
  -75.237702;0.447166;-30.864810;,
  -77.737165;1.232183;-31.050806;,
  -76.873094;0.447166;-30.311510;,
  -75.447955;0.447166;-31.834931;,
  -77.014733;0.447166;-33.213824;,
  -79.369760;0.447166;-30.073469;,
  -82.659302;1.749759;-31.747274;,
  -82.256486;0.447166;-30.230470;,
  -84.967795;0.447166;-30.177430;,
  -80.224109;1.274727;-34.057181;,
  -79.282022;0.447166;-34.839107;,
  -81.649530;0.447166;-35.804099;,
  -87.847277;1.315969;-31.822003;,
  -86.924966;0.447166;-30.687670;,
  -88.351744;0.447166;-31.722995;,
  -88.400378;0.447166;-32.516579;,
  -88.923488;1.336888;-34.763485;,
  -89.552435;0.447166;-35.207834;,
  -88.751405;0.447166;-37.047939;,
  -84.891955;0.957349;-36.854035;,
  -86.804717;0.447166;-37.555875;,
  -84.961114;0.447166;-37.602051;,
  43.413811;0.298477;-39.238237;,
  42.945037;1.004922;-38.295670;,
  45.634291;0.298476;-38.030806;,
  40.283718;1.004922;-38.186707;,
  39.258970;0.298476;-39.201706;,
  36.801779;0.298477;-38.637437;,
  47.668698;0.298476;-35.342957;,
  46.918794;1.004928;-34.457322;,
  38.074013;1.004928;-37.461440;,
  35.639930;0.298471;-37.020784;,
  47.738518;0.619058;-32.542832;,
  48.328653;0.298476;-31.845552;,
  36.398490;1.004916;-35.911546;,
  34.527222;0.298472;-35.946365;,
  34.874467;0.298472;-35.034730;,
  47.550090;0.619085;-30.634704;,
  47.722294;0.298472;-30.554182;,
  39.046314;1.400372;-35.946672;,
  46.339965;1.004916;-29.705107;,
  47.092816;0.298477;-29.196518;,
  45.274758;0.298477;-28.745210;,
  44.725302;1.004928;-30.627853;,
  44.786851;1.004922;-29.762621;,
  43.913469;1.004928;-29.959792;,
  43.625718;0.298469;-28.687622;,
  42.023798;0.298470;-30.563504;,
  38.435139;1.004928;-33.611299;,
  38.249981;0.298476;-32.878570;,
  36.570576;0.298474;-33.854538;,
  37.099738;1.004928;-34.567491;,
  39.793126;1.004928;-33.910614;,
  36.055104;1.004928;-35.123795;,
  43.750086;1.400372;-34.663590;,
  44.058211;1.004922;-36.862198;,
  22.754310;0.322550;-19.169453;,
  21.988270;0.998128;-18.741341;,
  22.918731;0.322550;-17.749210;,
  21.269562;0.998128;-19.582270;,
  21.731568;0.322550;-20.568282;,
  20.386842;0.322550;-21.188461;,
  22.815293;0.322550;-15.044205;,
  21.769187;0.998134;-15.045330;,
  19.965416;0.998134;-20.166493;,
  18.807938;0.322546;-21.231976;,
  21.166816;0.629124;-13.403560;,
  21.067162;0.322550;-12.535544;,
  18.277488;0.998122;-20.136805;,
  17.422256;0.322546;-21.450506;,
  16.844778;0.322546;-20.791784;,
  19.713509;0.629149;-12.285200;,
  19.770187;0.322546;-12.112488;,
  19.032837;1.376298;-18.963744;,
  18.272994;0.998122;-12.519614;,
  18.411720;0.322550;-11.662031;,
  16.906670;0.322550;-12.633508;,
  17.858917;0.998134;-14.249371;,
  17.264763;0.998128;-13.673237;,
  16.555970;0.998134;-14.703003;,
  15.562294;0.322543;-13.983523;,
  15.453605;0.322544;-16.372778;,
  16.572243;0.998134;-18.183125;,
  15.615320;0.322550;-18.451221;,
  16.018349;0.322548;-19.795238;,
  17.161378;0.998134;-19.166637;,
  17.682861;0.998134;-17.624158;,
  17.381096;0.998134;-20.132162;,
  20.158371;1.376298;-16.841051;,
  21.617843;0.998128;-17.663067;,
  -75.424698;0.163970;-42.466080;,
  -74.843565;1.834909;-41.706528;,
  -73.831757;0.163970;-42.267891;,
  -75.688173;1.834900;-40.621549;,
  -76.863795;0.163970;-40.959350;,
  -77.479994;0.163970;-39.155030;,
  -71.482118;0.163970;-44.305770;,
  -71.231917;1.834909;-43.161728;,
  -76.262445;1.834900;-38.919530;,
  -77.556224;0.163970;-37.578483;,
  -69.694406;1.267589;-43.456454;,
  -68.853408;0.163970;-43.721539;,
  -76.247923;1.834919;-37.339894;,
  -77.859731;0.163970;-36.204298;,
  -76.551206;0.163970;-35.239878;,
  -68.765818;1.267580;-41.739600;,
  -68.022765;0.163970;-42.224883;,
  -74.913466;2.416353;-38.287850;,
  -68.584058;1.834900;-39.324646;,
  -68.202234;0.163970;-39.174371;,
  -69.088320;0.163970;-37.145446;,
  -70.687654;1.834909;-38.671472;,
  -69.867059;1.834900;-37.758304;,
  -70.604262;1.834900;-36.651878;,
  -70.238189;0.163970;-36.541062;,
  -71.485178;0.748997;-34.746598;,
  -73.421363;1.834909;-35.519142;,
  -73.531866;0.163970;-34.304688;,
  -75.000589;0.163970;-34.266189;,
  -74.572006;1.834909;-35.878848;,
  -73.350451;1.834919;-37.331555;,
  -75.919859;1.834909;-36.108902;,
  -72.726950;2.416344;-40.174419;,
  -73.688806;1.834900;-42.066758;,
  69.383622;0.000000;-1.026180;,
  66.777235;1.370296;-2.667690;,
  62.517843;0.000000;-0.814373;,
  67.936269;1.370283;-5.253353;,
  71.057606;0.000000;-4.130726;,
  72.405523;0.000000;-19.176114;,
  50.064666;0.000000;-2.827724;,
  48.518998;1.370296;-6.470405;,
  68.995066;1.370283;-19.859381;,
  68.791635;0.000000;-22.513358;,
  41.512301;0.577469;-3.685720;,
  37.968589;0.000000;-2.438791;,
  64.052749;1.370310;-22.142269;,
  66.742464;0.000000;-24.813893;,
  56.712979;0.000000;-21.485302;,
  35.698541;0.577454;-5.981662;,
  33.200192;0.000000;-5.994859;,
  61.839110;2.182862;-19.728347;,
  32.300800;1.370283;-11.802809;,
  30.532739;0.000000;-12.089668;,
  28.269818;0.000000;-19.927850;,
  36.648003;1.370296;-16.945051;,
  32.045978;1.370283;-18.764667;,
  33.470736;1.370283;-21.076344;,
  30.252768;0.000000;-23.351517;,
  34.748784;0.000000;-25.074771;,
  45.870141;1.370296;-20.018955;,
  44.191043;0.000000;-22.590016;,
  49.409821;0.000000;-22.883926;,
  50.719856;1.370296;-19.410883;,
  48.842288;1.370310;-16.170722;,
  56.183360;1.370296;-19.547520;,
  52.114000;2.182848;-10.726129;,
  61.911853;1.370283;-1.166145;,
  -71.626976;0.322450;-80.896147;,
  -70.799878;1.492573;-78.930906;,
  -68.688627;0.322450;-78.881882;,
  -72.643526;1.492573;-77.721178;,
  -74.668531;0.322450;-79.469786;,
  -76.265472;0.322450;-76.540275;,
  -62.903098;0.322450;-79.415174;,
  -62.998061;1.492586;-77.278125;,
  -73.735674;1.492573;-75.168691;,
  -75.880576;0.322450;-73.673178;,
  -60.100186;1.028911;-73.318733;,
  -57.543405;0.322450;-74.984301;,
  -72.667590;1.492586;-72.765216;,
  -75.810163;0.322450;-71.397402;,
  -72.415923;0.322450;-68.804365;,
  -57.993773;1.352547;-71.247693;,
  -57.508813;0.322450;-71.278509;,
  -70.567802;2.263097;-73.147814;,
  -58.451661;1.492586;-66.454419;,
  -55.795251;0.322450;-65.701677;,
  -62.534419;0.322450;-63.467347;,
  -62.434598;1.492560;-67.940819;,
  -62.252883;1.492573;-65.242093;,
  -64.015398;1.492560;-64.371008;,
  -64.678253;0.322450;-60.874458;,
  -66.364672;0.322450;-62.226995;,
  -66.493766;1.492573;-66.137664;,
  -66.898893;0.322450;-63.640352;,
  -69.464602;0.322450;-65.049754;,
  -68.740909;1.492573;-68.197632;,
  -66.989274;1.492573;-69.657997;,
  -71.348416;1.492573;-70.167821;,
  -66.843104;2.263096;-73.731366;,
  -68.525542;1.492573;-78.409869;,
  -84.422400;0.977575;-69.129965;,
  -82.896422;-0.535244;-69.286157;,
  -85.198272;-0.535246;-72.201165;,
  -83.514758;-0.535247;-66.025427;,
  -85.923776;0.180761;-71.440013;,
  -89.864608;-0.535244;-72.859642;,
  -86.198662;1.253607;-68.059776;,
  -89.763136;0.180736;-71.869242;,
  -89.098464;0.492543;-65.367347;,
  -88.997190;-0.535244;-64.376288;,
  -88.194272;1.795406;-70.664986;,
  -92.630470;1.447440;-70.259578;,
  -94.769958;-0.535244;-71.060262;,
  -89.701632;2.230524;-68.400218;,
  -93.567386;1.447466;-68.100102;,
  -95.965517;-0.535243;-67.949926;,
  -93.909242;-0.535244;-65.389779;,
  -89.503488;1.917306;-66.456717;,
  -91.814854;0.840611;-66.422707;,
  21.541802;0.407567;77.358803;,
  24.820893;0.407567;75.795411;,
  23.504539;1.162041;74.714118;,
  23.167442;0.407567;72.014560;,
  21.155685;1.357679;75.119200;,
  18.136933;0.407566;76.399782;,
  21.566467;1.216786;72.258688;,
  18.280480;1.434737;75.232474;,
  14.020240;0.407567;69.890048;,
  21.641640;1.963030;74.212058;,
  19.644539;2.139147;73.537888;,
  18.670174;1.963022;74.234925;,
  18.394363;2.139147;70.340096;,
  16.365867;1.963030;70.367821;,
  14.823173;1.434727;69.765683;,
  17.264686;1.894558;67.563258;,
  15.727325;1.142390;66.759814;,
  15.290534;0.407567;65.528512;,
  19.405312;1.963022;69.027373;,
  19.809936;1.142390;65.073805;,
  20.518486;0.407567;63.222054;,
  20.729187;0.407567;66.550848;,
  20.023682;1.434737;67.866259;;
  524;
  3;0,1,2;,
  3;3,4,5;,
  3;6,7,8;,
  3;9,10,11;,
  3;12,13,14;,
  3;15,13,12;,
  3;16,17,18;,
  3;19,17,16;,
  3;20,21,22;,
  3;23,21,20;,
  3;24,25,26;,
  3;27,25,24;,
  3;28,29,30;,
  3;29,31,30;,
  3;32,33,34;,
  3;35,33,32;,
  3;36,37,38;,
  3;39,37,36;,
  3;40,41,42;,
  3;43,41,40;,
  3;43,44,41;,
  3;44,45,41;,
  3;46,45,44;,
  3;46,47,45;,
  3;45,48,41;,
  3;49,45,47;,
  3;50,49,47;,
  3;49,50,51;,
  3;52,49,51;,
  3;49,52,45;,
  3;53,45,52;,
  3;48,45,53;,
  3;54,53,52;,
  3;54,55,53;,
  3;53,56,48;,
  3;57,56,55;,
  3;58,56,57;,
  3;58,59,56;,
  3;59,48,56;,
  3;59,60,48;,
  3;60,61,48;,
  3;61,42,48;,
  3;62,63,64;,
  3;65,63,62;,
  3;66,65,62;,
  3;66,67,65;,
  3;65,68,63;,
  3;68,69,63;,
  3;67,70,65;,
  3;71,69,68;,
  3;67,72,70;,
  3;73,64,71;,
  3;72,74,70;,
  3;72,75,74;,
  3;75,76,74;,
  3;73,71,77;,
  3;78,73,77;,
  3;70,74,79;,
  3;65,70,79;,
  3;79,68,65;,
  3;78,77,80;,
  3;81,78,80;,
  3;71,82,77;,
  3;80,77,82;,
  3;68,82,71;,
  3;80,83,81;,
  3;83,80,82;,
  3;83,84,81;,
  3;84,83,85;,
  3;82,68,86;,
  3;68,79,86;,
  3;87,83,82;,
  3;83,87,85;,
  3;79,88,86;,
  3;79,74,88;,
  3;76,88,74;,
  3;89,88,76;,
  3;88,89,86;,
  3;90,89,76;,
  3;86,89,91;,
  3;91,89,90;,
  3;86,91,82;,
  3;82,91,87;,
  3;92,91,90;,
  3;92,93,91;,
  3;87,91,94;,
  3;93,94,91;,
  3;85,87,94;,
  3;95,94,93;,
  3;95,85,94;,
  3;96,97,98;,
  3;97,99,98;,
  3;98,99,100;,
  3;97,101,99;,
  3;97,102,101;,
  3;99,103,100;,
  3;100,103,104;,
  3;105,103,99;,
  3;103,105,104;,
  3;106,105,99;,
  3;101,106,99;,
  3;105,107,104;,
  3;107,105,106;,
  3;107,108,104;,
  3;101,109,106;,
  3;107,110,108;,
  3;110,111,108;,
  3;111,110,112;,
  3;106,109,113;,
  3;113,107,106;,
  3;109,101,114;,
  3;113,109,114;,
  3;101,102,115;,
  3;114,101,115;,
  3;115,102,116;,
  3;117,115,116;,
  3;115,117,118;,
  3;119,115,118;,
  3;119,114,115;,
  3;119,118,120;,
  3;114,119,121;,
  3;121,119,120;,
  3;113,114,121;,
  3;122,121,120;,
  3;113,121,122;,
  3;123,122,120;,
  3;124,113,122;,
  3;107,113,124;,
  3;125,122,123;,
  3;122,125,124;,
  3;126,125,123;,
  3;127,107,124;,
  3;110,107,127;,
  3;128,125,126;,
  3;128,124,125;,
  3;129,128,126;,
  3;110,127,130;,
  3;110,130,112;,
  3;130,131,112;,
  3;127,124,132;,
  3;132,130,127;,
  3;132,124,128;,
  3;130,133,131;,
  3;133,130,132;,
  3;133,134,131;,
  3;135,132,128;,
  3;135,128,129;,
  3;136,135,129;,
  3;135,136,137;,
  3;138,133,132;,
  3;135,138,132;,
  3;133,138,134;,
  3;138,135,137;,
  3;138,137,134;,
  3;139,140,141;,
  3;142,139,141;,
  3;141,143,142;,
  3;142,143,144;,
  3;143,145,144;,
  3;145,146,144;,
  3;146,147,144;,
  3;146,148,147;,
  3;144,149,142;,
  3;144,147,149;,
  3;148,150,147;,
  3;148,151,150;,
  3;147,152,149;,
  3;147,150,152;,
  3;149,153,142;,
  3;153,149,152;,
  3;150,154,152;,
  3;154,153,152;,
  3;151,155,150;,
  3;150,155,154;,
  3;151,156,155;,
  3;157,153,154;,
  3;155,157,154;,
  3;153,158,142;,
  3;153,157,158;,
  3;158,139,142;,
  3;159,157,155;,
  3;156,159,155;,
  3;157,160,158;,
  3;161,159,156;,
  3;162,161,156;,
  3;163,157,159;,
  3;157,163,160;,
  3;161,163,159;,
  3;162,164,161;,
  3;165,160,163;,
  3;161,165,163;,
  3;158,160,165;,
  3;164,165,161;,
  3;139,158,165;,
  3;164,140,165;,
  3;140,139,165;,
  3;166,167,168;,
  3;169,167,166;,
  3;169,170,167;,
  3;171,168,172;,
  3;173,171,172;,
  3;174,173,172;,
  3;170,175,167;,
  3;175,172,167;,
  3;176,175,170;,
  3;176,177,175;,
  3;174,172,178;,
  3;179,174,178;,
  3;179,178,180;,
  3;180,178,181;,
  3;182,178,172;,
  3;172,175,182;,
  3;183,181,182;,
  3;183,182,184;,
  3;182,175,184;,
  3;185,184,175;,
  3;185,175,177;,
  3;184,185,186;,
  3;187,185,177;,
  3;185,187,186;,
  3;188,189,190;,
  3;191,189,188;,
  3;192,191,188;,
  3;192,193,191;,
  3;194,190,195;,
  3;193,196,191;,
  3;193,197,196;,
  3;194,195,198;,
  3;199,194,198;,
  3;197,200,196;,
  3;197,201,200;,
  3;201,202,200;,
  3;199,198,203;,
  3;204,199,203;,
  3;196,200,205;,
  3;191,196,205;,
  3;203,206,204;,
  3;206,207,204;,
  3;207,206,208;,
  3;203,198,209;,
  3;206,203,209;,
  3;195,209,198;,
  3;206,210,208;,
  3;210,206,209;,
  3;208,210,211;,
  3;212,208,211;,
  3;212,211,213;,
  3;210,214,211;,
  3;213,211,214;,
  3;209,214,210;,
  3;215,213,214;,
  3;215,214,216;,
  3;214,217,216;,
  3;216,217,202;,
  3;218,214,209;,
  3;218,217,214;,
  3;217,219,202;,
  3;219,217,218;,
  3;202,219,200;,
  3;205,200,219;,
  3;205,219,218;,
  3;209,220,218;,
  3;220,205,218;,
  3;220,209,195;,
  3;205,220,191;,
  3;195,221,220;,
  3;191,220,189;,
  3;220,221,189;,
  3;222,223,224;,
  3;225,223,222;,
  3;226,225,222;,
  3;226,227,225;,
  3;228,224,229;,
  3;227,230,225;,
  3;227,231,230;,
  3;228,229,232;,
  3;233,228,232;,
  3;231,234,230;,
  3;231,235,234;,
  3;235,236,234;,
  3;233,232,237;,
  3;238,233,237;,
  3;230,234,239;,
  3;225,230,239;,
  3;237,240,238;,
  3;240,241,238;,
  3;241,240,242;,
  3;237,232,243;,
  3;240,237,243;,
  3;229,243,232;,
  3;240,244,242;,
  3;244,240,243;,
  3;242,244,245;,
  3;246,242,245;,
  3;246,245,247;,
  3;244,248,245;,
  3;247,245,248;,
  3;243,248,244;,
  3;249,247,248;,
  3;249,248,250;,
  3;248,251,250;,
  3;250,251,236;,
  3;252,248,243;,
  3;252,251,248;,
  3;251,253,236;,
  3;253,251,252;,
  3;236,253,234;,
  3;239,234,253;,
  3;239,253,252;,
  3;243,254,252;,
  3;254,239,252;,
  3;254,243,229;,
  3;239,254,225;,
  3;229,255,254;,
  3;225,254,223;,
  3;254,255,223;,
  3;256,257,258;,
  3;259,257,256;,
  3;260,259,256;,
  3;260,261,259;,
  3;262,258,263;,
  3;261,264,259;,
  3;261,265,264;,
  3;262,263,266;,
  3;267,262,266;,
  3;265,268,264;,
  3;265,269,268;,
  3;269,270,268;,
  3;267,266,271;,
  3;272,267,271;,
  3;264,268,273;,
  3;259,264,273;,
  3;271,274,272;,
  3;274,275,272;,
  3;275,274,276;,
  3;271,266,277;,
  3;274,271,277;,
  3;263,277,266;,
  3;274,278,276;,
  3;278,274,277;,
  3;276,278,279;,
  3;280,276,279;,
  3;280,279,281;,
  3;278,282,279;,
  3;281,279,282;,
  3;277,282,278;,
  3;283,281,282;,
  3;283,282,284;,
  3;282,285,284;,
  3;284,285,270;,
  3;286,282,277;,
  3;286,285,282;,
  3;285,287,270;,
  3;287,285,286;,
  3;270,287,268;,
  3;273,268,287;,
  3;273,287,286;,
  3;277,288,286;,
  3;288,273,286;,
  3;288,277,263;,
  3;273,288,259;,
  3;263,289,288;,
  3;259,288,257;,
  3;288,289,257;,
  3;290,291,292;,
  3;293,291,290;,
  3;294,293,290;,
  3;294,295,293;,
  3;296,292,297;,
  3;295,298,293;,
  3;295,299,298;,
  3;296,297,300;,
  3;301,296,300;,
  3;299,302,298;,
  3;299,303,302;,
  3;303,304,302;,
  3;301,300,305;,
  3;306,301,305;,
  3;298,302,307;,
  3;293,298,307;,
  3;305,308,306;,
  3;308,309,306;,
  3;309,308,310;,
  3;305,300,311;,
  3;308,305,311;,
  3;297,311,300;,
  3;308,312,310;,
  3;312,308,311;,
  3;310,312,313;,
  3;314,310,313;,
  3;314,313,315;,
  3;312,316,313;,
  3;315,313,316;,
  3;311,316,312;,
  3;317,315,316;,
  3;317,316,318;,
  3;316,319,318;,
  3;318,319,304;,
  3;320,316,311;,
  3;320,319,316;,
  3;319,321,304;,
  3;321,319,320;,
  3;304,321,302;,
  3;307,302,321;,
  3;307,321,320;,
  3;311,322,320;,
  3;322,307,320;,
  3;322,311,297;,
  3;307,322,293;,
  3;297,323,322;,
  3;293,322,291;,
  3;322,323,291;,
  3;324,325,326;,
  3;327,325,324;,
  3;328,327,324;,
  3;328,329,327;,
  3;330,326,331;,
  3;329,332,327;,
  3;329,333,332;,
  3;330,331,334;,
  3;335,330,334;,
  3;333,336,332;,
  3;333,337,336;,
  3;337,338,336;,
  3;335,334,339;,
  3;340,335,339;,
  3;332,336,341;,
  3;327,332,341;,
  3;339,342,340;,
  3;342,343,340;,
  3;343,342,344;,
  3;339,334,345;,
  3;342,339,345;,
  3;331,345,334;,
  3;342,346,344;,
  3;346,342,345;,
  3;344,346,347;,
  3;348,344,347;,
  3;348,347,349;,
  3;346,350,347;,
  3;349,347,350;,
  3;345,350,346;,
  3;351,349,350;,
  3;351,350,352;,
  3;350,353,352;,
  3;352,353,338;,
  3;354,350,345;,
  3;354,353,350;,
  3;353,355,338;,
  3;355,353,354;,
  3;338,355,336;,
  3;341,336,355;,
  3;341,355,354;,
  3;345,356,354;,
  3;356,341,354;,
  3;356,345,331;,
  3;341,356,327;,
  3;331,357,356;,
  3;327,356,325;,
  3;356,357,325;,
  3;358,359,360;,
  3;361,359,358;,
  3;360,362,358;,
  3;362,360,363;,
  3;358,364,361;,
  3;364,358,362;,
  3;363,365,362;,
  3;361,364,366;,
  3;366,367,361;,
  3;362,365,368;,
  3;368,364,362;,
  3;365,363,369;,
  3;368,365,369;,
  3;369,363,370;,
  3;368,371,364;,
  3;371,368,369;,
  3;372,369,370;,
  3;372,371,369;,
  3;370,373,372;,
  3;372,373,374;,
  3;371,375,364;,
  3;375,366,364;,
  3;371,372,376;,
  3;376,375,371;,
  3;374,376,372;,
  3;376,366,375;,
  3;367,376,374;,
  3;376,367,366;,
  3;377,378,379;,
  3;379,378,380;,
  3;379,381,377;,
  3;377,381,382;,
  3;380,383,379;,
  3;384,382,381;,
  3;385,382,384;,
  3;381,379,386;,
  3;386,379,383;,
  3;381,386,387;,
  3;387,386,383;,
  3;387,388,381;,
  3;388,384,381;,
  3;383,389,387;,
  3;388,387,389;,
  3;384,388,390;,
  3;388,389,390;,
  3;390,391,384;,
  3;384,391,385;,
  3;389,392,390;,
  3;392,391,390;,
  3;385,391,393;,
  3;392,393,391;,
  3;393,394,385;,
  3;392,389,395;,
  3;395,389,383;,
  3;396,394,393;,
  3;396,393,392;,
  3;394,396,397;,
  3;397,396,398;,
  3;392,395,399;,
  3;399,396,392;,
  3;383,399,395;,
  3;399,398,396;,
  3;399,383,380;,
  3;380,398,399;;

  MeshMaterialList {
   1;
   524;
   0,
   0,
   0,
   0,
   0,
   0,
   0,
   0,
   0,
   0,
   0,
   0,
   0,
   0,
   0,
   0,
   0,
   0,
   0,
   0,
   0,
   0,
   0,
   0,
   0,
   0,
   0,
   0,
   0,
   0,
   0,
   0,
   0,
   0,
   0,
   0,
   0,
   0,
   0,
   0,
   0,
   0,
   0,
   0,
   0,
   0,
   0,
   0,
   0,
   0,
   0,
   0,
   0,
   0,
   0,
   0,
   0,
   0,
   0,
   0,
   0,
   0,
   0,
   0,
   0,
   0,
   0,
   0,
   0,
   0,
   0,
   0,
   0,
   0,
   0,
   0,
   0,
   0,
   0,
   0,
   0,
   0,
   0,
   0,
   0,
   0,
   0,
   0,
   0,
   0,
   0,
   0,
   0,
   0,
   0,
   0,
   0,
   0,
   0,
   0,
   0,
   0,
   0,
   0,
   0,
   0,
   0,
   0,
   0,
   0,
   0,
   0,
   0,
   0,
   0,
   0,
   0,
   0,
   0,
   0,
   0,
   0,
   0,
   0,
   0,
   0,
   0,
   0,
   0,
   0,
   0,
   0,
   0,
   0,
   0,
   0,
   0,
   0,
   0,
   0,
   0,
   0,
   0,
   0,
   0,
   0,
   0,
   0,
   0,
   0,
   0,
   0,
   0,
   0,
   0,
   0,
   0,
   0,
   0,
   0,
   0,
   0,
   0,
   0,
   0,
   0,
   0,
   0,
   0,
   0,
   0,
   0,
   0,
   0,
   0,
   0,
   0,
   0,
   0,
   0,
   0,
   0,
   0,
   0,
   0,
   0,
   0,
   0,
   0,
   0,
   0,
   0,
   0,
   0,
   0,
   0,
   0,
   0,
   0,
   0,
   0,
   0,
   0,
   0,
   0,
   0,
   0,
   0,
   0,
   0,
   0,
   0,
   0,
   0,
   0,
   0,
   0,
   0,
   0,
   0,
   0,
   0,
   0,
   0,
   0,
   0,
   0,
   0,
   0,
   0,
   0,
   0,
   0,
   0,
   0,
   0,
   0,
   0,
   0,
   0,
   0,
   0,
   0,
   0,
   0,
   0,
   0,
   0,
   0,
   0,
   0,
   0,
   0,
   0,
   0,
   0,
   0,
   0,
   0,
   0,
   0,
   0,
   0,
   0,
   0,
   0,
   0,
   0,
   0,
   0,
   0,
   0,
   0,
   0,
   0,
   0,
   0,
   0,
   0,
   0,
   0,
   0,
   0,
   0,
   0,
   0,
   0,
   0,
   0,
   0,
   0,
   0,
   0,
   0,
   0,
   0,
   0,
   0,
   0,
   0,
   0,
   0,
   0,
   0,
   0,
   0,
   0,
   0,
   0,
   0,
   0,
   0,
   0,
   0,
   0,
   0,
   0,
   0,
   0,
   0,
   0,
   0,
   0,
   0,
   0,
   0,
   0,
   0,
   0,
   0,
   0,
   0,
   0,
   0,
   0,
   0,
   0,
   0,
   0,
   0,
   0,
   0,
   0,
   0,
   0,
   0,
   0,
   0,
   0,
   0,
   0,
   0,
   0,
   0,
   0,
   0,
   0,
   0,
   0,
   0,
   0,
   0,
   0,
   0,
   0,
   0,
   0,
   0,
   0,
   0,
   0,
   0,
   0,
   0,
   0,
   0,
   0,
   0,
   0,
   0,
   0,
   0,
   0,
   0,
   0,
   0,
   0,
   0,
   0,
   0,
   0,
   0,
   0,
   0,
   0,
   0,
   0,
   0,
   0,
   0,
   0,
   0,
   0,
   0,
   0,
   0,
   0,
   0,
   0,
   0,
   0,
   0,
   0,
   0,
   0,
   0,
   0,
   0,
   0,
   0,
   0,
   0,
   0,
   0,
   0,
   0,
   0,
   0,
   0,
   0,
   0,
   0,
   0,
   0,
   0,
   0,
   0,
   0,
   0,
   0,
   0,
   0,
   0,
   0,
   0,
   0,
   0,
   0,
   0,
   0,
   0,
   0,
   0,
   0,
   0,
   0,
   0,
   0,
   0,
   0,
   0,
   0,
   0,
   0,
   0,
   0,
   0,
   0,
   0,
   0,
   0,
   0,
   0,
   0,
   0,
   0,
   0,
   0,
   0,
   0,
   0,
   0,
   0,
   0,
   0,
   0,
   0,
   0,
   0,
   0,
   0,
   0,
   0,
   0,
   0,
   0,
   0,
   0,
   0,
   0,
   0,
   0,
   0,
   0,
   0,
   0,
   0,
   0,
   0,
   0,
   0,
   0,
   0,
   0,
   0,
   0,
   0,
   0,
   0,
   0,
   0,
   0,
   0,
   0;
   { MI_HOS_Debris01 }
  }

  DeclData {
   3;
   2;0;3;0;,
   1;0;5;0;,
   1;0;5;1;;
   2800;
   3210960700,
   1052985962,
   1048785713,
   1052155904,
   1059864576,
   1050230784,
   1006305280,
   3203564065,
   1061674286,
   1053864062,
   1051918336,
   1059831808,
   1050230784,
   1006501888,
   3204783116,
   1062898731,
   3169644574,
   1052385280,
   1059651584,
   1050230784,
   1005723648,
   1040951691,
   1061514024,
   1059008953,
   1050198016,
   1059340288,
   1042841600,
   1008754688,
   1041424952,
   1064365082,
   1050461327,
   1050411008,
   1059332096,
   1042849792,
   1008918528,
   1007407062,
   1064799203,
   1048734244,
   1051107328,
   1059553280,
   1042857984,
   1009319936,
   3207445965,
   1051899435,
   1059417300,
   1059495936,
   1052655616,
   1050230784,
   1006305280,
   3198373243,
   1061442476,
   1057919152,
   1059340288,
   1052606464,
   1050230784,
   1006501888,
   3200980647,
   1063749654,
   1042343019,
   1059602432,
   1052172288,
   1050230784,
   1005723648,
   1057725113,
   1061440373,
   1051549893,
   1058586624,
   1052467200,
   1042841600,
   1008754688,
   1051851740,
   1061604395,
   1057391989,
   1058734080,
   1052377088,
   1042849792,
   1008918528,
   1035795318,
   1064630167,
   1049426865,
   1058988032,
   1052426240,
   1042857984,
   1009319936,
   1049611033,
   1058205990,
   1061480923,
   1056169984,
   1059594240,
   1064411136,
   1016160256,
   3112465913,
   1058813684,
   1061867530,
   1056022528,
   1059643392,
   1064411136,
   1016160256,
   3200308825,
   1062266389,
   1054900628,
   1055694848,
   1059635200,
   1064411136,
   1016619008,
   1051425731,
   1063984115,
   1045935200,
   1056030720,
   1059905536,
   1064411136,
   1015971840,
   1049225128,
   1063939495,
   3197674604,
   1058758656,
   1059840000,
   1054752768,
   1017118720,
   1045762295,
   1064672359,
   3192054889,
   1058471936,
   1059995648,
   1054760960,
   1017135104,
   1052095679,
   1064171341,
   3184300703,
   1058332672,
   1059414016,
   1054760960,
   1017626624,
   1035996916,
   1064090129,
   3200050276,
   1058627584,
   1060241408,
   1054760960,
   1016930304,
   1057316446,
   1062894009,
   1015349087,
   1057562624,
   1057251328,
   1054752768,
   1017118720,
   1052455779,
   1064157360,
   1031555495,
   1057300480,
   1057308672,
   1054760960,
   1017135104,
   1051421050,
   1064096298,
   1043829786,
   1057202176,
   1056727040,
   1054760960,
   1017626624,
   1053790330,
   1063779999,
   3187000281,
   1057423360,
   1057472512,
   1054760960,
   1016930304,
   3196364733,
   1050557204,
   3211412063,
   1059209216,
   1056497664,
   1064411136,
   1016160256,
   3196457602,
   1059834380,
   3207696785,
   1059045376,
   1056555008,
   1064411136,
   1016160256,
   3171508990,
   1062853363,
   3204852555,
   1058988032,
   1056088064,
   1064411136,
   1016619008,
   3198879587,
   1060830541,
   3206054312,
   1059069952,
   1056776192,
   1064411136,
   1015971840,
   3205917570,
   1062151151,
   1003664970,
   1045561344,
   1063616512,
   1057955840,
   1013104640,
   3201145317,
   1062998133,
   3198270668,
   1047281664,
   1063714816,
   1057955840,
   1014104064,
   3209278356,
   1058906364,
   3155706830,
   1045397504,
   1063747584,
   1057955840,
   1013129216,
   3204953353,
   1061470305,
   3199690005,
   1047388160,
   1063903232,
   1057955840,
   1014194176,
   1017041688,
   1053890637,
   1063886926,
   1059758080,
   1050419200,
   1064411136,
   1016160256,
   3182450696,
   1060112244,
   1060671585,
   1059717120,
   1050419200,
   1064411136,
   1016160256,
   3177129260,
   1064925884,
   1046397892,
   1059446784,
   1049837568,
   1064411136,
   1016619008,
   1041438770,
   1064297714,
   1050863461,
   1059741696,
   1050648576,
   1064411136,
   1015971840,
   1046823604,
   1057004012,
   3210071590,
   1052295168,
   1052917760,
   1058349056,
   1010450432,
   1040917686,
   1061427303,
   3206601082,
   1052098560,
   1052942336,
   1058349056,
   1010532352,
   1049874622,
   1063743928,
   3198244276,
   1051820032,
   1052123136,
   1058349056,
   1010991104,
   1026208872,
   1063719126,
   3202047665,
   1052229632,
   1053286400,
   1058349056,
   1010302976,
   1056970034,
   1063025682,
   3182818524,
   1058537472,
   1052172288,
   1061568512,
   1018888192,
   1051851740,
   1061604395,
   1057391989,
   1058734080,
   1052377088,
   1061568512,
   1018748928,
   1057725113,
   1061440373,
   1051549893,
   1058586624,
   1052467200,
   1061568512,
   1018830848,
   1051761713,
   1063629722,
   3196916405,
   1058586624,
   1051959296,
   1061568512,
   1018855424,
   1053071567,
   1062983374,
   3199055604,
   1058701312,
   1051697152,
   1061560320,
   1018781696,
   1040453161,
   1063448141,
   3202585898,
   1058963456,
   1051729920,
   1061560320,
   1018609664,
   1045952577,
   1061538952,
   3206105356,
   1058865152,
   1051435008,
   1061560320,
   1018683392,
   1023756235,
   1059379903,
   3208883556,
   1059061760,
   1051443200,
   1061560320,
   1018544128,
   1035795318,
   1064630167,
   1049426865,
   1058988032,
   1052426240,
   1061568512,
   1018552320,
   3178688209,
   1063830760,
   3201490484,
   1059307520,
   1051574272,
   1061560320,
   1018363904,
   3189149519,
   1063094903,
   3203744805,
   1059389440,
   1051410432,
   1061560320,
   1018314752,
   3196412601,
   1057243450,
   3209743455,
   1059586048,
   1051664384,
   1061560320,
   1018159104,
   3200213723,
   1063421095,
   3197002367,
   1059758080,
   1051795456,
   1061560320,
   1018019840,
   3200980647,
   1063749654,
   1042343019,
   1059602432,
   1052172288,
   1061568512,
   1018093568,
   3206204508,
   1060353632,
   1052811844,
   1059758080,
   1052237824,
   1061568512,
   1018011648,
   3207445965,
   1051899435,
   1059417300,
   1059495936,
   1052655616,
   1061568512,
   1018208256,
   3198373243,
   1061442476,
   1057919152,
   1059340288,
   1052606464,
   1061568512,
   1018273792,
   3205720824,
   1058224074,
   1058325427,
   1059414016,
   1052835840,
   1061568512,
   1018224640,
   3172547693,
   1059905771,
   1060933884,
   1059192832,
   1052925952,
   1061576704,
   1018372096,
   1034902349,
   1060496309,
   1060294260,
   1058971648,
   1052909568,
   1061576704,
   1018527744,
   1041018798,
   1060170713,
   1060480813,
   1058799616,
   1052803072,
   1061576704,
   1018658816,
   1051593172,
   1063094000,
   1052545336,
   1058643968,
   1052696576,
   1061576704,
   1018781696,
   1054351136,
   1062925491,
   1050269888,
   1056366592,
   1059913728,
   1058250752,
   1023975424,
   1051425731,
   1063984115,
   1045935200,
   1056030720,
   1059905536,
   1058250752,
   1024065536,
   1049611033,
   1058205990,
   1061480923,
   1056169984,
   1059594240,
   1058242560,
   1024081920,
   1053185003,
   1064040792,
   1015723821,
   1055899648,
   1060036608,
   1058258944,
   1024114688,
   1057317637,
   1062892017,
   1017265517,
   1056227328,
   1060118528,
   1058258944,
   1024016384,
   1058513680,
   1061852730,
   3189437969,
   1055817728,
   1060315136,
   1058267136,
   1024147456,
   3171530014,
   1065323903,
   1028065035,
   1055244288,
   1059971072,
   1058242560,
   1024327680,
   3112465913,
   1058813684,
   1061867530,
   1056022528,
   1059643392,
   1058242560,
   1024106496,
   1057090581,
   1062795655,
   3189696496,
   1055531008,
   1060233216,
   1058267136,
   1024229376,
   3200308825,
   1062266389,
   1054900628,
   1055694848,
   1059635200,
   1058226176,
   1024188416,
   1058303846,
   1060941982,
   3199320331,
   1055326208,
   1060438016,
   1058275328,
   1024286720,
   999253956,
   1062794818,
   1057480762,
   1056006144,
   1059553280,
   1058226176,
   1024098304,
   1054254032,
   1062030379,
   3201952089,
   1055031296,
   1060331520,
   1058267136,
   1024376832,
   1051829695,
   1061465369,
   3205084798,
   1054883840,
   1060470784,
   1058275328,
   1024409600,
   1046003334,
   1059985419,
   3207836302,
   1054294016,
   1060364288,
   1058275328,
   1024573440,
   3205282626,
   1059935810,
   1056602796,
   1055391744,
   1059586048,
   1058217984,
   1024286720,
   3205582550,
   1060310397,
   1054760416,
   1055260672,
   1059553280,
   1058217984,
   1024327680,
   1044086232,
   1064840030,
   3190251467,
   1055113216,
   1060208640,
   1058258944,
   1024360448,
   3202835820,
   1061892923,
   1053846370,
   1054728192,
   1059667968,
   1058217984,
   1024491520,
   3206218274,
   1058147571,
   1057885261,
   1054720000,
   1059627008,
   1058217984,
   1024491520,
   3174068671,
   1065315529,
   1028793070,
   1054285824,
   1059864576,
   1058234368,
   1024614400,
   3196106982,
   1063919212,
   1050821213,
   1054031872,
   1059700736,
   1058226176,
   1024704512,
   3202815325,
   1060023373,
   1058224589,
   1053908992,
   1059577856,
   1058217984,
   1024753664,
   3198557590,
   1064395398,
   1033505313,
   1053343744,
   1059569664,
   1058234368,
   1024860160,
   3176370090,
   1065296151,
   3179512344,
   1054466048,
   1060102144,
   1058250752,
   1024557056,
   3187831864,
   1065214588,
   1014441824,
   1053827072,
   1059799040,
   1058234368,
   1024761856,
   1047134584,
   1062056605,
   3205281854,
   1054539776,
   1060290560,
   1058267136,
   1024524288,
   1034898305,
   1064329062,
   3198852070,
   1054187520,
   1060175872,
   1058267136,
   1024622592,
   1035598114,
   1062132450,
   3205825742,
   1053646848,
   1060208640,
   1058267136,
   1024761856,
   1011015540,
   1064487362,
   3198303764,
   1053835264,
   1060077568,
   1058258944,
   1024729088,
   3175912160,
   1062881941,
   3204783918,
   1053401088,
   1060085760,
   1058258944,
   1024843776,
   3187442472,
   1063953526,
   3200434680,
   1053179904,
   1059930112,
   1058250752,
   1024925696,
   3189729710,
   1065030341,
   3186708858,
   1053646848,
   1059856384,
   1058242560,
   1024811008,
   3194932591,
   1064627272,
   3190960573,
   1053048832,
   1059758080,
   1058242560,
   1024991232,
   3204953353,
   1061470305,
   3199690005,
   1047388160,
   1063903232,
   1063485440,
   1028612096,
   3201145317,
   1062998133,
   3198270668,
   1047281664,
   1063714816,
   1063485440,
   1028571136,
   3198229135,
   1060806373,
   3206258894,
   1048707072,
   1063567360,
   1063493632,
   1028472832,
   3191540186,
   1063594544,
   3201313259,
   1048485888,
   1063411712,
   1063493632,
   1028440064,
   3175359249,
   1060685730,
   3207643429,
   1049223168,
   1063272448,
   1063501824,
   1028358144,
   3190322794,
   1065058164,
   3182746636,
   1046634496,
   1063297024,
   1063477248,
   1028415488,
   3205917570,
   1062151151,
   1003664970,
   1045561344,
   1063616512,
   1063469056,
   1028390912,
   1043804424,
   1062555062,
   3204837595,
   1048977408,
   1063190528,
   1063501824,
   1028333568,
   1038648793,
   1058409700,
   3209518658,
   1049034752,
   1062952960,
   1063501824,
   1028145152,
   1030721980,
   1063517283,
   3202806448,
   1048772608,
   1062961152,
   1063493632,
   1028161536,
   1030920290,
   1065010616,
   3192176448,
   1047560192,
   1062944768,
   1063477248,
   1028210688,
   3191581585,
   1062933826,
   3203903538,
   1049313280,
   1062576128,
   1063493632,
   1028079616,
   3196542820,
   1058894743,
   3208522448,
   1049501696,
   1062649856,
   1063493632,
   1028087808,
   1024985992,
   1065212728,
   1040011708,
   1046290432,
   1062944768,
   1063460864,
   1028268032,
   3168884812,
   1062279144,
   3205728456,
   1049919488,
   1062248448,
   1063493632,
   1027776512,
   3130093622,
   1058923608,
   3209265770,
   1050165248,
   1062281216,
   1063493632,
   1027760128,
   1046321140,
   1063067107,
   3202942138,
   1050353664,
   1061838848,
   1063493632,
   1027579904,
   1030284347,
   1065314954,
   1024785823,
   1047339008,
   1062535168,
   1063460864,
   1028022272,
   3172144518,
   1064680744,
   1049514608,
   1045364736,
   1062936576,
   1063452672,
   1028300800,
   3203844317,
   1061512750,
   1054147585,
   1044381696,
   1063419904,
   1063452672,
   1028374528,
   3209278356,
   1058906364,
   3155706830,
   1045397504,
   1063747584,
   1063469056,
   1028423680,
   3207359924,
   1058281466,
   1055625352,
   1043980288,
   1063510016,
   1063452672,
   1028399104,
   3193638447,
   1057952371,
   1062017641,
   1043767296,
   1062977536,
   1063436288,
   1028374528,
   3187076413,
   1061188820,
   1059452577,
   1044340736,
   1062944768,
   1063436288,
   1028341760,
   3172608833,
   1058887451,
   1061795312,
   1044357120,
   1062526976,
   1063428096,
   1028120576,
   1019184762,
   1062909864,
   1057285849,
   1044922368,
   1062551552,
   1063436288,
   1028104192,
   1030218150,
   1063234510,
   1056398619,
   1045692416,
   1062035456,
   1063428096,
   1027801088,
   1038867440,
   1060453987,
   1060265960,
   1045217280,
   1061937152,
   1063428096,
   1027784704,
   3175594883,
   1065303202,
   1031072549,
   1048150016,
   1062125568,
   1063452672,
   1027784704,
   1035240941,
   1063643674,
   1054644665,
   1046798336,
   1061773312,
   1063428096,
   1027612672,
   1037971795,
   1060343570,
   1060394889,
   1046405120,
   1061642240,
   1063428096,
   1027588096,
   3177634791,
   1065179323,
   3188146293,
   1049149440,
   1062182912,
   1063477248,
   1027784704,
   1038617205,
   1062813624,
   1057245008,
   1047371776,
   1061494784,
   1063436288,
   1027481600,
   1044322114,
   1060903945,
   1059516505,
   1047134208,
   1061355520,
   1063436288,
   1027440640,
   1045641419,
   1064346396,
   3196791005,
   1049927680,
   1061789696,
   1063485440,
   1027465216,
   1048886270,
   1064348109,
   3194140653,
   1050320896,
   1061502976,
   1063477248,
   1027284992,
   1040059588,
   1065221437,
   3162769730,
   1049067520,
   1061773312,
   1063469056,
   1027571712,
   1049025321,
   1064664550,
   3184993586,
   1049526272,
   1061494784,
   1063477248,
   1027325952,
   1049921416,
   1064540334,
   3184581114,
   1050001408,
   1061240832,
   1063477248,
   1027284992,
   1043807629,
   1064507870,
   1048821562,
   1048485888,
   1061306368,
   1063452672,
   1027252224,
   1046726807,
   1064329958,
   1048987371,
   1048338432,
   1060986880,
   1063452672,
   1027203072,
   1051145673,
   1064387833,
   1033009991,
   1049165824,
   1061003264,
   1063460864,
   1027276800,
   1049429826,
   1064690653,
   1025601934,
   1049075712,
   1061306368,
   1063460864,
   1027317760,
   3196783491,
   1058397345,
   3208875925,
   1053220864,
   1050509312,
   939524096,
   1065353216,
   3169639672,
   1059068477,
   3209141987,
   1053122560,
   1050689536,
   939524096,
   1065353216,
   3206134922,
   1054679413,
   3207349430,
   1052876800,
   1049698304,
   939524096,
   1065353216,
   3207859813,
   1056454262,
   3204781937,
   1053081600,
   1049763840,
   939524096,
   1065353216,
   3205994837,
   1061113267,
   3197787151,
   1052868608,
   1049362432,
   939524096,
   1065353216,
   3209642186,
   1058322352,
   1034718972,
   1053253632,
   1049206784,
   939524096,
   1065353216,
   3209068884,
   1058817913,
   1042634251,
   1053106176,
   1049042944,
   939524096,
   1065353216,
   3206095961,
   1056774714,
   1059157238,
   1053515776,
   1048862720,
   939524096,
   1065353216,
   3206874877,
   1056325746,
   1058545663,
   1053532160,
   1049051136,
   939524096,
   1065353216,
   3189429362,
   1055649606,
   1063248081,
   1054154752,
   1048985600,
   939524096,
   1065353216,
   3208562677,
   1059755154,
   3167531558,
   1053392896,
   1049403392,
   939524096,
   1065353216,
   1002884207,
   1055282782,
   1063559221,
   1054105600,
   1049182208,
   939524096,
   1065353216,
   1054645344,
   1058050769,
   1060384710,
   1054416896,
   1049190400,
   939524096,
   1065353216,
   3199806441,
   1060215606,
   1059024807,
   1053745152,
   1049264128,
   939524096,
   1065353216,
   3204246919,
   1062449042,
   3196687414,
   1053401088,
   1049690112,
   939524096,
   1065353216,
   1041125266,
   1061003162,
   1059603428,
   1053958144,
   1049337856,
   939524096,
   1065353216,
   1057796142,
   1058549610,
   1058424405,
   1054220288,
   1049354240,
   939524096,
   1065353216,
   1060382737,
   1057926015,
   1054972946,
   1054474240,
   1049575424,
   939524096,
   1065353216,
   1054125846,
   1063675275,
   1040668287,
   1053859840,
   1049853952,
   939524096,
   1065353216,
   3190609282,
   1062627212,
   3204778582,
   1053401088,
   1050230784,
   939524096,
   1065353216,
   1060077390,
   1058759430,
   1053676762,
   1054253056,
   1049616384,
   939524096,
   1065353216,
   1052742314,
   1063150938,
   3198559497,
   1053589504,
   1050238976,
   939524096,
   1065353216,
   1059428416,
   1061307946,
   3181005456,
   1054121984,
   1050615808,
   939524096,
   1065353216,
   1063235543,
   1056504646,
   1002382418,
   1054302208,
   1050714112,
   939524096,
   1065353216,
   1055499301,
   1063499909,
   3166015599,
   1053974528,
   1050304512,
   939524096,
   1065353216,
   1053415718,
   1061355742,
   3204685540,
   1053827072,
   1050984448,
   939524096,
   1065353216,
   1051540953,
   1061836596,
   3204627363,
   1053540352,
   1050583040,
   939524096,
   1065353216,
   1049885557,
   1064504119,
   1039915006,
   1050091520,
   1059225600,
   1061568512,
   1018888192,
   1041424952,
   1064365082,
   1050461327,
   1050411008,
   1059332096,
   1061568512,
   1018748928,
   1040951691,
   1061514024,
   1059008953,
   1050198016,
   1059340288,
   1061568512,
   1018830848,
   1049389218,
   1064511729,
   3189369346,
   1050206208,
   1059192832,
   1061568512,
   1018855424,
   1049559980,
   1063985140,
   3197067216,
   1050509312,
   1059176448,
   1061560320,
   1018781696,
   1024907452,
   1062374215,
   1058099785,
   1050468352,
   1059487744,
   1061576704,
   1018781696,
   1007407062,
   1064799203,
   1048734244,
   1051107328,
   1059553280,
   1061568512,
   1018552320,
   3161526656,
   1061270106,
   1059542938,
   1050828800,
   1059659776,
   1061576704,
   1018658816,
   3180028543,
   1061895559,
   1058713086,
   1051246592,
   1059840000,
   1061576704,
   1018527744,
   1044456973,
   1064101447,
   3198702109,
   1050992640,
   1059266560,
   1061560320,
   1018609664,
   1050025616,
   1062189867,
   3204541389,
   1050927104,
   1059151872,
   1061560320,
   1018683392,
   1050091787,
   1061158537,
   3205990935,
   1051385856,
   1059168256,
   1061560320,
   1018544128,
   3203564065,
   1061674286,
   1053864062,
   1051918336,
   1059831808,
   1061568512,
   1018273792,
   3196266601,
   1059574227,
   1060494182,
   1051615232,
   1059913728,
   1061576704,
   1018372096,
   3209076653,
   1056799362,
   1053308849,
   1052000256,
   1059930112,
   1061568512,
   1018224640,
   3210960700,
   1052985962,
   1048785713,
   1052155904,
   1059864576,
   1061568512,
   1018208256,
   3204783116,
   1062898731,
   3169644574,
   1052385280,
   1059651584,
   1061568512,
   1018093568,
   3209460798,
   1058607677,
   3179836717,
   1052606464,
   1059659776,
   1061568512,
   1018011648,
   3190332009,
   1064256416,
   3198248133,
   1052614656,
   1059446784,
   1061560320,
   1018019840,
   1026200926,
   1064640438,
   3197246138,
   1051992064,
   1059266560,
   1061560320,
   1018363904,
   3182769701,
   1063755843,
   3201648688,
   1052368896,
   1059299328,
   1061560320,
   1018159104,
   1038754948,
   1062262343,
   3205571740,
   1052082176,
   1059192832,
   1061560320,
   1018314752,
   1041470073,
   1062469049,
   3205148779,
   1058824192,
   1060200448,
   1055719424,
   1022738432,
   1035996916,
   1064090129,
   3200050276,
   1058627584,
   1060241408,
   1055711232,
   1022656512,
   1049225128,
   1063939495,
   3197674604,
   1058758656,
   1059840000,
   1055711232,
   1022468096,
   3168227043,
   1064172598,
   3200004192,
   1058488320,
   1060667392,
   1055694848,
   1022812160,
   3181669701,
   1062908790,
   3204675433,
   1058652160,
   1060888576,
   1055703040,
   1023000576,
   3195049431,
   1064012368,
   3198188857,
   1058471936,
   1061306368,
   1055686656,
   1023115264,
   1056736475,
   1062584485,
   3195662564,
   1058545664,
   1059373056,
   1055727616,
   1021960192,
   1052095679,
   1064171341,
   3184300703,
   1058332672,
   1059414016,
   1055711232,
   1021968384,
   3190499191,
   1064441282,
   3197031453,
   1058275328,
   1061027840,
   1055678464,
   1022926848,
   3198415186,
   1063580917,
   3198153080,
   1058136064,
   1061519360,
   1055662080,
   1023123456,
   1053642023,
   1063944498,
   3156334966,
   1058127872,
   1059086336,
   1055703040,
   1021648896,
   1057149941,
   1062980919,
   1025882992,
   1058095104,
   1058914304,
   1055703040,
   1021476864,
   3196944371,
   1064400256,
   3191656107,
   1057906688,
   1061306368,
   1055653888,
   1022910464,
   3199465381,
   1064248091,
   3179162967,
   1057849344,
   1061748736,
   1055645696,
   1023156224,
   3200947837,
   1063516860,
   1046859904,
   1057636352,
   1061642240,
   1055629312,
   1022926848,
   1057230516,
   1062074877,
   1050057478,
   1057808384,
   1058906112,
   1055678464,
   1021501440,
   1060327022,
   1058236373,
   1054338811,
   1057816576,
   1058824192,
   1055678464,
   1021460480,
   3178832400,
   1065321650,
   3153970105,
   1058029568,
   1060782080,
   1055662080,
   1022697472,
   1046603827,
   1064275376,
   1049418915,
   1057521664,
   1059020800,
   1055645696,
   1021501440,
   1054282997,
   1061674362,
   1055709812,
   1057497088,
   1058783232,
   1055645696,
   1021280256,
   1015720587,
   1062122974,
   1058469121,
   1057202176,
   1059061760,
   1055621120,
   1021607936,
   1026855975,
   1065335581,
   1011720780,
   1057521664,
   1059373056,
   1055653888,
   1021902848,
   3176883672,
   1064373984,
   1051339273,
   1057366016,
   1059282944,
   1055637504,
   1021747200,
   3189412821,
   1064464950,
   1049695743,
   1057333248,
   1059454976,
   1055621120,
   1021886464,
   3191252418,
   1063286203,
   1055171366,
   1057030144,
   1059373056,
   1055604736,
   1021673472,
   3202313934,
   1059753065,
   1058722163,
   1057202176,
   1059856384,
   1055604736,
   1022050304,
   3192563063,
   1064127293,
   1050884835,
   1057529856,
   1060765696,
   1055621120,
   1022394368,
   3199721103,
   1060581255,
   1058628255,
   1057316864,
   1060757504,
   1055604736,
   1022402560,
   3199657726,
   1061526323,
   1057398922,
   1057431552,
   1061216256,
   1055604736,
   1022656512,
   3191620780,
   1064428313,
   1049279029,
   1057669120,
   1061101568,
   1055629312,
   1022599168,
   3172067768,
   1065251884,
   1037341801,
   1057685504,
   1060528128,
   1055645696,
   1022410752,
   3200229030,
   1063689036,
   1046574627,
   1057726464,
   1061339136,
   1055637504,
   1022836736,
   1027331986,
   1065334865,
   3155527947,
   1058103296,
   1059897344,
   1055678464,
   1022304256,
   1045762295,
   1064672359,
   3192054889,
   1058471936,
   1059995648,
   1055711232,
   1022451712,
   1057865148,
   1061969935,
   3195176686,
   1057619968,
   1057488896,
   1055719424,
   1022738432,
   1053790330,
   1063779999,
   3187000281,
   1057423360,
   1057472512,
   1055711232,
   1022656512,
   1057316446,
   1062894009,
   1015349087,
   1057562624,
   1057251328,
   1055711232,
   1022468096,
   1048882329,
   1064003461,
   3197584252,
   1057349632,
   1057660928,
   1055694848,
   1022812160,
   1051192259,
   1062734578,
   3201916442,
   1057546240,
   1057816576,
   1055703040,
   1023000576,
   1040287623,
   1062833410,
   3204644371,
   1057349632,
   1058045952,
   1055686656,
   1023115264,
   1057531003,
   1062514410,
   1042384538,
   1057423360,
   1056620544,
   1055727616,
   1021960192,
   1051421050,
   1064096298,
   1043829786,
   1057202176,
   1056727040,
   1055711232,
   1021968384,
   1034910909,
   1063859366,
   3201210171,
   1057161216,
   1057865728,
   1055678464,
   1022926848,
   1023640572,
   1062893291,
   3204788907,
   1057054720,
   1058201600,
   1055662080,
   1023123456,
   1050048871,
   1063856043,
   1049920443,
   1057038336,
   1056112640,
   1055703040,
   1021648896,
   1051065267,
   1062954798,
   1053625115,
   1057005568,
   1055752192,
   1055703040,
   1021476864,
   3163517185,
   1063833355,
   3201614035,
   1056718848,
   1057988608,
   1055653888,
   1022910464,
   3189609494,
   1063941768,
   3200113331,
   1056571392,
   1058381824,
   1055645696,
   1023156224,
   3199464445,
   1063223927,
   3199009841,
   1056178176,
   1058291712,
   1055629312,
   1022926848,
   1041121082,
   1062074733,
   1058262466,
   1056456704,
   1055760384,
   1055678464,
   1021501440,
   1043362739,
   1058235467,
   1061985394,
   1056473088,
   1055604736,
   1055678464,
   1021460480,
   3176141582,
   1065258977,
   3183356569,
   1056841728,
   1057701888,
   1055662080,
   1022697472,
   3175767796,
   1064274602,
   1051907762,
   1055891456,
   1056006144,
   1055645696,
   1021501440,
   3175776845,
   1061673501,
   1059027910,
   1055825920,
   1055539200,
   1055645696,
   1021280256,
   3201760480,
   1062078884,
   1054261342,
   1055252480,
   1056112640,
   1055621120,
   1021607936,
   1016034774,
   1065336540,
   1026024956,
   1055883264,
   1056718848,
   1055653888,
   1021902848,
   3196389062,
   1064445905,
   1044834196,
   1055588352,
   1056546816,
   1055637504,
   1021747200,
   3197644007,
   1064513656,
   1036312464,
   1055399936,
   1056997376,
   1055621120,
   1021886464,
   3202445271,
   1063216329,
   1045978355,
   1054851072,
   1056825344,
   1055604736,
   1021673472,
   3205036523,
   1062749388,
   3147059791,
   1055023104,
   1057390592,
   1055604736,
   1022050304,
   3197963837,
   1064501720,
   3180226825,
   1055744000,
   1057693696,
   1055621120,
   1022394368,
   3205346227,
   1062435143,
   3185111770,
   1055285248,
   1057824768,
   1055604736,
   1022402560,
   3201615703,
   1063251657,
   3196009255,
   1055637504,
   1058119680,
   1055604736,
   1022656512,
   3193381873,
   1064868891,
   3186055993,
   1056112640,
   1057865728,
   1055629312,
   1022599168,
   3183849154,
   1065270720,
   1018554760,
   1056129024,
   1057521664,
   1055645696,
   1022410752,
   3198005661,
   1063277932,
   3200101177,
   1056342016,
   1058054144,
   1055637504,
   1022836736,
   1028865388,
   1065317357,
   1025793865,
   1056989184,
   1057243136,
   1055678464,
   1022304256,
   1052455779,
   1064157360,
   1031555495,
   1057300480,
   1057308672,
   1055711232,
   1022451712,
   3198828084,
   1057032326,
   3209432965,
   1059258368,
   1056825344,
   1058250752,
   1023975424,
   3198879587,
   1060830541,
   3206054312,
   1059069952,
   1056776192,
   1058250752,
   1024065536,
   3196364733,
   1050557204,
   3211412063,
   1059209216,
   1056497664,
   1058242560,
   1024081920,
   3204667384,
   1061940836,
   3198397274,
   1059028992,
   1056989184,
   1058258944,
   1024114688,
   3207886715,
   1058287366,
   3201423834,
   1059192832,
   1057112064,
   1058258944,
   1024016384,
   3209301303,
   1058565190,
   3189361811,
   1059061760,
   1057267712,
   1058267136,
   1024147456,
   3194948247,
   1057627062,
   3209632217,
   1059151872,
   1055883264,
   1058226176,
   1024098304,
   3171508990,
   1062853363,
   3204852555,
   1058988032,
   1056088064,
   1058226176,
   1024188416,
   3206383389,
   1061677460,
   3185309555,
   1058922496,
   1057112064,
   1058267136,
   1024229376,
   3209210845,
   1058875002,
   3183419819,
   1058922496,
   1057366016,
   1058275328,
   1024286720,
   1052272844,
   1060997064,
   3205582127,
   1058930688,
   1055817728,
   1058217984,
   1024286720,
   1057734901,
   1058105062,
   3206393404,
   1058922496,
   1055555584,
   1058217984,
   1024327680,
   3206023211,
   1061967804,
   1036944027,
   1058799616,
   1057185792,
   1058267136,
   1024376832,
   3206140418,
   1061259977,
   1048898258,
   1058791424,
   1057447936,
   1058275328,
   1024409600,
   3202352103,
   1059889942,
   1058555294,
   1058627584,
   1057390592,
   1058275328,
   1024573440,
   1056988484,
   1062596510,
   3194318596,
   1058766848,
   1055850496,
   1058217984,
   1024491520,
   1061705813,
   1058051302,
   3196457769,
   1058750464,
   1055588352,
   1058217984,
   1024491520,
   3183680870,
   1065218261,
   1034596760,
   1058807808,
   1057030144,
   1058258944,
   1024360448,
   1058640876,
   1061923374,
   1034782713,
   1058594816,
   1056088064,
   1058226176,
   1024704512,
   1064414916,
   1047663692,
   1047224878,
   1058496512,
   1055875072,
   1058217984,
   1024753664,
   1060312173,
   1052412464,
   1058889783,
   1058365440,
   1056227328,
   1058234368,
   1024860160,
   1034081711,
   1065300070,
   989725041,
   1058635776,
   1056432128,
   1058234368,
   1024614400,
   1053214082,
   1063265467,
   1049835373,
   1058529280,
   1056382976,
   1058234368,
   1024761856,
   1054355009,
   1062160420,
   1053863379,
   1058480128,
   1056604160,
   1058242560,
   1024811008,
   1059277161,
   1044499274,
   1061101124,
   1058324480,
   1056473088,
   1058242560,
   1024991232,
   1051472407,
   1059459786,
   1060029397,
   1058324480,
   1056931840,
   1058250752,
   1024925696,
   3145525780,
   1063450075,
   1055709334,
   1058521088,
   1057054720,
   1058258944,
   1024729088,
   1014537722,
   1058427614,
   1062153771,
   1058357248,
   1057177600,
   1058258944,
   1024843776,
   3194398008,
   1059874810,
   1060388359,
   1058455552,
   1057300480,
   1058267136,
   1024761856,
   3187752564,
   1063955409,
   1052909784,
   1058603008,
   1057128448,
   1058267136,
   1024622592,
   1034315508,
   1065151920,
   1040612984,
   1058652160,
   1056964608,
   1058250752,
   1024557056,
   3201958929,
   1061517664,
   1056055896,
   1058693120,
   1057210368,
   1058267136,
   1024524288,
   1032658539,
   1065302258,
   3172248637,
   1058848768,
   1056604160,
   1058242560,
   1024327680,
   3196457602,
   1059834380,
   3207696785,
   1059045376,
   1056555008,
   1058242560,
   1024106496,
   1048786754,
   1063809869,
   1051307996,
   1059799040,
   1050722304,
   1058250752,
   1023975424,
   1041438770,
   1064297714,
   1050863461,
   1059741696,
   1050648576,
   1058250752,
   1024065536,
   1017041688,
   1053890637,
   1063886926,
   1059758080,
   1050419200,
   1058242560,
   1024081920,
   1047514022,
   1064847107,
   1032498179,
   1059700736,
   1050738688,
   1058258944,
   1024114688,
   1052448551,
   1064079630,
   1038437439,
   1059766272,
   1050812416,
   1058258944,
   1024016384,
   1053329345,
   1063907982,
   3185266172,
   1059504128,
   1051320320,
   1058267136,
   1024147456,
   3169196448,
   1064173827,
   1052509841,
   1059569664,
   1049837568,
   1058226176,
   1024098304,
   3177129260,
   1064925884,
   1046397892,
   1059446784,
   1049837568,
   1058226176,
   1024188416,
   1049573369,
   1064260838,
   3193944871,
   1059422208,
   1051238400,
   1058267136,
   1024229376,
   1049576365,
   1063280903,
   3200816778,
   1059373056,
   1051402240,
   1058275328,
   1024286720,
   3167170796,
   1064677457,
   1049579229,
   1059438592,
   1049313280,
   1058217984,
   1024286720,
   3183165875,
   1064708193,
   1048876269,
   1059430400,
   1049042944,
   1058217984,
   1024327680,
   3162873758,
   1063680030,
   3202268074,
   1059274752,
   1051148288,
   1058267136,
   1024376832,
   1040912855,
   1064185384,
   3199095657,
   1059258368,
   1051418624,
   1058275328,
   1024409600,
   3185268550,
   1062266325,
   3205589671,
   1059127296,
   1050763264,
   1058275328,
   1024573440,
   3186822117,
   1064916768,
   1044754125,
   1059282944,
   1049026560,
   1058217984,
   1024491520,
   3196815641,
   1064071698,
   1049232257,
   1059241984,
   1048862720,
   1058217984,
   1024491520,
   3166054273,
   1065001277,
   3192874252,
   1059291136,
   1050935296,
   1058258944,
   1024360448,
   3197636319,
   1064385581,
   1042156716,
   1059061760,
   1049051136,
   1058226176,
   1024704512,
   3206459528,
   1061246823,
   1046091571,
   1059020800,
   1048952832,
   1058217984,
   1024753664,
   3199170676,
   1064286463,
   3181000251,
   1058832384,
   1049133056,
   1058234368,
   1024860160,
   3143923043,
   1065350465,
   1016173411,
   1058996224,
   1049427968,
   1058234368,
   1024614400,
   3192052186,
   1065026792,
   3175452026,
   1058906112,
   1049223168,
   1058234368,
   1024761856,
   3183976059,
   1064977458,
   3191799958,
   1058865152,
   1049321472,
   1058242560,
   1024811008,
   3194519417,
   1064383717,
   3195813950,
   1058799616,
   1049223168,
   1058242560,
   1024991232,
   3167197575,
   1064274323,
   3199481295,
   1058758656,
   1049403392,
   1058250752,
   1024925696,
   1015680949,
   1064909225,
   3194577291,
   1059004416,
   1050009600,
   1058258944,
   1024729088,
   1035183399,
   1062906668,
   3204658553,
   1058897920,
   1049952256,
   1058258944,
   1024843776,
   1025896325,
   1063914737,
   3201196745,
   1058955264,
   1050361856,
   1058267136,
   1024761856,
   1020768432,
   1065004266,
   3192783211,
   1059094528,
   1050312704,
   1058267136,
   1024622592,
   3164228541,
   1065294317,
   3181842475,
   1059160064,
   1050107904,
   1058250752,
   1024557056,
   3185618759,
   1063575792,
   3202244075,
   1059192832,
   1050632192,
   1058267136,
   1024524288,
   3173854768,
   1065331142,
   1022211871,
   1059364864,
   1050148864,
   1058242560,
   1024327680,
   3182450696,
   1060112244,
   1060671585,
   1059717120,
   1050419200,
   1058242560,
   1024106496,
   3163825494,
   1063243456,
   3203949696,
   1052598272,
   1053384704,
   1060773888,
   1024712704,
   1026208872,
   1063719126,
   3202047665,
   1052229632,
   1053286400,
   1060765696,
   1024614400,
   1046823604,
   1057004012,
   3210071590,
   1052295168,
   1052917760,
   1060773888,
   1024581632,
   3193467460,
   1064576613,
   3193637587,
   1052082176,
   1053605888,
   1060765696,
   1024598016,
   3197061306,
   1063937713,
   3197355765,
   1052442624,
   1053908992,
   1060757504,
   1024696320,
   3200826154,
   1063946867,
   3182057108,
   1052016640,
   1054261248,
   1060749312,
   1024606208,
   1042122219,
   1063601897,
   3201676260,
   1052180480,
   1052024832,
   1060790272,
   1024516096,
   1049874622,
   1063743928,
   3198244276,
   1051820032,
   1052123136,
   1060782080,
   1024425984,
   3198649636,
   1064429663,
   997588988,
   1051697152,
   1053851648,
   1060757504,
   1024507904,
   3200760681,
   1063981671,
   1032551168,
   1051508736,
   1054310400,
   1060749312,
   1024475136,
   1040628809,
   1065047872,
   3188473137,
   1051181056,
   1051705344,
   1060790272,
   1024311296,
   1047756812,
   1064537887,
   3192413752,
   1051402240,
   1051279360,
   1060798464,
   1024253952,
   3198748876,
   1064140823,
   1043482388,
   1051271168,
   1053745152,
   1060749312,
   1024376832,
   3197384750,
   1064451116,
   1041487246,
   1051107328,
   1054351360,
   1060741120,
   1024376832,
   3199439435,
   1063291522,
   1051197315,
   1050566656,
   1053818880,
   1060741120,
   1024196608,
   1057321550,
   1062861365,
   3177840890,
   1050836992,
   1051410432,
   1060790272,
   1024106496,
   1062944754,
   1057236969,
   991365749,
   1050836992,
   1051238400,
   1060790272,
   1024098304,
   3187014774,
   1065199782,
   1031526642,
   1051303936,
   1053376512,
   1060757504,
   1024360448,
   1047661444,
   1064510904,
   1045555133,
   1050107904,
   1051508736,
   1060782080,
   1023918080,
   1052230063,
   1063996949,
   1042689394,
   1049944064,
   1051074560,
   1060790272,
   1023852544,
   1050684185,
   1062273297,
   1056473996,
   1049575424,
   1052123136,
   1060773888,
   1023787008,
   1018570458,
   1065349053,
   984763548,
   1050353664,
   1052131328,
   1060773888,
   1024040960,
   1037861400,
   1064566029,
   1049680726,
   1049919488,
   1052106752,
   1060773888,
   1023901696,
   1031840573,
   1064713938,
   1049116320,
   1049788416,
   1052393472,
   1060765696,
   1023868928,
   1007009486,
   1064477625,
   1050882166,
   1049174016,
   1052516352,
   1060765696,
   1023688704,
   3197275550,
   1063971375,
   1049438501,
   1049395200,
   1052811264,
   1060757504,
   1023787008,
   3188467866,
   1064958252,
   1042987019,
   1050083328,
   1052803072,
   1060757504,
   1024000000,
   3204548651,
   1062160306,
   1050163047,
   1049624576,
   1052917760,
   1060749312,
   1023901696,
   3196708235,
   1063872332,
   1050594984,
   1049894912,
   1053335552,
   1060741120,
   1024000000,
   3189587161,
   1064958352,
   1041962870,
   1050443776,
   1053155328,
   1060749312,
   1024114688,
   3164900098,
   1065255090,
   1037652370,
   1050664960,
   1052852224,
   1060757504,
   1024155648,
   3197911254,
   1063837977,
   1049638640,
   1050812416,
   1053564928,
   1060749312,
   1024237568,
   1028765346,
   1065330843,
   3151564085,
   1051320320,
   1052778496,
   1060773888,
   1024344064,
   1040917686,
   1061427303,
   3206601082,
   1052098560,
   1052942336,
   1060773888,
   1024557056,
   1053962834,
   1063719607,
   3187959248,
   1057701888,
   1051852800,
   1062010880,
   1052393472,
   1060113280,
   1060480065,
   3189604761,
   1057857536,
   1051918336,
   1062354944,
   1052475392,
   1049951838,
   1061617963,
   3205416254,
   1057660928,
   1052385280,
   1061928960,
   1053761536,
   1053605715,
   1062562344,
   1052969301,
   1057824768,
   1051361280,
   1062297600,
   1051107328,
   1046560286,
   1062314835,
   3204953496,
   1057595392,
   1052229632,
   1061797888,
   1053425664,
   3164237359,
   1061478401,
   3206778930,
   1057275904,
   1052491776,
   1061085184,
   1053966336,
   1049818708,
   1064373752,
   1043607560,
   1057579008,
   1051680768,
   1061748736,
   1051852800,
   1008135385,
   1061053620,
   3207273928,
   1057292288,
   1052303360,
   1061126144,
   1053556736,
   1030143572,
   1060262337,
   1060576469,
   1057382400,
   1051205632,
   1061330944,
   1050558464,
   1019902982,
   1060383136,
   1060487949,
   1057406976,
   1050984448,
   1061363712,
   1050083328,
   1043419656,
   1063075170,
   3203521433,
   1057415168,
   1052024832,
   1061396480,
   1052827648,
   3198274437,
   1062693983,
   3202374715,
   1057112064,
   1051942912,
   1060732928,
   1052540928,
   3204638124,
   1060744592,
   3203138439,
   1056841728,
   1052131328,
   1060265984,
   1052884992,
   3166158086,
   1065338404,
   1024557193,
   1057316864,
   1051705344,
   1061191680,
   1051910144,
   3202279134,
   1063458837,
   1042096002,
   1057054720,
   1051631616,
   1060618240,
   1051705344,
   3206653815,
   1061501479,
   1035196525,
   1056677888,
   1051582464,
   1060036608,
   1051525120,
   3198948733,
   1061236745,
   1058030306,
   1056989184,
   1051123712,
   1060462592,
   1050509312,
   3140877225,
   1062981256,
   1057176082,
   1057341440,
   1051451392,
   1061232640,
   1051197440,
   3193499763,
   1061817342,
   1058245982,
   1057177600,
   1051369472,
   1060855808,
   1050984448,
   1023568010,
   1063983008,
   1053425784,
   1054924800,
   1060691968,
   1057210368,
   1065623552,
   1052788521,
   1063837296,
   1043712286,
   1056579584,
   1060667392,
   1058676736,
   1065902080,
   1054475553,
   1063747855,
   1022693624,
   1056186368,
   1061052416,
   1058324480,
   1066106880,
   1055711233,
   1062939378,
   3194733487,
   1056735232,
   1061658624,
   1059438592,
   1066762240,
   1024612417,
   1063306288,
   1056204169,
   1055203328,
   1061175296,
   1057423360,
   1066024960,
   3196942600,
   1061807618,
   1057790598,
   1053892608,
   1061175296,
   1054941184,
   1065861120,
   1052760463,
   1063762686,
   3192739936,
   1055916032,
   1061715968,
   1058562048,
   1066680320,
   3198503610,
   1061876826,
   1057249342,
   1054220288,
   1061396480,
   1055940608,
   1066164224,
   3208909404,
   1059255529,
   1035559715,
   1053122560,
   1062453248,
   1053908992,
   1066622976,
   1046390304,
   1064799485,
   1040713014,
   1055531008,
   1061339136,
   1057841152,
   1066319872,
   1035170915,
   1065237926,
   1033822558,
   1054932992,
   1061601280,
   1057341440,
   1066434560,
   3190641240,
   1064341098,
   1050161911,
   1054507008,
   1061552128,
   1056645120,
   1066311680,
   1030288525,
   1065324643,
   3159670874,
   1054760960,
   1062248448,
   1057349632,
   1066803200,
   3196520107,
   1064714863,
   1032995377,
   1054056448,
   1062305792,
   1056112640,
   1066672128,
   3206508464,
   1061684912,
   1025797971,
   1053556736,
   1062453248,
   1054998528,
   1066672128,
   3186287119,
   1064730305,
   3195682922,
   1054474240,
   1062772736,
   1057103872,
   1067114496,
   3202106809,
   1062775413,
   3198207410,
   1053876224,
   1062928384,
   1055694848,
   1067286528,
   3199580984,
   1062919190,
   3200365320,
   1053655040,
   1063157760,
   1055088640,
   1067442176,
   1049093899,
   1064597259,
   3188193340,
   1055211520,
   1062486016,
   1057857536,
   1067057152,
   1049009052,
   1064168760,
   3196362505,
   1055449088,
   1063305216,
   1057341440,
   1067565056,
   1042939751,
   1064291653,
   3198012346,
   1055637504,
   1063723008,
   1057292288,
   1067786240,
   1060060692,
   1060526713,
   3189680356,
   1056096256,
   1063051264,
   1058693120,
   1067466752,
   1054807805,
   1063277272,
   3193085876,
   1055563776,
   1062731776,
   1058258944,
   1067220992;
  }
 }
}