xof 0303txt 0032
template ColorRGBA {
 <35ff44e0-6c7c-11cf-8f52-0040333594a3>
 FLOAT red;
 FLOAT green;
 FLOAT blue;
 FLOAT alpha;
}

template ColorRGB {
 <d3e16e81-7835-11cf-8f52-0040333594a3>
 FLOAT red;
 FLOAT green;
 FLOAT blue;
}

template Material {
 <3d82ab4d-62da-11cf-ab39-0020af71e433>
 ColorRGBA faceColor;
 FLOAT power;
 ColorRGB specularColor;
 ColorRGB emissiveColor;
 [...]
}

template TextureFilename {
 <a42790e1-7810-11cf-8f52-0040333594a3>
 STRING filename;
}

template Frame {
 <3d82ab46-62da-11cf-ab39-0020af71e433>
 [...]
}

template Matrix4x4 {
 <f6f23f45-7686-11cf-8f52-0040333594a3>
 array FLOAT matrix[16];
}

template FrameTransformMatrix {
 <f6f23f41-7686-11cf-8f52-0040333594a3>
 Matrix4x4 frameMatrix;
}

template Vector {
 <3d82ab5e-62da-11cf-ab39-0020af71e433>
 FLOAT x;
 FLOAT y;
 FLOAT z;
}

template MeshFace {
 <3d82ab5f-62da-11cf-ab39-0020af71e433>
 DWORD nFaceVertexIndices;
 array DWORD faceVertexIndices[nFaceVertexIndices];
}

template Mesh {
 <3d82ab44-62da-11cf-ab39-0020af71e433>
 DWORD nVertices;
 array Vector vertices[nVertices];
 DWORD nFaces;
 array MeshFace faces[nFaces];
 [...]
}

template MeshMaterialList {
 <f6f23f42-7686-11cf-8f52-0040333594a3>
 DWORD nMaterials;
 DWORD nFaceIndexes;
 array DWORD faceIndexes[nFaceIndexes];
 [Material <3d82ab4d-62da-11cf-ab39-0020af71e433>]
}

template VertexElement {
 <f752461c-1e23-48f6-b9f8-8350850f336f>
 DWORD Type;
 DWORD Method;
 DWORD Usage;
 DWORD UsageIndex;
}

template DeclData {
 <bf22e553-292c-4781-9fea-62bd554bdd93>
 DWORD nElements;
 array VertexElement Elements[nElements];
 DWORD nDWords;
 array DWORD data[nDWords];
}


Material MI_Light01 {
 1.000000;1.000000;1.000000;1.000000;;
 10.000000;
 0.000000;0.000000;0.000000;;
 0.000000;0.000000;0.000000;;

 TextureFilename {
  "T_Light01_BC.tga";
 }
}

Frame SM_Light01 {
 

 FrameTransformMatrix {
  1.000000,0.000000,0.000000,0.000000,0.000000,1.000000,0.000000,0.000000,0.000000,0.000000,1.000000,0.000000,0.000000,0.000000,0.000000,1.000000;;
 }

 Mesh SM_Light01 {
  492;
  -28.941878;-17.238830;-4.312683;,
  -33.673219;-11.951843;-4.219421;,
  30.480074;-15.854797;-4.622131;,
  -34.222214;11.684937;-3.916016;,
  -29.741379;17.186462;-3.870483;,
  34.960816;-10.353210;-4.577026;,
  34.411834;13.283570;-4.273498;,
  29.680528;18.570557;-4.180176;,
  8.888778;-15.343566;-16.360291;,
  8.979446;-15.553040;0.113281;,
  10.079270;-16.154358;0.099609;,
  9.988602;-15.944946;-16.373901;,
  10.108353;-17.407043;0.083557;,
  10.017700;-17.197632;-16.389893;,
  9.037658;-18.058838;0.081116;,
  9.984894;-15.856933;-16.686157;,
  9.978271;-15.624878;-16.912659;,
  10.006683;-16.934021;-17.326598;,
  8.946991;-17.849488;-16.392395;,
  9.970550;-15.310426;-16.992493;,
  8.626419;-4.811157;-19.624512;,
  9.986893;-16.237304;-18.005981;,
  9.708206;-4.777954;-20.256653;,
  8.401734;4.863586;-19.500306;,
  9.963623;-15.294494;-18.245910;,
  8.905884;-16.569154;-18.547118;,
  9.483506;4.896973;-20.132386;,
  8.932266;-17.497803;-17.641357;,
  8.112350;18.088746;-15.931091;,
  7.836166;-16.984558;-17.315430;,
  7.847183;-17.248170;-16.378784;,
  7.937912;-17.457642;0.094727;,
  7.818070;-15.995483;-16.362670;,
  7.908814;-16.204894;0.110840;,
  7.814468;-15.907470;-16.674926;,
  8.888778;-15.343566;-16.360291;,
  8.979446;-15.553040;0.113281;,
  7.807815;-15.675414;-16.901490;,
  7.816406;-16.287902;-17.994690;,
  7.800140;-15.361022;-16.981202;,
  8.626419;-4.811157;-19.624512;,
  7.793152;-15.345032;-18.234498;,
  8.874939;-15.311768;-18.866760;,
  7.537781;-4.828552;-20.245362;,
  8.401734;4.863586;-19.500306;,
  7.530869;-4.812561;-21.498779;,
  9.701310;-4.762024;-21.510010;,
  8.612640;-4.779297;-22.130920;,
  9.476578;4.912964;-21.385864;,
  7.306183;4.862427;-21.374573;,
  8.387954;4.895630;-22.006714;,
  9.187179;18.138061;-17.816467;,
  7.313095;4.846436;-20.121094;,
  8.112350;18.088746;-15.931091;,
  7.016739;18.087525;-17.805298;,
  8.098587;18.120728;-18.437438;,
  9.194062;18.122131;-16.563171;,
  7.023636;18.071533;-16.551880;,
  6.996353;19.023864;-17.541259;,
  7.016800;18.383850;-16.463989;,
  7.012756;18.610107;-16.231690;,
  8.071289;19.369446;-18.085693;,
  7.012589;18.689941;-15.917298;,
  8.203079;17.879395;0.542542;,
  7.103210;18.480530;0.556152;,
  6.983459;19.942870;-15.901245;,
  7.074127;19.733459;0.572327;,
  6.984116;19.703064;-16.844421;,
  8.054154;20.594666;-15.898864;,
  8.144882;20.385254;0.574707;,
  9.244568;19.784058;0.561096;,
  8.055054;20.274781;-17.156373;,
  9.153870;19.993469;-15.912536;,
  9.273682;18.531067;0.544983;,
  9.154602;19.753541;-16.855530;,
  9.166748;19.074462;-17.552552;,
  9.187256;18.434448;-16.475280;,
  9.183212;18.660645;-16.242920;,
  9.183014;18.740478;-15.928467;,
  8.203079;17.879395;0.542542;,
  -6.810150;-15.709290;-16.278442;,
  -6.719437;-15.918701;0.195190;,
  -5.619629;-16.520019;0.181458;,
  -5.710312;-16.310608;-16.292176;,
  -5.590530;-17.772766;0.165344;,
  -5.681244;-17.563232;-16.308227;,
  -6.661255;-18.424560;0.162964;,
  -5.714004;-16.222595;-16.604370;,
  -5.720612;-15.990539;-16.830811;,
  -5.692246;-17.299683;-17.244934;,
  -6.751984;-18.215088;-16.310669;,
  -5.728317;-15.676147;-16.910645;,
  -7.072479;-5.176880;-19.542725;,
  -5.712021;-16.603027;-17.924133;,
  -5.990677;-5.143616;-20.174926;,
  -7.297195;4.497986;-19.418518;,
  -5.735230;-15.660218;-18.163880;,
  -6.793014;-16.934814;-18.465333;,
  -6.215393;4.531311;-20.050659;,
  -6.766678;-17.863464;-17.559632;,
  -7.586533;17.723144;-15.849182;,
  -7.862747;-17.350280;-17.233765;,
  -7.851700;-17.613891;-16.296936;,
  -7.760986;-17.823304;0.176514;,
  -7.880768;-16.361206;-16.280822;,
  -7.790100;-16.570557;0.192566;,
  -7.884476;-16.273133;-16.593200;,
  -6.810150;-15.709290;-16.278442;,
  -6.719437;-15.918701;0.195190;,
  -7.891067;-16.041077;-16.819518;,
  -7.882507;-16.653565;-17.912902;,
  -7.898789;-15.726685;-16.899414;,
  -7.072479;-5.176880;-19.542725;,
  -6.823959;-15.677368;-18.784973;,
  -7.905716;-15.710693;-18.152710;,
  -8.161148;-5.194153;-20.163635;,
  -7.297195;4.497986;-19.418518;,
  -8.168014;-5.178223;-21.416931;,
  -5.997574;-5.127686;-21.428283;,
  -7.086242;-5.144958;-22.049072;,
  -6.222275;4.547302;-21.303955;,
  -8.392746;4.496765;-21.292786;,
  -7.310974;4.530029;-21.924987;,
  -6.511734;17.772400;-17.734619;,
  -8.385834;4.480774;-20.039307;,
  -7.586533;17.723144;-15.849182;,
  -8.682174;17.721862;-17.723389;,
  -7.600357;17.755005;-18.355774;,
  -6.504837;17.756470;-16.481445;,
  -8.675247;17.705933;-16.470093;,
  -8.702576;18.658264;-17.459534;,
  -8.682053;18.018250;-16.382141;,
  -8.686142;18.244446;-16.149963;,
  -7.627640;19.003784;-18.003968;,
  -8.686310;18.324280;-15.835389;,
  -7.495865;17.513672;0.624390;,
  -8.595658;18.114930;0.637939;,
  -8.715423;19.577210;-15.819336;,
  -8.624741;19.367798;0.654053;,
  -8.714767;19.337341;-16.762512;,
  -7.644745;20.229003;-15.817016;,
  -7.554077;20.019592;0.656494;,
  -6.454315;19.418334;0.642822;,
  -7.643906;19.909179;-17.074646;,
  -6.544998;19.627747;-15.830627;,
  -6.425232;18.165466;0.626770;,
  -6.544342;19.387939;-16.773803;,
  -6.532135;18.708741;-17.470642;,
  -6.511642;18.068787;-16.393432;,
  -6.515656;18.294982;-16.161072;,
  -6.515900;18.374878;-15.846741;,
  -7.495865;17.513672;0.624390;,
  -23.232910;-16.091797;-16.192870;,
  -23.142227;-16.301269;0.280579;,
  -22.042374;-16.902587;0.266968;,
  -22.133133;-16.693115;-16.206666;,
  -22.013291;-18.155274;0.250855;,
  -22.104035;-17.945800;-16.222778;,
  -23.084030;-18.807006;0.248413;,
  -22.136765;-16.605102;-16.518859;,
  -22.143387;-16.373046;-16.745240;,
  -22.115037;-17.682251;-17.159424;,
  -23.174714;-18.597656;-16.225098;,
  -22.151107;-16.058594;-16.825195;,
  -23.495208;-5.559387;-19.457214;,
  -22.134827;-16.985534;-17.838685;,
  -23.189453;-18.246032;-17.474182;,
  -22.413453;-5.526123;-20.089355;,
  -23.719925;4.115418;-19.332947;,
  -23.215790;-17.317382;-18.379822;,
  -24.285461;-17.732789;-17.148010;,
  -24.274429;-17.996338;-16.211304;,
  -24.183746;-18.205811;0.262146;,
  -24.303542;-16.743714;-16.195312;,
  -24.212829;-16.953125;0.278259;,
  -24.307174;-16.655701;-16.507507;,
  -23.232910;-16.091797;-16.192870;,
  -23.142227;-16.301269;0.280579;,
  -24.313782;-16.423645;-16.733947;,
  -24.305190;-17.036072;-17.827149;,
  -24.321502;-16.109131;-16.813782;,
  -23.495208;-5.559387;-19.457214;,
  -24.328475;-16.093262;-18.067078;,
  -23.246750;-16.059936;-18.699523;,
  -24.583832;-5.576660;-20.077882;,
  -23.719925;4.115418;-19.332947;,
  -24.590744;-5.560730;-21.331421;,
  -24.808517;4.098206;-19.953674;,
  -24.009262;17.340576;-15.763550;,
  -24.815461;4.114197;-21.207154;,
  -23.508973;-5.527466;-21.963562;,
  -22.158035;-16.042664;-18.078552;,
  -22.420349;-5.510193;-21.342773;,
  -22.645050;4.164734;-21.218506;,
  -22.638138;4.148804;-19.965149;,
  -23.733688;4.147400;-21.839416;,
  -24.009262;17.340576;-15.763550;,
  -25.104890;17.339294;-17.637818;,
  -22.934464;17.389893;-17.649230;,
  -24.023072;17.372498;-18.270080;,
  -25.098008;17.323365;-16.384461;,
  -22.927582;17.373963;-16.395874;,
  -22.954910;18.326294;-17.385315;,
  -22.934403;17.686280;-16.307861;,
  -22.938446;17.912475;-16.075622;,
  -24.050339;18.621216;-17.918213;,
  -22.938645;17.992371;-15.761291;,
  -23.918563;17.131165;0.710022;,
  -22.847962;17.782898;0.712280;,
  -22.967758;19.245240;-15.745178;,
  -22.877045;19.035827;0.728455;,
  -22.967086;19.005432;-16.688355;,
  -24.067474;19.846435;-15.731384;,
  -23.976776;19.637024;0.742126;,
  -25.047454;18.985229;0.739685;,
  -24.066589;19.526611;-16.989014;,
  -25.138154;19.194763;-15.733826;,
  -25.018357;17.732362;0.723633;,
  -25.137482;18.954894;-16.676880;,
  -25.125290;18.275757;-17.373840;,
  -25.104827;17.635682;-16.296570;,
  -25.108872;17.861877;-16.064270;,
  -25.109040;17.941773;-15.749939;,
  -23.918563;17.131165;0.710022;,
  26.656310;-14.929749;-16.452819;,
  26.747040;-15.139160;0.020630;,
  27.846832;-15.740539;0.006897;,
  27.756102;-15.531128;-16.466614;,
  27.875917;-16.993226;-0.009216;,
  27.785187;-16.783752;-16.482726;,
  26.805283;-17.645080;-0.011414;,
  27.752442;-15.443115;-16.778870;,
  27.745834;-15.210998;-17.005371;,
  27.774154;-16.520203;-17.419434;,
  26.714539;-17.435608;-16.484986;,
  27.738112;-14.896606;-17.085205;,
  26.393997;-4.397339;-19.716979;,
  27.754394;-15.823426;-18.098694;,
  27.475798;-4.364075;-20.349243;,
  26.169326;5.277466;-19.592773;,
  27.731155;-14.880677;-18.338501;,
  26.673477;-16.155334;-18.639587;,
  27.251098;5.310791;-20.225037;,
  26.699829;-17.083923;-17.734070;,
  25.879914;18.502624;-16.023560;,
  25.603805;-16.570800;-17.407898;,
  25.614776;-16.834350;-16.471314;,
  25.705490;-17.043762;0.002258;,
  25.585678;-15.581666;-16.455322;,
  25.676422;-15.791138;0.018433;,
  25.582046;-15.493653;-16.767456;,
  26.656310;-14.929749;-16.452819;,
  26.747040;-15.139160;0.020630;,
  25.575410;-15.261597;-16.993957;,
  25.584014;-15.874024;-18.087158;,
  25.567704;-14.947144;-17.073731;,
  26.393997;-4.397339;-19.716979;,
  25.560776;-14.931275;-18.326965;,
  26.642517;-14.897888;-18.959350;,
  25.305358;-4.414612;-20.337891;,
  26.169326;5.277466;-19.592773;,
  25.298446;-4.398743;-21.591309;,
  27.468874;-4.348144;-21.602784;,
  26.380187;-4.365478;-22.223450;,
  27.244170;5.326782;-21.478515;,
  25.073776;5.276184;-21.467042;,
  26.155549;5.309448;-22.099243;,
  26.954682;18.551880;-17.909058;,
  25.080674;5.260315;-20.213622;,
  25.879914;18.502624;-16.023560;,
  24.784286;18.501342;-17.897766;,
  25.866090;18.534485;-18.530090;,
  24.791259;18.485413;-16.644410;,
  24.763840;19.437805;-17.633789;,
  24.784408;18.797730;-16.556579;,
  24.780365;19.023926;-16.324219;,
  25.838821;19.783325;-18.178162;,
  24.780090;19.103882;-16.009888;,
  25.970627;18.293213;0.450073;,
  24.870834;18.894410;0.463684;,
  24.751678;20.116882;-16.936829;,
  24.750992;20.356750;-15.993835;,
  24.841736;20.147339;0.479797;,
  25.822586;20.688659;-17.248963;,
  25.821717;21.008546;-15.991394;,
  25.912400;20.799133;0.482239;,
  27.012147;20.197814;0.468384;,
  26.934266;19.488342;-17.645142;,
  26.922090;20.167419;-16.948181;,
  26.921418;20.407288;-16.005126;,
  27.041245;18.944946;0.452271;,
  26.954803;18.848328;-16.567994;,
  26.950774;19.074462;-16.335571;,
  26.950515;19.154358;-16.021179;,
  25.970627;18.293213;0.450073;,
  26.961638;18.535950;-16.655762;,
  34.871965;-5.257690;-16.375122;,
  34.962630;-5.467102;0.098328;,
  35.564010;-4.367371;0.109131;,
  35.473328;-4.157959;-16.364379;,
  36.726227;-4.128723;-16.370971;,
  36.816970;-4.338196;0.102600;,
  37.468688;-5.408752;0.085266;,
  35.387680;-4.155884;-16.677307;,
  37.378006;-5.199341;-16.388184;,
  36.469283;-4.122681;-17.309632;,
  35.157088;-4.158386;-16.905640;,
  34.843430;-4.164612;-16.987610;,
  21.584030;-5.523560;-19.704834;,
  35.777571;-4.129944;-17.994019;,
  21.555405;-4.430420;-20.317506;,
  -23.643952;-6.576965;-19.469238;,
  34.836458;-4.148621;-18.241090;,
  -23.672608;-5.483887;-20.081787;,
  21.548523;-4.414551;-21.570862;,
  -34.143907;-5.771362;-16.628235;,
  -34.115219;-6.864502;-16.015808;,
  -23.679520;-5.467956;-21.335205;,
  -34.150848;-5.755432;-17.881653;,
  -34.456787;-5.779724;-16.542725;,
  21.570221;-5.491699;-22.211426;,
  -23.657730;-6.545105;-21.975646;,
  34.858138;-5.225830;-18.881653;,
  -23.629120;-7.638245;-21.363158;,
  36.113142;-5.200867;-18.552429;,
  21.598923;-6.584778;-21.598694;,
  37.035293;-5.191162;-17.639832;,
  36.519683;-6.293030;-17.337464;,
  35.827971;-6.300293;-18.021912;,
  34.886858;-6.318970;-18.268922;,
  35.207475;-6.328674;-16.933533;,
  34.893814;-6.334900;-17.015626;,
  21.605805;-6.600769;-20.345398;,
  34.871965;-5.257690;-16.375122;,
  35.438096;-6.326233;-16.705139;,
  36.776627;-6.299072;-16.398926;,
  36.867370;-6.508484;0.074707;,
  35.614410;-6.537659;0.081177;,
  34.962630;-5.467102;0.098328;,
  35.523712;-6.328247;-16.392274;,
  21.584030;-5.523560;-19.704834;,
  -23.643952;-6.576965;-19.469238;,
  -23.622238;-7.654236;-20.109680;,
  -34.115219;-6.864502;-16.015808;,
  -34.100432;-7.925842;-17.909424;,
  -34.093536;-7.941773;-16.656189;,
  -34.406432;-7.950134;-16.570800;,
  -34.129027;-6.832642;-18.522216;,
  -35.038758;-7.950928;-17.652710;,
  -35.089158;-5.780579;-17.624878;,
  -35.380310;-6.866028;-18.179931;,
  -35.722915;-7.975708;-16.960998;,
  -36.292390;-6.899109;-17.257629;,
  -35.773299;-5.805359;-16.933106;,
  -34.684678;-5.788025;-16.312134;,
  -36.621232;-6.922913;-16.002502;,
  -36.019882;-5.823120;-15.992005;,
  -34.766966;-5.793945;-15.998352;,
  -34.024490;-7.073914;0.457886;,
  -34.676253;-6.003357;0.475098;,
  -35.929184;-6.032532;0.481628;,
  -36.530534;-7.132324;0.470947;,
  -35.878784;-8.202942;0.453735;,
  -35.969498;-7.993530;-16.019837;,
  -34.716506;-7.964355;-16.026184;,
  -34.625869;-8.173706;0.447205;,
  -34.024490;-7.073914;0.457886;,
  -34.634278;-7.958374;-16.340027;,
  34.571885;7.662414;-16.209229;,
  34.662550;7.453003;0.264282;,
  35.263933;8.552734;0.275024;,
  35.173232;8.762146;-16.198547;,
  36.426147;8.791260;-16.205078;,
  36.516877;8.581909;0.268433;,
  37.168640;7.511353;0.251160;,
  35.087584;8.764160;-16.511475;,
  37.077942;7.720764;-16.222350;,
  36.169203;8.797424;-17.143677;,
  34.857011;8.761718;-16.739685;,
  34.543334;8.755493;-16.821778;,
  21.283966;7.396546;-19.539002;,
  35.477494;8.790100;-17.828125;,
  21.255325;8.489624;-20.151611;,
  -23.944016;6.343079;-19.303344;,
  34.536378;8.771423;-18.075134;,
  35.813094;7.719238;-18.386536;,
  -23.972702;7.436158;-19.915893;,
  36.735229;7.728882;-17.473816;,
  21.248429;8.505554;-21.404968;,
  -34.444000;7.148682;-16.462341;,
  -34.415283;6.055542;-15.849853;,
  -23.979614;7.452149;-21.169312;,
  -34.450896;7.164612;-17.715698;,
  -34.756883;7.140320;-16.376893;,
  21.270142;7.428406;-22.045410;,
  -23.957840;6.374939;-21.809814;,
  34.558045;7.694275;-18.715821;,
  -23.929200;5.281799;-21.197083;,
  21.298829;6.335205;-21.432861;,
  -34.429139;6.087402;-18.356384;,
  -35.389206;7.139526;-17.458862;,
  -34.400496;4.994202;-17.743592;,
  -36.073411;7.114746;-16.767211;,
  -23.922286;5.265869;-19.943787;,
  -34.984742;7.132019;-16.146301;,
  -35.067030;7.126160;-15.832520;,
  -34.324586;5.846130;0.623718;,
  -34.976317;6.916687;0.640991;,
  -36.229280;6.887512;0.647522;,
  -36.319962;7.096985;-15.826110;,
  -36.921312;5.997131;-15.836670;,
  -36.830611;5.787720;0.636902;,
  -36.178848;4.717163;0.619690;,
  -36.592454;6.020935;-17.091797;,
  -36.269594;4.926575;-15.854003;,
  -35.680374;6.053894;-18.014038;,
  -36.023011;4.944336;-16.795106;,
  -35.338806;4.969116;-17.486816;,
  -34.706467;4.969971;-16.404786;,
  -34.934355;4.961731;-16.174133;,
  -34.393571;4.978272;-16.490173;,
  -34.415283;6.055542;-15.849853;,
  -35.016618;4.955750;-15.860352;,
  -34.925888;4.746338;0.613220;,
  -34.324586;5.846130;0.623718;,
  -23.944016;6.343079;-19.303344;,
  21.305725;6.319336;-20.179565;,
  21.283966;7.396546;-19.539002;,
  34.571885;7.662414;-16.209229;,
  34.586806;6.601135;-18.102966;,
  34.593734;6.585144;-16.849610;,
  35.527894;6.619812;-17.855957;,
  34.907424;6.591370;-16.767517;,
  36.219590;6.627075;-17.171630;,
  35.138000;6.593872;-16.539246;,
  35.223664;6.591797;-16.226379;,
  35.314346;6.382385;0.247192;,
  34.662550;7.453003;0.264282;,
  36.476563;6.620972;-16.232910;,
  36.567293;6.411560;0.240662;,
  -33.647843;-12.010498;0.392883;,
  -34.196822;11.626282;0.696411;,
  -29.715974;17.127869;0.741760;,
  -28.916429;-17.297424;0.299744;,
  29.705917;18.511963;0.432190;,
  34.437226;13.224914;0.338745;,
  30.505462;-15.913390;-0.010010;,
  34.986237;-10.411804;0.035339;,
  -19.259171;-8.523132;-14.258789;,
  -26.237640;-12.478821;-4.739746;,
  -30.555786;-5.897766;-4.632324;,
  -25.123368;-13.542358;-4.759400;,
  -22.430405;-3.872498;-14.182312;,
  -30.778458;3.689392;-4.509277;,
  -17.777664;-9.645081;-14.281373;,
  -22.587845;2.906128;-14.095275;,
  -16.423386;-2.434387;-17.143859;,
  -19.670533;9.187866;-14.031373;,
  -26.819350;12.569886;-4.417969;,
  -25.755707;13.684082;-4.409790;,
  -16.532806;2.278442;-17.083251;,
  -14.096878;-5.664795;-17.197632;,
  -8.148606;-0.948731;-19.217957;,
  -18.242691;10.377686;-14.024291;,
  25.856674;14.886352;-4.678772;,
  -14.382858;6.648682;-17.039490;,
  -8.209839;1.688110;-19.184082;,
  -12.428498;7.896546;-17.034424;,
  -7.130218;4.130432;-19.158936;,
  18.406098;11.231323;-14.215270;,
  19.887650;10.109253;-14.237549;,
  26.970979;13.822814;-4.698425;,
  31.338118;5.136292;-4.832825;,
  12.682709;8.481446;-17.165222;,
  23.093461;3.970215;-14.333251;,
  7.543732;4.472290;-19.235474;,
  14.692886;7.325866;-17.190979;,
  8.735565;2.082825;-19.272400;,
  17.043488;3.060486;-17.258118;,
  8.796845;-0.554077;-19.306152;,
  17.152939;-1.652344;-17.318725;,
  23.250915;-2.808533;-14.420227;,
  31.560774;-4.450989;-4.955933;,
  20.298981;-7.601746;-14.465027;,
  27.552765;-11.225952;-5.020020;,
  26.489029;-12.340149;-5.028442;,
  14.978851;-4.987610;-17.349122;,
  18.871170;-8.791443;-14.472290;,
  7.703781;-2.417419;-19.323853;,
  13.024521;-6.235535;-17.354187;,
  -12.086654;-6.820374;-17.223389;,
  -6.970215;-2.759155;-19.247498;;
  816;
  3;0,1,2;,
  3;1,3,2;,
  3;3,4,2;,
  3;2,4,5;,
  3;5,4,6;,
  3;7,6,4;,
  3;8,9,10;,
  3;11,8,10;,
  3;11,10,12;,
  3;13,11,12;,
  3;13,12,14;,
  3;11,15,8;,
  3;15,11,13;,
  3;15,16,8;,
  3;13,17,15;,
  3;16,15,17;,
  3;18,13,14;,
  3;17,13,18;,
  3;16,19,8;,
  3;8,19,20;,
  3;17,21,16;,
  3;19,22,20;,
  3;20,22,23;,
  3;24,19,16;,
  3;16,21,24;,
  3;19,24,22;,
  3;25,21,17;,
  3;22,26,23;,
  3;17,27,25;,
  3;17,18,27;,
  3;23,26,28;,
  3;29,27,18;,
  3;25,27,29;,
  3;30,18,14;,
  3;18,30,29;,
  3;14,31,30;,
  3;32,30,31;,
  3;31,33,32;,
  3;30,32,34;,
  3;34,29,30;,
  3;35,32,33;,
  3;35,34,32;,
  3;33,36,35;,
  3;29,34,37;,
  3;35,37,34;,
  3;25,29,38;,
  3;37,38,29;,
  3;35,39,37;,
  3;39,35,40;,
  3;41,38,37;,
  3;37,39,41;,
  3;42,25,38;,
  3;42,38,41;,
  3;21,25,42;,
  3;42,24,21;,
  3;40,43,39;,
  3;41,39,43;,
  3;43,40,44;,
  3;42,41,45;,
  3;43,45,41;,
  3;46,24,42;,
  3;46,22,24;,
  3;45,47,42;,
  3;47,46,42;,
  3;22,46,48;,
  3;48,46,47;,
  3;48,26,22;,
  3;47,45,49;,
  3;45,43,49;,
  3;47,50,48;,
  3;49,50,47;,
  3;26,48,51;,
  3;51,48,50;,
  3;52,49,43;,
  3;44,52,43;,
  3;52,44,53;,
  3;50,49,54;,
  3;49,52,54;,
  3;50,55,51;,
  3;54,55,50;,
  3;51,56,26;,
  3;26,56,28;,
  3;57,54,52;,
  3;53,57,52;,
  3;54,57,58;,
  3;55,54,58;,
  3;59,57,53;,
  3;57,59,58;,
  3;60,59,53;,
  3;58,61,55;,
  3;62,60,53;,
  3;62,53,63;,
  3;63,64,62;,
  3;65,62,64;,
  3;60,62,65;,
  3;64,66,65;,
  3;59,60,67;,
  3;65,67,60;,
  3;67,58,59;,
  3;68,65,66;,
  3;67,65,68;,
  3;66,69,68;,
  3;68,69,70;,
  3;58,67,71;,
  3;67,68,71;,
  3;58,71,61;,
  3;72,68,70;,
  3;72,70,73;,
  3;74,71,68;,
  3;68,72,74;,
  3;75,61,71;,
  3;71,74,75;,
  3;61,75,55;,
  3;75,51,55;,
  3;56,51,75;,
  3;75,76,56;,
  3;76,75,74;,
  3;28,56,76;,
  3;74,77,76;,
  3;28,76,77;,
  3;77,74,72;,
  3;28,77,78;,
  3;72,78,77;,
  3;78,72,73;,
  3;28,78,79;,
  3;78,73,79;,
  3;80,81,82;,
  3;83,80,82;,
  3;83,82,84;,
  3;85,83,84;,
  3;85,84,86;,
  3;83,87,80;,
  3;87,83,85;,
  3;87,88,80;,
  3;85,89,87;,
  3;88,87,89;,
  3;90,85,86;,
  3;89,85,90;,
  3;88,91,80;,
  3;80,91,92;,
  3;89,93,88;,
  3;91,94,92;,
  3;92,94,95;,
  3;96,91,88;,
  3;88,93,96;,
  3;91,96,94;,
  3;97,93,89;,
  3;94,98,95;,
  3;89,99,97;,
  3;89,90,99;,
  3;95,98,100;,
  3;101,99,90;,
  3;97,99,101;,
  3;102,90,86;,
  3;90,102,101;,
  3;86,103,102;,
  3;104,102,103;,
  3;103,105,104;,
  3;102,104,106;,
  3;106,101,102;,
  3;107,104,105;,
  3;107,106,104;,
  3;105,108,107;,
  3;101,106,109;,
  3;107,109,106;,
  3;109,110,101;,
  3;97,101,110;,
  3;107,111,109;,
  3;110,109,111;,
  3;111,107,112;,
  3;113,97,110;,
  3;93,97,113;,
  3;113,96,93;,
  3;111,114,110;,
  3;113,110,114;,
  3;112,115,111;,
  3;114,111,115;,
  3;115,112,116;,
  3;113,114,117;,
  3;115,117,114;,
  3;118,96,113;,
  3;118,94,96;,
  3;117,119,113;,
  3;119,118,113;,
  3;94,118,120;,
  3;120,118,119;,
  3;120,98,94;,
  3;119,117,121;,
  3;117,115,121;,
  3;119,122,120;,
  3;121,122,119;,
  3;98,120,123;,
  3;123,120,122;,
  3;124,121,115;,
  3;116,124,115;,
  3;124,116,125;,
  3;122,121,126;,
  3;121,124,126;,
  3;122,127,123;,
  3;126,127,122;,
  3;123,128,98;,
  3;98,128,100;,
  3;129,126,124;,
  3;125,129,124;,
  3;126,129,130;,
  3;127,126,130;,
  3;131,129,125;,
  3;129,131,130;,
  3;132,131,125;,
  3;130,133,127;,
  3;134,132,125;,
  3;134,125,135;,
  3;135,136,134;,
  3;137,134,136;,
  3;132,134,137;,
  3;136,138,137;,
  3;131,132,139;,
  3;137,139,132;,
  3;139,130,131;,
  3;140,137,138;,
  3;139,137,140;,
  3;138,141,140;,
  3;140,141,142;,
  3;130,139,143;,
  3;139,140,143;,
  3;130,143,133;,
  3;144,140,142;,
  3;144,142,145;,
  3;146,143,140;,
  3;140,144,146;,
  3;147,133,143;,
  3;143,146,147;,
  3;133,147,127;,
  3;147,123,127;,
  3;128,123,147;,
  3;147,148,128;,
  3;148,147,146;,
  3;100,128,148;,
  3;146,149,148;,
  3;100,148,149;,
  3;149,146,144;,
  3;100,149,150;,
  3;144,150,149;,
  3;150,144,145;,
  3;100,150,151;,
  3;150,145,151;,
  3;152,153,154;,
  3;155,152,154;,
  3;155,154,156;,
  3;157,155,156;,
  3;157,156,158;,
  3;155,159,152;,
  3;159,155,157;,
  3;159,160,152;,
  3;157,161,159;,
  3;160,159,161;,
  3;162,157,158;,
  3;161,157,162;,
  3;160,163,152;,
  3;152,163,164;,
  3;161,165,160;,
  3;165,163,160;,
  3;161,162,166;,
  3;163,167,164;,
  3;164,167,168;,
  3;161,166,169;,
  3;169,165,161;,
  3;170,166,162;,
  3;169,166,170;,
  3;171,162,158;,
  3;162,171,170;,
  3;158,172,171;,
  3;173,171,172;,
  3;172,174,173;,
  3;171,173,175;,
  3;175,170,171;,
  3;176,173,174;,
  3;176,175,173;,
  3;174,177,176;,
  3;170,175,178;,
  3;176,178,175;,
  3;169,170,179;,
  3;178,179,170;,
  3;176,180,178;,
  3;180,176,181;,
  3;182,179,178;,
  3;178,180,182;,
  3;183,169,179;,
  3;183,179,182;,
  3;165,169,183;,
  3;181,184,180;,
  3;182,180,184;,
  3;184,181,185;,
  3;184,186,182;,
  3;183,182,186;,
  3;185,187,184;,
  3;187,185,188;,
  3;186,184,189;,
  3;187,189,184;,
  3;186,190,183;,
  3;190,186,189;,
  3;183,191,165;,
  3;191,163,165;,
  3;163,191,167;,
  3;192,191,183;,
  3;192,167,191;,
  3;190,192,183;,
  3;167,192,193;,
  3;193,192,190;,
  3;193,194,167;,
  3;167,194,168;,
  3;190,195,193;,
  3;189,195,190;,
  3;168,194,196;,
  3;195,189,197;,
  3;189,187,197;,
  3;198,193,195;,
  3;194,193,198;,
  3;197,199,195;,
  3;195,199,198;,
  3;200,197,187;,
  3;188,200,187;,
  3;198,201,194;,
  3;194,201,196;,
  3;201,198,202;,
  3;202,198,199;,
  3;196,201,203;,
  3;202,203,201;,
  3;196,203,204;,
  3;205,202,199;,
  3;196,204,206;,
  3;196,206,207;,
  3;206,208,207;,
  3;206,209,208;,
  3;209,206,204;,
  3;209,210,208;,
  3;211,204,203;,
  3;204,211,209;,
  3;203,202,211;,
  3;209,212,210;,
  3;212,209,211;,
  3;212,213,210;,
  3;214,213,212;,
  3;215,211,202;,
  3;211,215,212;,
  3;202,205,215;,
  3;212,216,214;,
  3;217,214,216;,
  3;218,212,215;,
  3;218,216,212;,
  3;219,215,205;,
  3;219,218,215;,
  3;219,205,199;,
  3;199,197,219;,
  3;197,200,219;,
  3;200,220,219;,
  3;218,219,220;,
  3;220,200,188;,
  3;220,221,218;,
  3;221,220,188;,
  3;216,218,221;,
  3;222,221,188;,
  3;221,222,216;,
  3;216,222,217;,
  3;222,188,223;,
  3;223,217,222;,
  3;224,225,226;,
  3;227,224,226;,
  3;227,226,228;,
  3;229,227,228;,
  3;229,228,230;,
  3;227,231,224;,
  3;231,227,229;,
  3;231,232,224;,
  3;229,233,231;,
  3;232,231,233;,
  3;234,229,230;,
  3;233,229,234;,
  3;232,235,224;,
  3;224,235,236;,
  3;233,237,232;,
  3;235,238,236;,
  3;236,238,239;,
  3;240,235,232;,
  3;232,237,240;,
  3;235,240,238;,
  3;241,237,233;,
  3;238,242,239;,
  3;233,243,241;,
  3;233,234,243;,
  3;239,242,244;,
  3;245,243,234;,
  3;241,243,245;,
  3;246,234,230;,
  3;234,246,245;,
  3;230,247,246;,
  3;248,246,247;,
  3;247,249,248;,
  3;246,248,250;,
  3;250,245,246;,
  3;251,248,249;,
  3;251,250,248;,
  3;249,252,251;,
  3;245,250,253;,
  3;251,253,250;,
  3;241,245,254;,
  3;253,254,245;,
  3;251,255,253;,
  3;255,251,256;,
  3;257,254,253;,
  3;253,255,257;,
  3;258,241,254;,
  3;258,254,257;,
  3;237,241,258;,
  3;258,240,237;,
  3;256,259,255;,
  3;257,255,259;,
  3;259,256,260;,
  3;258,257,261;,
  3;259,261,257;,
  3;262,240,258;,
  3;262,238,240;,
  3;261,263,258;,
  3;263,262,258;,
  3;238,262,264;,
  3;264,262,263;,
  3;264,242,238;,
  3;263,261,265;,
  3;261,259,265;,
  3;263,266,264;,
  3;265,266,263;,
  3;242,264,267;,
  3;267,264,266;,
  3;268,265,259;,
  3;260,268,259;,
  3;268,260,269;,
  3;266,265,270;,
  3;265,268,270;,
  3;270,271,266;,
  3;266,271,267;,
  3;272,270,268;,
  3;269,272,268;,
  3;270,272,273;,
  3;271,270,273;,
  3;274,272,269;,
  3;272,274,273;,
  3;275,274,269;,
  3;273,276,271;,
  3;277,275,269;,
  3;277,269,278;,
  3;278,279,277;,
  3;274,275,280;,
  3;280,275,277;,
  3;280,273,274;,
  3;281,277,279;,
  3;277,281,280;,
  3;279,282,281;,
  3;273,280,283;,
  3;273,283,276;,
  3;280,281,284;,
  3;284,281,282;,
  3;280,284,283;,
  3;282,285,284;,
  3;284,285,286;,
  3;287,276,283;,
  3;276,287,271;,
  3;287,267,271;,
  3;288,283,284;,
  3;283,288,287;,
  3;289,284,286;,
  3;284,289,288;,
  3;289,286,290;,
  3;291,287,288;,
  3;287,291,267;,
  3;292,288,289;,
  3;288,292,291;,
  3;293,289,290;,
  3;289,293,292;,
  3;293,290,294;,
  3;244,293,294;,
  3;244,292,293;,
  3;244,291,292;,
  3;244,295,291;,
  3;291,295,267;,
  3;242,295,244;,
  3;267,295,242;,
  3;296,297,298;,
  3;299,296,298;,
  3;300,299,298;,
  3;298,301,300;,
  3;300,301,302;,
  3;299,303,296;,
  3;304,300,302;,
  3;299,300,305;,
  3;305,303,299;,
  3;305,300,304;,
  3;303,306,296;,
  3;306,303,305;,
  3;306,307,296;,
  3;308,296,307;,
  3;305,309,306;,
  3;307,310,308;,
  3;311,308,310;,
  3;312,307,306;,
  3;307,312,310;,
  3;306,309,312;,
  3;310,313,311;,
  3;314,310,312;,
  3;310,314,313;,
  3;311,313,315;,
  3;315,316,311;,
  3;317,313,314;,
  3;318,315,313;,
  3;313,317,318;,
  3;316,315,319;,
  3;319,315,318;,
  3;317,314,320;,
  3;320,314,312;,
  3;317,321,318;,
  3;320,321,317;,
  3;312,322,320;,
  3;322,312,309;,
  3;323,321,320;,
  3;309,324,322;,
  3;324,309,305;,
  3;325,320,322;,
  3;320,325,323;,
  3;305,326,324;,
  3;305,304,326;,
  3;324,326,327;,
  3;327,326,304;,
  3;322,324,328;,
  3;327,328,324;,
  3;328,329,322;,
  3;322,329,325;,
  3;330,328,327;,
  3;331,329,328;,
  3;328,330,331;,
  3;332,325,329;,
  3;329,331,332;,
  3;333,331,330;,
  3;332,331,333;,
  3;327,334,330;,
  3;333,330,334;,
  3;304,335,327;,
  3;334,327,335;,
  3;335,304,302;,
  3;302,336,335;,
  3;335,336,337;,
  3;337,338,333;,
  3;335,339,334;,
  3;339,335,337;,
  3;333,334,339;,
  3;333,339,337;,
  3;333,340,332;,
  3;332,340,341;,
  3;341,342,332;,
  3;325,332,342;,
  3;342,323,325;,
  3;342,341,343;,
  3;323,342,344;,
  3;343,345,342;,
  3;345,344,342;,
  3;346,345,343;,
  3;344,345,346;,
  3;344,347,323;,
  3;321,323,347;,
  3;347,318,321;,
  3;346,348,344;,
  3;347,344,348;,
  3;318,347,349;,
  3;318,349,319;,
  3;348,350,347;,
  3;349,347,350;,
  3;351,348,346;,
  3;350,348,351;,
  3;349,350,352;,
  3;351,352,350;,
  3;319,349,353;,
  3;352,353,349;,
  3;353,354,319;,
  3;316,319,354;,
  3;353,352,355;,
  3;351,355,352;,
  3;354,353,356;,
  3;355,356,353;,
  3;316,354,357;,
  3;356,357,354;,
  3;316,357,358;,
  3;357,359,358;,
  3;360,359,357;,
  3;357,356,360;,
  3;356,355,360;,
  3;355,361,360;,
  3;362,361,355;,
  3;355,363,362;,
  3;351,363,355;,
  3;363,364,362;,
  3;364,365,362;,
  3;366,365,364;,
  3;364,343,366;,
  3;363,351,367;,
  3;367,364,363;,
  3;364,367,343;,
  3;346,367,351;,
  3;367,346,343;,
  3;368,369,370;,
  3;371,368,370;,
  3;372,371,370;,
  3;370,373,372;,
  3;372,373,374;,
  3;371,375,368;,
  3;376,372,374;,
  3;371,372,377;,
  3;377,375,371;,
  3;377,372,376;,
  3;375,378,368;,
  3;378,375,377;,
  3;378,379,368;,
  3;380,368,379;,
  3;377,381,378;,
  3;381,379,378;,
  3;379,382,380;,
  3;383,380,382;,
  3;384,379,381;,
  3;379,384,382;,
  3;385,381,377;,
  3;382,386,383;,
  3;377,387,385;,
  3;377,376,387;,
  3;382,388,386;,
  3;388,382,384;,
  3;383,386,389;,
  3;389,390,383;,
  3;391,386,388;,
  3;392,389,386;,
  3;386,391,392;,
  3;390,389,393;,
  3;393,389,392;,
  3;391,388,394;,
  3;394,388,384;,
  3;391,395,392;,
  3;394,395,391;,
  3;396,384,381;,
  3;384,396,394;,
  3;381,385,396;,
  3;397,395,394;,
  3;398,394,396;,
  3;394,398,397;,
  3;399,392,395;,
  3;395,397,399;,
  3;392,399,400;,
  3;392,400,393;,
  3;401,399,397;,
  3;393,400,402;,
  3;397,403,401;,
  3;403,397,398;,
  3;402,404,393;,
  3;390,393,404;,
  3;390,404,405;,
  3;390,405,406;,
  3;405,407,406;,
  3;408,407,405;,
  3;409,405,404;,
  3;405,409,408;,
  3;404,402,409;,
  3;409,410,408;,
  3;410,409,402;,
  3;410,411,408;,
  3;412,411,410;,
  3;402,413,410;,
  3;413,402,400;,
  3;410,414,412;,
  3;400,415,413;,
  3;400,399,415;,
  3;416,410,413;,
  3;416,413,415;,
  3;416,414,410;,
  3;417,415,399;,
  3;415,417,416;,
  3;399,401,417;,
  3;416,417,418;,
  3;418,417,401;,
  3;414,416,419;,
  3;418,419,416;,
  3;401,420,418;,
  3;420,401,403;,
  3;418,420,421;,
  3;419,418,421;,
  3;421,420,403;,
  3;419,422,414;,
  3;422,419,421;,
  3;414,422,412;,
  3;422,423,412;,
  3;424,423,422;,
  3;422,421,424;,
  3;403,425,421;,
  3;425,403,426;,
  3;426,427,425;,
  3;398,426,403;,
  3;428,427,426;,
  3;426,398,429;,
  3;396,429,398;,
  3;429,430,426;,
  3;426,430,428;,
  3;431,429,396;,
  3;430,429,431;,
  3;396,385,431;,
  3;431,432,430;,
  3;428,430,432;,
  3;433,431,385;,
  3;432,431,433;,
  3;385,387,433;,
  3;433,387,376;,
  3;428,432,434;,
  3;433,434,432;,
  3;428,434,435;,
  3;433,435,434;,
  3;436,437,428;,
  3;428,435,436;,
  3;376,438,433;,
  3;435,433,438;,
  3;435,438,436;,
  3;438,376,374;,
  3;438,439,436;,
  3;374,439,438;,
  3;440,441,3;,
  3;3,441,442;,
  3;3,1,440;,
  3;442,4,3;,
  3;443,440,1;,
  3;7,4,442;,
  3;1,0,443;,
  3;442,444,7;,
  3;443,0,2;,
  3;7,444,445;,
  3;2,446,443;,
  3;6,7,445;,
  3;447,446,2;,
  3;6,445,447;,
  3;2,5,447;,
  3;6,447,5;,
  3;448,449,450;,
  3;451,449,448;,
  3;450,452,448;,
  3;452,450,453;,
  3;448,454,451;,
  3;453,455,452;,
  3;448,452,456;,
  3;456,452,455;,
  3;457,455,453;,
  3;453,458,457;,
  3;459,457,458;,
  3;455,460,456;,
  3;460,455,457;,
  3;456,461,448;,
  3;454,448,461;,
  3;462,456,460;,
  3;461,456,462;,
  3;463,457,459;,
  3;463,459,464;,
  3;457,465,460;,
  3;463,465,457;,
  3;466,460,465;,
  3;460,466,462;,
  3;467,465,463;,
  3;465,468,466;,
  3;467,468,465;,
  3;464,469,463;,
  3;467,463,469;,
  3;470,469,464;,
  3;464,471,470;,
  3;470,471,472;,
  3;469,473,467;,
  3;472,474,470;,
  3;473,475,467;,
  3;475,468,467;,
  3;476,473,469;,
  3;476,475,473;,
  3;469,470,476;,
  3;468,475,477;,
  3;476,477,475;,
  3;477,466,468;,
  3;476,470,478;,
  3;477,476,478;,
  3;478,470,474;,
  3;466,477,479;,
  3;478,479,477;,
  3;479,462,466;,
  3;474,480,478;,
  3;478,480,479;,
  3;481,474,472;,
  3;474,481,480;,
  3;472,482,481;,
  3;483,481,482;,
  3;480,481,483;,
  3;482,484,483;,
  3;484,485,483;,
  3;483,486,480;,
  3;479,480,486;,
  3;487,483,485;,
  3;483,487,486;,
  3;487,485,451;,
  3;451,454,487;,
  3;486,488,479;,
  3;462,479,488;,
  3;489,486,487;,
  3;489,487,454;,
  3;489,488,486;,
  3;454,490,489;,
  3;488,489,490;,
  3;461,490,454;,
  3;488,491,462;,
  3;462,491,461;,
  3;490,491,488;,
  3;461,491,490;;

  MeshMaterialList {
   1;
   816;
   0,
   0,
   0,
   0,
   0,
   0,
   0,
   0,
   0,
   0,
   0,
   0,
   0,
   0,
   0,
   0,
   0,
   0,
   0,
   0,
   0,
   0,
   0,
   0,
   0,
   0,
   0,
   0,
   0,
   0,
   0,
   0,
   0,
   0,
   0,
   0,
   0,
   0,
   0,
   0,
   0,
   0,
   0,
   0,
   0,
   0,
   0,
   0,
   0,
   0,
   0,
   0,
   0,
   0,
   0,
   0,
   0,
   0,
   0,
   0,
   0,
   0,
   0,
   0,
   0,
   0,
   0,
   0,
   0,
   0,
   0,
   0,
   0,
   0,
   0,
   0,
   0,
   0,
   0,
   0,
   0,
   0,
   0,
   0,
   0,
   0,
   0,
   0,
   0,
   0,
   0,
   0,
   0,
   0,
   0,
   0,
   0,
   0,
   0,
   0,
   0,
   0,
   0,
   0,
   0,
   0,
   0,
   0,
   0,
   0,
   0,
   0,
   0,
   0,
   0,
   0,
   0,
   0,
   0,
   0,
   0,
   0,
   0,
   0,
   0,
   0,
   0,
   0,
   0,
   0,
   0,
   0,
   0,
   0,
   0,
   0,
   0,
   0,
   0,
   0,
   0,
   0,
   0,
   0,
   0,
   0,
   0,
   0,
   0,
   0,
   0,
   0,
   0,
   0,
   0,
   0,
   0,
   0,
   0,
   0,
   0,
   0,
   0,
   0,
   0,
   0,
   0,
   0,
   0,
   0,
   0,
   0,
   0,
   0,
   0,
   0,
   0,
   0,
   0,
   0,
   0,
   0,
   0,
   0,
   0,
   0,
   0,
   0,
   0,
   0,
   0,
   0,
   0,
   0,
   0,
   0,
   0,
   0,
   0,
   0,
   0,
   0,
   0,
   0,
   0,
   0,
   0,
   0,
   0,
   0,
   0,
   0,
   0,
   0,
   0,
   0,
   0,
   0,
   0,
   0,
   0,
   0,
   0,
   0,
   0,
   0,
   0,
   0,
   0,
   0,
   0,
   0,
   0,
   0,
   0,
   0,
   0,
   0,
   0,
   0,
   0,
   0,
   0,
   0,
   0,
   0,
   0,
   0,
   0,
   0,
   0,
   0,
   0,
   0,
   0,
   0,
   0,
   0,
   0,
   0,
   0,
   0,
   0,
   0,
   0,
   0,
   0,
   0,
   0,
   0,
   0,
   0,
   0,
   0,
   0,
   0,
   0,
   0,
   0,
   0,
   0,
   0,
   0,
   0,
   0,
   0,
   0,
   0,
   0,
   0,
   0,
   0,
   0,
   0,
   0,
   0,
   0,
   0,
   0,
   0,
   0,
   0,
   0,
   0,
   0,
   0,
   0,
   0,
   0,
   0,
   0,
   0,
   0,
   0,
   0,
   0,
   0,
   0,
   0,
   0,
   0,
   0,
   0,
   0,
   0,
   0,
   0,
   0,
   0,
   0,
   0,
   0,
   0,
   0,
   0,
   0,
   0,
   0,
   0,
   0,
   0,
   0,
   0,
   0,
   0,
   0,
   0,
   0,
   0,
   0,
   0,
   0,
   0,
   0,
   0,
   0,
   0,
   0,
   0,
   0,
   0,
   0,
   0,
   0,
   0,
   0,
   0,
   0,
   0,
   0,
   0,
   0,
   0,
   0,
   0,
   0,
   0,
   0,
   0,
   0,
   0,
   0,
   0,
   0,
   0,
   0,
   0,
   0,
   0,
   0,
   0,
   0,
   0,
   0,
   0,
   0,
   0,
   0,
   0,
   0,
   0,
   0,
   0,
   0,
   0,
   0,
   0,
   0,
   0,
   0,
   0,
   0,
   0,
   0,
   0,
   0,
   0,
   0,
   0,
   0,
   0,
   0,
   0,
   0,
   0,
   0,
   0,
   0,
   0,
   0,
   0,
   0,
   0,
   0,
   0,
   0,
   0,
   0,
   0,
   0,
   0,
   0,
   0,
   0,
   0,
   0,
   0,
   0,
   0,
   0,
   0,
   0,
   0,
   0,
   0,
   0,
   0,
   0,
   0,
   0,
   0,
   0,
   0,
   0,
   0,
   0,
   0,
   0,
   0,
   0,
   0,
   0,
   0,
   0,
   0,
   0,
   0,
   0,
   0,
   0,
   0,
   0,
   0,
   0,
   0,
   0,
   0,
   0,
   0,
   0,
   0,
   0,
   0,
   0,
   0,
   0,
   0,
   0,
   0,
   0,
   0,
   0,
   0,
   0,
   0,
   0,
   0,
   0,
   0,
   0,
   0,
   0,
   0,
   0,
   0,
   0,
   0,
   0,
   0,
   0,
   0,
   0,
   0,
   0,
   0,
   0,
   0,
   0,
   0,
   0,
   0,
   0,
   0,
   0,
   0,
   0,
   0,
   0,
   0,
   0,
   0,
   0,
   0,
   0,
   0,
   0,
   0,
   0,
   0,
   0,
   0,
   0,
   0,
   0,
   0,
   0,
   0,
   0,
   0,
   0,
   0,
   0,
   0,
   0,
   0,
   0,
   0,
   0,
   0,
   0,
   0,
   0,
   0,
   0,
   0,
   0,
   0,
   0,
   0,
   0,
   0,
   0,
   0,
   0,
   0,
   0,
   0,
   0,
   0,
   0,
   0,
   0,
   0,
   0,
   0,
   0,
   0,
   0,
   0,
   0,
   0,
   0,
   0,
   0,
   0,
   0,
   0,
   0,
   0,
   0,
   0,
   0,
   0,
   0,
   0,
   0,
   0,
   0,
   0,
   0,
   0,
   0,
   0,
   0,
   0,
   0,
   0,
   0,
   0,
   0,
   0,
   0,
   0,
   0,
   0,
   0,
   0,
   0,
   0,
   0,
   0,
   0,
   0,
   0,
   0,
   0,
   0,
   0,
   0,
   0,
   0,
   0,
   0,
   0,
   0,
   0,
   0,
   0,
   0,
   0,
   0,
   0,
   0,
   0,
   0,
   0,
   0,
   0,
   0,
   0,
   0,
   0,
   0,
   0,
   0,
   0,
   0,
   0,
   0,
   0,
   0,
   0,
   0,
   0,
   0,
   0,
   0,
   0,
   0,
   0,
   0,
   0,
   0,
   0,
   0,
   0,
   0,
   0,
   0,
   0,
   0,
   0,
   0,
   0,
   0,
   0,
   0,
   0,
   0,
   0,
   0,
   0,
   0,
   0,
   0,
   0,
   0,
   0,
   0,
   0,
   0,
   0,
   0,
   0,
   0,
   0,
   0,
   0,
   0,
   0,
   0,
   0,
   0,
   0,
   0,
   0,
   0,
   0,
   0,
   0,
   0,
   0,
   0,
   0,
   0,
   0,
   0,
   0,
   0,
   0,
   0,
   0,
   0,
   0,
   0,
   0,
   0,
   0,
   0,
   0,
   0,
   0,
   0,
   0,
   0,
   0,
   0,
   0,
   0,
   0,
   0,
   0,
   0,
   0,
   0,
   0,
   0,
   0,
   0,
   0,
   0,
   0,
   0,
   0,
   0,
   0,
   0,
   0,
   0,
   0,
   0,
   0,
   0,
   0,
   0,
   0,
   0,
   0,
   0,
   0,
   0,
   0,
   0,
   0,
   0,
   0,
   0,
   0,
   0,
   0,
   0,
   0,
   0,
   0,
   0,
   0;
   { MI_Light01 }
  }

  DeclData {
   3;
   2;0;3;0;,
   1;0;5;0;,
   1;0;5;1;;
   3444;
   3198210765,
   3207957109,
   3206649924,
   1040097280,
   1064280064,
   1040097280,
   1064280064,
   3208146527,
   3196913500,
   3206737970,
   1032953856,
   1063231488,
   1032953856,
   1063231488,
   1051602250,
   3207701538,
   3206707024,
   1062559744,
   1064198144,
   1062559744,
   1064198144,
   3208354263,
   1048843005,
   3206623148,
   1032650752,
   1058422784,
   1032650752,
   1058422784,
   3199316159,
   1060484007,
   3206344207,
   1039622144,
   1057357824,
   1039622144,
   1057357824,
   1060753005,
   3195506653,
   3206864460,
   1063428096,
   1063124992,
   1063428096,
   1063124992,
   1060545244,
   1049973052,
   3206749475,
   1063387136,
   1058275328,
   1063387136,
   1058275328,
   1050496576,
   1060739532,
   3206401487,
   1062486016,
   1057234944,
   1062486016,
   1057234944,
   3162234482,
   1061915290,
   1058748109,
   1060651008,
   1049624576,
   1060651008,
   1049624576,
   3166581452,
   1065347310,
   1012030113,
   1059061760,
   1049821184,
   1059061760,
   1049821184,
   1062906896,
   1057299496,
   989487030,
   1059053568,
   1049575424,
   1059053568,
   1049575424,
   1063214959,
   1056454656,
   1031179855,
   1060634624,
   1049387008,
   1060634624,
   1049387008,
   1063296082,
   3203765831,
   3157459916,
   1059045376,
   1049337856,
   1059045376,
   1049337856,
   1062979599,
   3204547609,
   3182110445,
   1060610048,
   1049174016,
   1060610048,
   1049174016,
   1019110886,
   3212830949,
   3159510395,
   1059037184,
   1049092096,
   1059037184,
   1049092096,
   1063571845,
   1053368386,
   1046312212,
   1060651008,
   1049362432,
   1060651008,
   1049362432,
   1063650366,
   1047393892,
   1052683474,
   1060675584,
   1049362432,
   1060675584,
   1049362432,
   1062664531,
   3203093387,
   3197371778,
   1060651008,
   1049141248,
   1060651008,
   1049141248,
   1018628784,
   3212671755,
   3188553768,
   1060601856,
   1048969216,
   1060601856,
   1048969216,
   1062950978,
   1042569058,
   1056629417,
   1060691968,
   1049387008,
   1060691968,
   1049387008,
   986814280,
   1041975735,
   1065159157,
   1061724160,
   1049583616,
   1061724160,
   1049583616,
   1062566474,
   3196162347,
   3204128990,
   1060691968,
   1049141248,
   1060691968,
   1049141248,
   1063458966,
   1034644208,
   1055418989,
   1061732352,
   1049354240,
   1061732352,
   1049354240,
   1007335995,
   3188866651,
   1065180629,
   1062584320,
   1049518080,
   1062584320,
   1049518080,
   1063097414,
   3186304895,
   3204028613,
   1060741120,
   1049174016,
   1060741120,
   1049174016,
   1004528797,
   3204073710,
   3210695219,
   1060700160,
   1048961024,
   1060700160,
   1048961024,
   1063442985,
   3173772765,
   1055673102,
   1062576128,
   1049305088,
   1062576128,
   1049305088,
   1015953584,
   3210477929,
   3204633056,
   1060651008,
   1048961024,
   1060651008,
   1048961024,
   1018261545,
   3209372947,
   1058778891,
   1063731200,
   1049411584,
   1063731200,
   1049411584,
   3209823456,
   3204391340,
   3197081771,
   1060651008,
   1048788992,
   1060651008,
   1048788992,
   3210066187,
   3205209416,
   3180929254,
   1060601856,
   1048756224,
   1060601856,
   1048756224,
   3210390074,
   3204783915,
   3136946412,
   1059037184,
   1048846336,
   1059037184,
   1048846336,
   3211050298,
   1055073974,
   1032715004,
   1060618240,
   1048510464,
   1060618240,
   1048510464,
   3210779932,
   1056281439,
   1009981109,
   1059028992,
   1048608768,
   1059028992,
   1048608768,
   3211307280,
   1051958581,
   1046948428,
   1060642816,
   1048551424,
   1060642816,
   1048551424,
   3162234482,
   1061915290,
   1058748109,
   1060634624,
   1048035328,
   1060634624,
   1048035328,
   3166581452,
   1065347310,
   1012030113,
   1059028992,
   1048150016,
   1059028992,
   1048150016,
   3211233833,
   1044568346,
   1052997969,
   1060659200,
   1048551424,
   1060659200,
   1048551424,
   3209921992,
   3197460351,
   3203839250,
   1060691968,
   1048780800,
   1060691968,
   1048780800,
   3210457058,
   1039598053,
   1056931951,
   1060683776,
   1048502272,
   1060683776,
   1048502272,
   986814280,
   1041975735,
   1065159157,
   1061715968,
   1047937024,
   1061715968,
   1047937024,
   3210560822,
   3189689998,
   3203723589,
   1060741120,
   1048748032,
   1060741120,
   1048748032,
   984523245,
   3196850453,
   3212196843,
   1060765696,
   1048961024,
   1060765696,
   1048961024,
   3210911824,
   1026408558,
   1055728480,
   1061724160,
   1048395776,
   1061724160,
   1048395776,
   1007335995,
   3188866651,
   1065180629,
   1062576128,
   1047977984,
   1062576128,
   1047977984,
   3210210351,
   3184482651,
   3204911050,
   1061740544,
   1048707072,
   1061740544,
   1048707072,
   1062697737,
   3179146707,
   3205057966,
   1061748736,
   1049141248,
   1061748736,
   1049141248,
   3137383553,
   3188424645,
   3212680422,
   1061756928,
   1048920064,
   1061756928,
   1048920064,
   1062719064,
   1036227951,
   3204941179,
   1062559744,
   1049100288,
   1062559744,
   1049100288,
   3210353675,
   1030059580,
   3204793055,
   1062551552,
   1048698880,
   1062551552,
   1048698880,
   3154579674,
   1040719817,
   3212687390,
   1062551552,
   1048903680,
   1062551552,
   1048903680,
   1062932403,
   1042208384,
   3204235602,
   1063649280,
   1049051136,
   1063649280,
   1049051136,
   3210796274,
   3182043534,
   1055981617,
   1062567936,
   1048403968,
   1062567936,
   1048403968,
   1018261545,
   3209372947,
   1058778891,
   1063723008,
   1048100864,
   1063723008,
   1048100864,
   3210606215,
   1038854885,
   3203936981,
   1063649280,
   1048698880,
   1063649280,
   1048698880,
   3157682147,
   1049086895,
   3212234932,
   1063632896,
   1048879104,
   1063632896,
   1048879104,
   1063148443,
   3186160521,
   1056370979,
   1063690240,
   1049223168,
   1063690240,
   1049223168,
   3210442389,
   3189613544,
   1056672656,
   1063690240,
   1048485888,
   1063690240,
   1048485888,
   3210138753,
   1049091875,
   3203599795,
   1063690240,
   1048731648,
   1063690240,
   1048731648,
   3211064479,
   3195514715,
   1052814679,
   1063706624,
   1048518656,
   1063706624,
   1048518656,
   3211016562,
   3201031530,
   1046298453,
   1063723008,
   1048518656,
   1063723008,
   1048518656,
   3162912598,
   1057146757,
   3210479827,
   1063682048,
   1048870912,
   1063682048,
   1048870912,
   3210686283,
   3203993677,
   1030446419,
   1063739392,
   1048485888,
   1063739392,
   1048485888,
   1019123064,
   3212830941,
   3159510739,
   1064943616,
   1047977984,
   1064943616,
   1047977984,
   3210389838,
   3204784303,
   3136972533,
   1064943616,
   1048346624,
   1064943616,
   1048346624,
   3210476283,
   1057095370,
   3178946756,
   1063747584,
   1048707072,
   1063747584,
   1048707072,
   3210779510,
   1056282985,
   1009977903,
   1064943616,
   1048641536,
   1064943616,
   1048641536,
   3210198897,
   1055847872,
   3196669698,
   1063723008,
   1048731648,
   1063723008,
   1048731648,
   3166846370,
   1065241519,
   3186024605,
   1063755776,
   1048870912,
   1063755776,
   1048870912,
   3166564924,
   1065347323,
   1012026057,
   1064951808,
   1048829952,
   1064951808,
   1048829952,
   1062906657,
   1057299888,
   989457300,
   1064951808,
   1049018368,
   1064951808,
   1049018368,
   3166367245,
   1063207045,
   3204073592,
   1063723008,
   1048870912,
   1063723008,
   1048870912,
   1062568506,
   1057757556,
   3180304537,
   1063755776,
   1049042944,
   1063755776,
   1049042944,
   1063296047,
   3203765955,
   3157461351,
   1064951808,
   1049198592,
   1064951808,
   1049198592,
   1062288918,
   1057054035,
   3196956251,
   1063723008,
   1049018368,
   1063723008,
   1049018368,
   1062349198,
   1050389120,
   3203888955,
   1063690240,
   1049018368,
   1063690240,
   1049018368,
   1063818647,
   3192699872,
   1052497542,
   1063706624,
   1049198592,
   1063706624,
   1049198592,
   1063864458,
   3199626317,
   1045658583,
   1063723008,
   1049198592,
   1063723008,
   1049198592,
   1063576325,
   3202612681,
   1027941726,
   1063739392,
   1049214976,
   1063739392,
   1049214976,
   1019123064,
   3212830941,
   3159510739,
   1064960000,
   1049387008,
   1064960000,
   1049387008,
   3162273146,
   1061915336,
   1058748033,
   1060044800,
   1054973952,
   1060044800,
   1054973952,
   3166566873,
   1065347322,
   1012026002,
   1058144256,
   1054990336,
   1058144256,
   1054990336,
   1062906706,
   1057299808,
   989463289,
   1058144256,
   1054703616,
   1058144256,
   1054703616,
   1063214930,
   1056454610,
   1031189444,
   1060020224,
   1054687232,
   1060020224,
   1054687232,
   1063296058,
   3203765912,
   3157465624,
   1058144256,
   1054416896,
   1058144256,
   1054416896,
   1062979486,
   3204547848,
   3182108151,
   1060003840,
   1054433280,
   1060003840,
   1054433280,
   1019096278,
   3212830959,
   3159513798,
   1058152448,
   1054121984,
   1058152448,
   1054121984,
   1063571945,
   1053366729,
   1046316562,
   1060052992,
   1054662656,
   1060052992,
   1054662656,
   1063650117,
   1047391347,
   1052685467,
   1060077568,
   1054662656,
   1060077568,
   1054662656,
   1062664212,
   3203094378,
   3197372055,
   1060052992,
   1054392320,
   1060052992,
   1054392320,
   1018633332,
   3212671797,
   3188552477,
   1060003840,
   1054187520,
   1060003840,
   1054187520,
   1062950935,
   1042568650,
   1056629637,
   1060102144,
   1054687232,
   1060102144,
   1054687232,
   986854295,
   1041976534,
   1065159127,
   1061330944,
   1054982144,
   1061330944,
   1054982144,
   1062566482,
   3196161584,
   3204129359,
   1060110336,
   1054400512,
   1060110336,
   1054400512,
   1063459076,
   1034644036,
   1055418566,
   1061339136,
   1054703616,
   1061339136,
   1054703616,
   1007351814,
   3188867311,
   1065180603,
   1062387712,
   1054892032,
   1062387712,
   1054892032,
   1063098269,
   3186298659,
   3204025946,
   1060159488,
   1054441472,
   1060159488,
   1054441472,
   1004568275,
   3204072536,
   3210695546,
   1060118528,
   1054187520,
   1060118528,
   1054187520,
   1063442940,
   3173772538,
   1055673278,
   1062371328,
   1054646272,
   1062371328,
   1054646272,
   1015957295,
   3210478012,
   3204632911,
   1060061184,
   1054187520,
   1060061184,
   1054187520,
   1018274551,
   3209373562,
   1058778074,
   1063723008,
   1054736384,
   1063723008,
   1054736384,
   3209823148,
   3204391864,
   3197082637,
   1060061184,
   1053982720,
   1060061184,
   1053982720,
   3210066109,
   3205209625,
   3180924005,
   1060012032,
   1053941760,
   1060012032,
   1053941760,
   3210390096,
   3204783880,
   3136953824,
   1058152448,
   1053835264,
   1058152448,
   1053835264,
   3211050057,
   1055074021,
   1032738552,
   1060028416,
   1053687808,
   1060028416,
   1053687808,
   3210779802,
   1056281918,
   1009977258,
   1058160640,
   1053548544,
   1058160640,
   1053548544,
   3211307795,
   1051953951,
   1046954520,
   1060052992,
   1053712384,
   1060052992,
   1053712384,
   3162273146,
   1061915336,
   1058748033,
   1060052992,
   1053409280,
   1060052992,
   1053409280,
   3166566873,
   1065347322,
   1012026002,
   1058160640,
   1053261824,
   1058160640,
   1053261824,
   3211232564,
   1044575834,
   1053002117,
   1060085760,
   1053712384,
   1060085760,
   1053712384,
   3209922306,
   3197458232,
   3203839453,
   1060110336,
   1053974528,
   1060110336,
   1053974528,
   3210458227,
   1039601414,
   1056927729,
   1060102144,
   1053687808,
   1060102144,
   1053687808,
   986854295,
   1041976534,
   1065159127,
   1061322752,
   1053384704,
   1061322752,
   1053384704,
   984942331,
   3196849971,
   3212196911,
   1060192256,
   1054187520,
   1060192256,
   1054187520,
   3210560675,
   3189689654,
   3203724178,
   1060167680,
   1053933568,
   1060167680,
   1053933568,
   3210912053,
   1026405823,
   1055727634,
   1061339136,
   1053663232,
   1061339136,
   1053663232,
   1007351814,
   3188867311,
   1065180603,
   1062371328,
   1053417472,
   1062371328,
   1053417472,
   3210210215,
   3184483186,
   3204911255,
   1061355520,
   1053925376,
   1061355520,
   1053925376,
   1062697317,
   3179147021,
   3205058623,
   1061363712,
   1054441472,
   1061363712,
   1054441472,
   3137538837,
   3188424529,
   3212680425,
   1061371904,
   1054179328,
   1061371904,
   1054179328,
   1062719690,
   1036226588,
   3204940214,
   1062346752,
   1054400512,
   1062346752,
   1054400512,
   3210353863,
   1030057977,
   3204792758,
   1062346752,
   1053908992,
   1062346752,
   1053908992,
   3154553217,
   1040719741,
   3212687396,
   1062338560,
   1054154752,
   1062338560,
   1054154752,
   1062932663,
   1042208561,
   3204234674,
   1063632896,
   1054318592,
   1063632896,
   1054318592,
   3210796253,
   3182043674,
   1055981690,
   1062363136,
   1053663232,
   1062363136,
   1053663232,
   1018274551,
   3209373562,
   1058778074,
   1063706624,
   1053474816,
   1063706624,
   1053474816,
   3210607269,
   1038843101,
   3203933908,
   1063624704,
   1053908992,
   1063624704,
   1053908992,
   3157695088,
   1049086668,
   3212234961,
   1063608320,
   1054113792,
   1063608320,
   1054113792,
   1063149322,
   3186168509,
   1056367343,
   1063673856,
   1054515200,
   1063673856,
   1054515200,
   3210442789,
   3189613627,
   1056671250,
   1063673856,
   1053704192,
   1063673856,
   1053704192,
   3210138992,
   1049092039,
   3203598860,
   1063673856,
   1053941760,
   1063673856,
   1053941760,
   3211064080,
   3195516341,
   1052816054,
   1063690240,
   1053720576,
   1063690240,
   1053720576,
   3211017059,
   3201030847,
   1046292772,
   1063706624,
   1053720576,
   1063706624,
   1053720576,
   3162876459,
   1057146695,
   3210479885,
   1063665664,
   1054113792,
   1063665664,
   1054113792,
   3210686014,
   3203994761,
   1030438477,
   1063731200,
   1053704192,
   1063731200,
   1053704192,
   1019111701,
   3212830949,
   3159508569,
   1065164800,
   1053401088,
   1065164800,
   1053401088,
   3210390186,
   3204783732,
   3136942500,
   1065172992,
   1053622272,
   1065172992,
   1053622272,
   3210476216,
   1057095453,
   3178950754,
   1063747584,
   1053908992,
   1063747584,
   1053908992,
   3210779661,
   1056282432,
   1009977254,
   1065172992,
   1053843456,
   1065172992,
   1053843456,
   3210199853,
   1055846826,
   3196665511,
   1063706624,
   1053941760,
   1063706624,
   1053941760,
   3166847369,
   1065241560,
   3186021668,
   1063755776,
   1054105600,
   1063755776,
   1054105600,
   3166572103,
   1065347318,
   1012026087,
   1065172992,
   1054064640,
   1065172992,
   1054064640,
   1062906819,
   1057299621,
   989468075,
   1065172992,
   1054285824,
   1065172992,
   1054285824,
   3166392975,
   1063207210,
   3204072930,
   1063706624,
   1054105600,
   1063706624,
   1054105600,
   1062569009,
   1057756866,
   3180299801,
   1063747584,
   1054302208,
   1063747584,
   1054302208,
   1063296095,
   3203765780,
   3157460750,
   1065172992,
   1054507008,
   1065172992,
   1054507008,
   1062288241,
   1057054543,
   3196958393,
   1063714816,
   1054277632,
   1063714816,
   1054277632,
   1062350005,
   1050387761,
   3203887066,
   1063673856,
   1054277632,
   1063673856,
   1054277632,
   1063818406,
   3192706088,
   1052497042,
   1063698432,
   1054498816,
   1063698432,
   1054498816,
   1063864244,
   3199626432,
   1045661963,
   1063714816,
   1054490624,
   1063714816,
   1054490624,
   1063576450,
   3202611714,
   1027976026,
   1063739392,
   1054515200,
   1063739392,
   1054515200,
   1019111701,
   3212830949,
   3159508569,
   1065181184,
   1054728192,
   1065181184,
   1054728192,
   3162236740,
   1061915416,
   1058747943,
   1060274176,
   1052205056,
   1060274176,
   1052205056,
   3166592417,
   1065347302,
   1012030350,
   1058570240,
   1052221440,
   1058570240,
   1052221440,
   1062906851,
   1057299569,
   989459011,
   1058570240,
   1051959296,
   1058570240,
   1051959296,
   1063214756,
   1056454846,
   1031214682,
   1060257792,
   1051951104,
   1060257792,
   1051951104,
   1063295917,
   3203766429,
   3157467126,
   1058570240,
   1051697152,
   1058570240,
   1051697152,
   1062979532,
   3204547769,
   3182108204,
   1060241408,
   1051713536,
   1060241408,
   1051713536,
   1019082495,
   3212830969,
   3159514385,
   1058570240,
   1051443200,
   1058570240,
   1051443200,
   1063572241,
   1053364671,
   1046319144,
   1060282368,
   1051926528,
   1060282368,
   1051926528,
   1063649636,
   1047396454,
   1052686195,
   1060306944,
   1051926528,
   1060306944,
   1051926528,
   1062664239,
   3203094166,
   3197372234,
   1060290560,
   1051688960,
   1060290560,
   1051688960,
   1018616176,
   3212671839,
   3188551603,
   1060241408,
   1051492352,
   1060241408,
   1051492352,
   1062951441,
   1042574341,
   1056626935,
   1060331520,
   1051951104,
   1060331520,
   1051951104,
   987432772,
   1041976067,
   1065159143,
   1061437440,
   1052278784,
   1061437440,
   1052278784,
   1062566378,
   3196162096,
   3204129449,
   1060331520,
   1051688960,
   1060331520,
   1051688960,
   1015919772,
   3210477861,
   3204633205,
   1060290560,
   1051500544,
   1060290560,
   1051500544,
   1063458991,
   1034643652,
   1055418916,
   1061453824,
   1052033024,
   1061453824,
   1052033024,
   1007396248,
   3188867030,
   1065180608,
   1062420480,
   1052262400,
   1062420480,
   1052262400,
   1004367035,
   3204072915,
   3210695452,
   1060339712,
   1051500544,
   1060339712,
   1051500544,
   3209823951,
   3204390130,
   3197081020,
   1060290560,
   1051312128,
   1060290560,
   1051312128,
   3210066501,
   3205209031,
   3180923631,
   1060249600,
   1051271168,
   1060249600,
   1051271168,
   3210390332,
   3204783491,
   3136959183,
   1058578432,
   1051181056,
   1058578432,
   1051181056,
   3211050391,
   1055073307,
   1032722515,
   1060265984,
   1051041792,
   1060265984,
   1051041792,
   3210780083,
   1056280888,
   1009980092,
   1058578432,
   1050918912,
   1058578432,
   1050918912,
   3211307651,
   1051956664,
   1046948398,
   1060290560,
   1051066368,
   1060290560,
   1051066368,
   3162236740,
   1061915416,
   1058747943,
   1060290560,
   1050787840,
   1060290560,
   1050787840,
   3166592417,
   1065347302,
   1012030350,
   1058578432,
   1050664960,
   1058578432,
   1050664960,
   3211233194,
   1044571458,
   1053000221,
   1060315136,
   1051066368,
   1060315136,
   1051066368,
   3209923114,
   3197458440,
   3203836559,
   1060339712,
   1051312128,
   1060339712,
   1051312128,
   3210457528,
   1039597386,
   1056930377,
   1060339712,
   1051041792,
   1060339712,
   1051041792,
   987432772,
   1041976067,
   1065159143,
   1061453824,
   1050820608,
   1061453824,
   1050820608,
   3210561162,
   3189692794,
   3203721907,
   1060388864,
   1051271168,
   1060388864,
   1051271168,
   984104794,
   3196851265,
   3212196729,
   1060413440,
   1051500544,
   1060413440,
   1051500544,
   3210911340,
   1026409080,
   1055730323,
   1061462016,
   1051074560,
   1061462016,
   1051074560,
   1007396248,
   3188867030,
   1065180608,
   1062404096,
   1050861568,
   1062404096,
   1050861568,
   3210210364,
   3184482021,
   3204911046,
   1061478400,
   1051312128,
   1061478400,
   1051312128,
   3210796074,
   3182043787,
   1055982354,
   1062395904,
   1051099136,
   1062395904,
   1051099136,
   1018293328,
   3209373440,
   1058778212,
   1063673856,
   1050861568,
   1063673856,
   1050861568,
   3210354140,
   1030057764,
   3204792306,
   1062379520,
   1051328512,
   1062379520,
   1051328512,
   3137512165,
   3188424179,
   3212680437,
   1061486592,
   1051549696,
   1061486592,
   1051549696,
   1063097795,
   3186303615,
   3204027337,
   1060388864,
   1051729920,
   1060388864,
   1051729920,
   1062697418,
   3179146855,
   3205058465,
   1061478400,
   1051787264,
   1061478400,
   1051787264,
   1062719288,
   1036227136,
   3204940841,
   1062387712,
   1051787264,
   1062387712,
   1051787264,
   1063443253,
   3173772035,
   1055672079,
   1062404096,
   1052016640,
   1062404096,
   1052016640,
   3154606584,
   1040719483,
   3212687397,
   1062371328,
   1051557888,
   1062371328,
   1051557888,
   1018293328,
   3209373440,
   1058778212,
   1063714816,
   1052073984,
   1063714816,
   1052073984,
   3210606691,
   1038849031,
   3203935623,
   1063608320,
   1051271168,
   1063608320,
   1051271168,
   1062931971,
   1042209569,
   3204236912,
   1063624704,
   1051664384,
   1063624704,
   1051664384,
   3157778925,
   1049087383,
   3212234847,
   1063600128,
   1051475968,
   1063600128,
   1051475968,
   3210442734,
   3189612126,
   1056671677,
   1063649280,
   1051074560,
   1063649280,
   1051074560,
   1063149558,
   3186164887,
   1056366705,
   1063673856,
   1051860992,
   1063673856,
   1051860992,
   1062348608,
   1050389772,
   3203890546,
   1063657472,
   1051631616,
   1063657472,
   1051631616,
   1063818261,
   3192700895,
   1052499178,
   1063690240,
   1051836416,
   1063690240,
   1051836416,
   1063864787,
   3199623276,
   1045663265,
   1063706624,
   1051836416,
   1063706624,
   1051836416,
   3162927820,
   1057146685,
   3210479860,
   1063649280,
   1051467776,
   1063649280,
   1051467776,
   1063576836,
   3202610416,
   1027957558,
   1063731200,
   1051852800,
   1063731200,
   1051852800,
   1019100863,
   3212830956,
   3159511705,
   1065123840,
   1051877376,
   1065123840,
   1051877376,
   1063295968,
   3203766241,
   3157464206,
   1065115648,
   1051664384,
   1065115648,
   1051664384,
   1062568779,
   1057757196,
   3180301072,
   1063731200,
   1051648000,
   1063731200,
   1051648000,
   1062906534,
   1057300091,
   989458609,
   1065107456,
   1051451392,
   1065107456,
   1051451392,
   1062288123,
   1057054930,
   3196957675,
   1063698432,
   1051623424,
   1063698432,
   1051623424,
   3166838973,
   1065241580,
   3186020677,
   1063731200,
   1051459584,
   1063731200,
   1051459584,
   3166578512,
   1065347313,
   1012026204,
   1065099264,
   1051238400,
   1065099264,
   1051238400,
   3210779754,
   1056282091,
   1009978361,
   1065082880,
   1051025408,
   1065082880,
   1051025408,
   3166397561,
   1063207110,
   3204073271,
   1063690240,
   1051467776,
   1063690240,
   1051467776,
   3210475749,
   1057096200,
   3178956516,
   1063723008,
   1051271168,
   1063723008,
   1051271168,
   3210389937,
   3204784140,
   3136953167,
   1065074688,
   1050812416,
   1065074688,
   1050812416,
   3210199233,
   1055848036,
   3196667300,
   1063690240,
   1051303936,
   1063690240,
   1051303936,
   3210138655,
   1049092701,
   3203599682,
   1063649280,
   1051303936,
   1063649280,
   1051303936,
   3211064833,
   3195512944,
   1052813562,
   1063665664,
   1051099136,
   1063665664,
   1051099136,
   3211016233,
   3201032293,
   1046301076,
   1063682048,
   1051090944,
   1063682048,
   1051090944,
   3210686629,
   3203992226,
   1030460655,
   1063698432,
   1051074560,
   1063698432,
   1051074560,
   1019100863,
   3212830956,
   3159511705,
   1065066496,
   1050607616,
   1065066496,
   1050607616,
   3162201083,
   1061915424,
   1058747947,
   1060667392,
   1045872640,
   1060667392,
   1045872640,
   3166613509,
   1065347288,
   1012026663,
   1059069952,
   1046233088,
   1059069952,
   1046233088,
   1062906972,
   1057299371,
   989443766,
   1059061760,
   1045749760,
   1059061760,
   1045749760,
   1063214982,
   1056454282,
   1031198726,
   1060651008,
   1045405696,
   1060651008,
   1045405696,
   1063296119,
   3203765691,
   3157465614,
   1059053568,
   1045266432,
   1059053568,
   1045266432,
   1062979580,
   3204547651,
   3182109991,
   1060626432,
   1044971520,
   1060626432,
   1044971520,
   1019087289,
   3212830966,
   3159512114,
   1059053568,
   1044774912,
   1059053568,
   1044774912,
   1063572377,
   1053364940,
   1046315932,
   1060667392,
   1045356544,
   1060667392,
   1045356544,
   1063650625,
   1047390021,
   1052683431,
   1060691968,
   1045356544,
   1060691968,
   1045356544,
   1062663878,
   3203094760,
   3197373387,
   1060667392,
   1044905984,
   1060667392,
   1044905984,
   1018632363,
   3212671788,
   3188552737,
   1060618240,
   1044553728,
   1060618240,
   1044553728,
   1062951616,
   1042568614,
   1056627258,
   1060708352,
   1045397504,
   1060708352,
   1045397504,
   987013808,
   1041976076,
   1065159144,
   1061748736,
   1045815296,
   1061748736,
   1045815296,
   1062566029,
   3196161913,
   3204130727,
   1060716544,
   1044905984,
   1060716544,
   1044905984,
   1063459323,
   1034642502,
   1055417672,
   1061756928,
   1045348352,
   1061756928,
   1045348352,
   1007382308,
   3188866685,
   1065180622,
   1062608896,
   1045676032,
   1062608896,
   1045676032,
   1063097481,
   3186302754,
   3204028501,
   1060757504,
   1044971520,
   1060757504,
   1044971520,
   1004408621,
   3204073890,
   3210695176,
   1060716544,
   1044545536,
   1060716544,
   1044545536,
   1063443447,
   3173769026,
   1055671369,
   1062600704,
   1045250048,
   1062600704,
   1045250048,
   1015931841,
   3210477544,
   3204633726,
   1060667392,
   1044553728,
   1060667392,
   1044553728,
   1018266972,
   3209373213,
   1058778538,
   1063755776,
   1045422080,
   1063755776,
   1045422080,
   3209823249,
   3204391745,
   3197082259,
   1060667392,
   1044201472,
   1060667392,
   1044201472,
   3210066182,
   3205209427,
   3180929074,
   1060626432,
   1044144128,
   1060626432,
   1044144128,
   3210390633,
   3204782998,
   3136925775,
   1059045376,
   1044283392,
   1059045376,
   1044283392,
   3211050403,
   1055073182,
   1032724493,
   1060634624,
   1043701760,
   1060634624,
   1043701760,
   3210780405,
   1056279710,
   1009979888,
   1059045376,
   1043800064,
   1059045376,
   1043800064,
   3211307488,
   1051956937,
   1046950175,
   1060659200,
   1043742720,
   1060659200,
   1043742720,
   3162201083,
   1061915424,
   1058747947,
   1060651008,
   1043226624,
   1060651008,
   1043226624,
   3166613509,
   1065347288,
   1012026663,
   1059037184,
   1043308544,
   1059037184,
   1043308544,
   3211233650,
   1044568256,
   1052998857,
   1060683776,
   1043742720,
   1060683776,
   1043742720,
   3209922313,
   3197459738,
   3203838518,
   1060708352,
   1044193280,
   1060708352,
   1044193280,
   3210457534,
   1039595060,
   1056930494,
   1060700160,
   1043701760,
   1060700160,
   1043701760,
   987013808,
   1041976076,
   1065159144,
   1061740544,
   1043136512,
   1061740544,
   1043136512,
   3210560926,
   3189690320,
   3203723164,
   1060757504,
   1044119552,
   1060757504,
   1044119552,
   984135571,
   3196851179,
   3212196741,
   1060782080,
   1044545536,
   1060782080,
   1044545536,
   3210911936,
   1026406634,
   1055728071,
   1061748736,
   1043603456,
   1061748736,
   1043603456,
   1007382308,
   3188866685,
   1065180622,
   1062600704,
   1043185664,
   1062600704,
   1043185664,
   3210210421,
   3184482300,
   3204910947,
   1061765120,
   1044037632,
   1061765120,
   1044037632,
   1062696838,
   3179148564,
   3205059364,
   1061773312,
   1044905984,
   1061773312,
   1044905984,
   3137755068,
   3188424592,
   3212680421,
   1061773312,
   1044471808,
   1061773312,
   1044471808,
   1062718664,
   1036228980,
   3204941793,
   1062584320,
   1044840448,
   1062584320,
   1044840448,
   3210353853,
   1030058108,
   3204792774,
   1062576128,
   1044021248,
   1062576128,
   1044021248,
   3154645132,
   1040719912,
   3212687378,
   1062576128,
   1044430848,
   1062576128,
   1044430848,
   1062932303,
   1042208015,
   3204236008,
   1063673856,
   1044701184,
   1063673856,
   1044701184,
   3210796449,
   3182043379,
   1055980973,
   1062592512,
   1043611648,
   1062592512,
   1043611648,
   1018266972,
   3209373213,
   1058778538,
   1063739392,
   1043275776,
   1063739392,
   1043275776,
   3210607123,
   1038844711,
   3203934335,
   1063673856,
   1044004864,
   1063673856,
   1044004864,
   3157730563,
   1049087182,
   3212234883,
   1063657472,
   1044348928,
   1063657472,
   1044348928,
   3210442130,
   3189612706,
   1056673691,
   1063706624,
   1043652608,
   1063706624,
   1043652608,
   3210139131,
   1049092098,
   3203598338,
   1063706624,
   1044054016,
   1063706624,
   1044054016,
   3211064967,
   3195514145,
   1052812539,
   1063723008,
   1043693568,
   1063723008,
   1043693568,
   3211015577,
   3201036493,
   1046296409,
   1063739392,
   1043693568,
   1063739392,
   1043693568,
   3162908735,
   1057147094,
   3210479628,
   1063706624,
   1044348928,
   1063706624,
   1044348928,
   3210687117,
   3203990873,
   1030433917,
   1063763968,
   1043652608,
   1063763968,
   1043652608,
   1019093491,
   3212830962,
   3159511542,
   1064976384,
   1043120128,
   1064976384,
   1043120128,
   3210390010,
   3204784021,
   3136944874,
   1064976384,
   1043496960,
   1064976384,
   1043496960,
   3210199625,
   1055847005,
   3196666629,
   1063739392,
   1044062208,
   1063739392,
   1044062208,
   3210476051,
   1057095661,
   3178960224,
   1063772160,
   1044004864,
   1063772160,
   1044004864,
   3210779695,
   1056282308,
   1009979739,
   1064976384,
   1043873792,
   1064976384,
   1043873792,
   3166385353,
   1063207040,
   3204073559,
   1063747584,
   1044348928,
   1063747584,
   1044348928,
   3166837720,
   1065241527,
   3186024500,
   1063780352,
   1044340736,
   1063780352,
   1044340736,
   3166572978,
   1065347317,
   1012026019,
   1064976384,
   1044242432,
   1064976384,
   1044242432,
   1062906676,
   1057299856,
   989454814,
   1064984576,
   1044619264,
   1064984576,
   1044619264,
   1062348995,
   1050389304,
   3203889526,
   1063714816,
   1044635648,
   1063714816,
   1044635648,
   1062288519,
   1057054404,
   3196957259,
   1063747584,
   1044635648,
   1063747584,
   1044635648,
   1062568891,
   1057756989,
   3180303325,
   1063780352,
   1044676608,
   1063780352,
   1044676608,
   1063295855,
   3203766659,
   3157463938,
   1064984576,
   1044987904,
   1064984576,
   1044987904,
   1063820013,
   3192690279,
   1052493389,
   1063731200,
   1045004288,
   1063731200,
   1045004288,
   1063864127,
   3199627106,
   1045661697,
   1063747584,
   1045004288,
   1063747584,
   1045004288,
   1063576410,
   3202611823,
   1027980044,
   1063772160,
   1045037056,
   1063772160,
   1045037056,
   1019093491,
   3212830962,
   3159511542,
   1064984576,
   1045364736,
   1064984576,
   1045364736,
   1063148616,
   3186142558,
   1056371416,
   1063714816,
   1045037056,
   1063714816,
   1045037056,
   3209184946,
   3168167873,
   1059016724,
   1059618816,
   1009713152,
   1059618816,
   1009713152,
   3212832094,
   3166608794,
   1001036648,
   1061519360,
   1003528192,
   1061519360,
   1003528192,
   3204782723,
   1062905339,
   1012977204,
   1061527552,
   1014325248,
   1061527552,
   1014325248,
   3203954495,
   1063194605,
   1033154608,
   1059651584,
   1017020416,
   1059651584,
   1017020416,
   1057074496,
   1063001193,
   3179526236,
   1059676160,
   1021304832,
   1059676160,
   1021304832,
   1056285104,
   1063295731,
   1007385768,
   1061527552,
   1019289600,
   1061527552,
   1019289600,
   1065348440,
   1019133716,
   3148527013,
   1061535744,
   1023655936,
   1061535744,
   1023655936,
   3200899549,
   1063505346,
   1047208520,
   1059627008,
   1017454592,
   1059627008,
   1017454592,
   1065204360,
   1019884239,
   3188047037,
   1059684352,
   1024393216,
   1059684352,
   1024393216,
   1055679731,
   1062749183,
   3196746881,
   1059627008,
   1021935616,
   1059627008,
   1021935616,
   3195045356,
   1063535243,
   1053174567,
   1059602432,
   1017462784,
   1059602432,
   1017462784,
   3189003315,
   1062897799,
   1056969752,
   1059577856,
   1017028608,
   1059577856,
   1017028608,
   3187640691,
   3162516529,
   1065220036,
   1057906688,
   1008295936,
   1057906688,
   1008295936,
   1048797735,
   1062713636,
   3203554076,
   1059577856,
   1021935616,
   1059577856,
   1021935616,
   3180893533,
   1063255685,
   1056239733,
   1057906688,
   1016725504,
   1057906688,
   1016725504,
   1043182567,
   3155072600,
   1065109428,
   1046077440,
   1014439936,
   1046077440,
   1014439936,
   1037657548,
   1063181808,
   3203792291,
   1059520512,
   1021280256,
   1059520512,
   1021280256,
   1028664245,
   1063371899,
   1055913714,
   1046110208,
   1019805696,
   1046110208,
   1019805696,
   1027503313,
   1062932991,
   3204705064,
   1057898496,
   1021722624,
   1057898496,
   1021722624,
   1040500146,
   1062913299,
   1057013105,
   1040695296,
   1020551168,
   1040695296,
   1020551168,
   1062098235,
   1010187641,
   1058505215,
   1040490496,
   1015840768,
   1040490496,
   1015840768,
   3185773707,
   1062789911,
   3204776309,
   1046151168,
   1024098304,
   1046151168,
   1024098304,
   3190276111,
   1063133912,
   3203417576,
   1040941056,
   1024098304,
   1040941056,
   1024098304,
   1045036529,
   1063702891,
   1053102463,
   1040596992,
   1020960768,
   1040596992,
   1020960768,
   1038825760,
   1014790250,
   3212723831,
   1057898496,
   1025056768,
   1057898496,
   1025056768,
   3189634140,
   1008063542,
   3212635355,
   1046175744,
   1026588672,
   1046175744,
   1026588672,
   1048416792,
   1016393701,
   3212311480,
   1059495936,
   1024466944,
   1059495936,
   1024466944,
   3180522110,
   3210115626,
   3205140175,
   1046167552,
   1029079040,
   1046167552,
   1029079040,
   1056799189,
   1018807967,
   3210631617,
   1059569664,
   1024434176,
   1059569664,
   1024434176,
   1034934537,
   3210138486,
   3205069982,
   1057906688,
   1027547136,
   1057906688,
   1027547136,
   1063055169,
   1020885814,
   3204523115,
   1059627008,
   1024417792,
   1059627008,
   1024417792,
   1056969080,
   3209736917,
   3197461545,
   1059627008,
   1026162688,
   1059627008,
   1026162688,
   1050091889,
   3209773295,
   3204270568,
   1059577856,
   1026195456,
   1059577856,
   1026195456,
   1041605780,
   3210355378,
   3204491493,
   1059528704,
   1026564096,
   1059528704,
   1026564096,
   3192237737,
   3211347034,
   1052398993,
   1059610624,
   1028415488,
   1059610624,
   1028415488,
   3184966668,
   3210690317,
   1056227849,
   1059586048,
   1028653056,
   1059586048,
   1028653056,
   3171503404,
   3210982694,
   1055479403,
   1057914880,
   1030045696,
   1057914880,
   1030045696,
   3209184946,
   3168167873,
   1059016724,
   1059643392,
   1030946816,
   1059643392,
   1030946816,
   3199495230,
   3211373400,
   1045661593,
   1059635200,
   1028399104,
   1059635200,
   1028399104,
   1057734484,
   3210042262,
   3182441715,
   1059676160,
   1026441216,
   1059676160,
   1026441216,
   1057299526,
   3210388712,
   3160460993,
   1061535744,
   1025966080,
   1061535744,
   1025966080,
   3203768264,
   3210779513,
   3154868505,
   1061543936,
   1028276224,
   1061543936,
   1028276224,
   3212832094,
   3166608794,
   1001036648,
   1061543936,
   1030594560,
   1061543936,
   1030594560,
   3202578795,
   3211066769,
   1028417911,
   1059659776,
   1028595712,
   1059659776,
   1028595712,
   3187640691,
   3162516529,
   1065220036,
   1057923072,
   1032183808,
   1057923072,
   1032183808,
   1043182567,
   3155072600,
   1065109428,
   1046118400,
   1032962048,
   1046118400,
   1032962048,
   1035755470,
   3210997000,
   1055149896,
   1046134784,
   1031577600,
   1046134784,
   1031577600,
   1062098235,
   1010187641,
   1058505215,
   1040334848,
   1032306688,
   1040334848,
   1032306688,
   3187483971,
   3210522917,
   3204162045,
   1040900096,
   1028390912,
   1040900096,
   1028390912,
   1043167054,
   3210492190,
   1056324227,
   1040605184,
   1030479872,
   1040605184,
   1030479872,
   1047844692,
   3211178570,
   1052320196,
   1040498688,
   1030250496,
   1040498688,
   1030250496,
   3197436753,
   1001691029,
   3212110322,
   1041039360,
   1026252800,
   1041039360,
   1026252800,
   3196461027,
   3209990690,
   3204173775,
   1040654336,
   1028005888,
   1040654336,
   1028005888,
   3197756022,
   1062495124,
   3203457902,
   1040695296,
   1024434176,
   1040695296,
   1024434176,
   3204526259,
   3122113471,
   3210543825,
   1040711680,
   1026220032,
   1040711680,
   1026220032,
   3203267272,
   3210113759,
   3197293166,
   1040433152,
   1027956736,
   1040433152,
   1027956736,
   3210631641,
   3160512210,
   3204293751,
   1040457728,
   1026187264,
   1040457728,
   1026187264,
   3204504527,
   1062371929,
   3196577518,
   1040474112,
   1024425984,
   1040474112,
   1024425984,
   1052093084,
   1063796860,
   1046958748,
   1040482304,
   1020952576,
   1040482304,
   1020952576,
   3212711208,
   3165657456,
   3187034112,
   1040220160,
   1026162688,
   1040220160,
   1026162688,
   3205231750,
   1062589299,
   3178303671,
   1040269312,
   1024098304,
   1040269312,
   1024098304,
   1055115309,
   1063558411,
   1032502263,
   1040367616,
   1020502016,
   1040367616,
   1020502016,
   1065348437,
   1019138175,
   3148518839,
   1014800384,
   1007673344,
   1014800384,
   1007673344,
   1056285130,
   1063295725,
   1007383286,
   1013981184,
   1016012800,
   1013981184,
   1016012800,
   3204783278,
   1062905001,
   1012975947,
   1013211136,
   1020682240,
   1013211136,
   1020682240,
   3212832091,
   3166613031,
   1001040407,
   1012498432,
   1024385024,
   1012498432,
   1024385024,
   3203768772,
   3210779375,
   3154865180,
   1011851264,
   1026727936,
   1011851264,
   1026727936,
   3204572174,
   3210453546,
   3181708845,
   1040220160,
   1028235264,
   1040220160,
   1028235264,
   1056493381,
   3210703209,
   1027098892,
   1040269312,
   1030430720,
   1040269312,
   1030430720,
   1057299855,
   3210388513,
   3160454148,
   1011277824,
   1029079040,
   1011277824,
   1029079040,
   1065348437,
   1019138175,
   3148518839,
   1010737152,
   1031438336,
   1010737152,
   1031438336,
   1053502708,
   3211079527,
   1045395143,
   1040384000,
   1030225920,
   1040384000,
   1030225920,
   3209184854,
   3168144563,
   1059016871,
   1059586048,
   1034723328,
   1059586048,
   1034723328,
   3212832090,
   3166614314,
   1001036320,
   1061486592,
   1034166272,
   1061486592,
   1034166272,
   3204782944,
   1062905205,
   1012972816,
   1061486592,
   1035321344,
   1061486592,
   1035321344,
   3203953907,
   1063194826,
   1033149084,
   1059618816,
   1035886592,
   1059618816,
   1035886592,
   1057074868,
   1063001030,
   3179520183,
   1059643392,
   1036951552,
   1059643392,
   1036951552,
   1056284607,
   1063295868,
   1007379496,
   1061494784,
   1036468224,
   1061494784,
   1036468224,
   1065348440,
   1019133203,
   3148529828,
   1061494784,
   1037623296,
   1061494784,
   1037623296,
   3200898806,
   1063505307,
   1047211671,
   1059594240,
   1035993088,
   1059594240,
   1035993088,
   1065204317,
   1019900751,
   3188047956,
   1059651584,
   1037975552,
   1059651584,
   1037975552,
   1055679521,
   1062749396,
   3196745910,
   1059594240,
   1037107200,
   1059594240,
   1037107200,
   3195046889,
   1063534495,
   1053177546,
   1059561472,
   1035993088,
   1059561472,
   1035993088,
   3189007834,
   1062898488,
   1056968249,
   1059545088,
   1035886592,
   1059545088,
   1035886592,
   3187640819,
   3162521248,
   1065220031,
   1057873920,
   1034534912,
   1057873920,
   1034534912,
   1048797413,
   1062713548,
   3203554567,
   1059545088,
   1037115392,
   1059545088,
   1037115392,
   3180893715,
   1063255397,
   1056240779,
   1057873920,
   1035796480,
   1057873920,
   1035796480,
   1043182668,
   3155082402,
   1065109423,
   1045921792,
   1035304960,
   1045921792,
   1035304960,
   1037653708,
   1063182109,
   3203791411,
   1059487744,
   1036951552,
   1059487744,
   1036951552,
   1056800141,
   1018810375,
   3210631343,
   1059536896,
   1037991936,
   1059536896,
   1037991936,
   1028665173,
   1063371703,
   1055914439,
   1045954560,
   1036574720,
   1045954560,
   1036574720,
   1063055441,
   1020875302,
   3204522666,
   1059594240,
   1037983744,
   1059594240,
   1037983744,
   1027504579,
   1062932818,
   3204705345,
   1057865728,
   1037049856,
   1057865728,
   1037049856,
   1040497347,
   1062913314,
   1057013259,
   1040539648,
   1036763136,
   1040539648,
   1036763136,
   1062098196,
   1010195222,
   1058505265,
   1040326656,
   1035591680,
   1040326656,
   1035591680,
   3185773592,
   1062790186,
   3204775862,
   1045995520,
   1037819904,
   1045995520,
   1037819904,
   3190275148,
   1063134236,
   3203416547,
   1040785408,
   1037828096,
   1040785408,
   1037828096,
   1045033954,
   1063703283,
   1053101288,
   1040433152,
   1036869632,
   1040433152,
   1036869632,
   1038825429,
   1014838545,
   3212723825,
   1057865728,
   1038295040,
   1057865728,
   1038295040,
   3189634063,
   1007986032,
   3212635369,
   1046020096,
   1039073280,
   1046020096,
   1039073280,
   1048417039,
   1016400973,
   3212311460,
   1059463168,
   1038008320,
   1059463168,
   1038008320,
   3180519721,
   3210116630,
   3205138660,
   1046011904,
   1040252928,
   1046011904,
   1040252928,
   1034934579,
   3210138106,
   3205070575,
   1057873920,
   1039540224,
   1057873920,
   1039540224,
   3197437340,
   1001775811,
   3212110229,
   1040875520,
   1038901248,
   1040875520,
   1038901248,
   3197754639,
   1062495660,
   3203456893,
   1040539648,
   1037991936,
   1040539648,
   1037991936,
   3187486501,
   3210522922,
   3204161869,
   1040744448,
   1039974400,
   1040744448,
   1039974400,
   3204504384,
   1062371846,
   3196578576,
   1040318464,
   1037991936,
   1040318464,
   1037991936,
   1035755900,
   3210996889,
   1055150318,
   1045979136,
   1040875520,
   1045979136,
   1040875520,
   1052094412,
   1063796829,
   1046955076,
   1040318464,
   1036861440,
   1040318464,
   1036861440,
   1055115217,
   1063558546,
   1032490497,
   1040211968,
   1036754944,
   1040211968,
   1036754944,
   1065348438,
   1019135552,
   3148524227,
   1012219904,
   1034469376,
   1012219904,
   1034469376,
   1056285198,
   1063295706,
   1007386714,
   1011400704,
   1035632640,
   1011400704,
   1035632640,
   3204783492,
   1062904870,
   1012978165,
   1010630656,
   1036804096,
   1010630656,
   1036804096,
   3205231712,
   1062589331,
   3178302060,
   1040039936,
   1037828096,
   1040039936,
   1037828096,
   3212711203,
   3165666447,
   3187034066,
   1039941632,
   1038860288,
   1039941632,
   1038860288,
   3212832079,
   3166630069,
   1001039448,
   1009917952,
   1037975552,
   1009917952,
   1037975552,
   3203768657,
   3210779406,
   3154867345,
   1009278976,
   1039147008,
   1009278976,
   1039147008,
   3210631367,
   3160509570,
   3204294713,
   1040302080,
   1038868480,
   1040302080,
   1038868480,
   3204572142,
   3210453594,
   3181706379,
   1039941632,
   1039892480,
   1039941632,
   1039892480,
   3204526303,
   3122884200,
   3210543799,
   1040547840,
   1038884864,
   1040547840,
   1038884864,
   3203266721,
   3210114085,
   3197292152,
   1040277504,
   1039753216,
   1040277504,
   1039753216,
   3196460198,
   3209991197,
   3204172505,
   1040498688,
   1039777792,
   1040498688,
   1039777792,
   1047839494,
   3211178027,
   1052324617,
   1040343040,
   1040539648,
   1040343040,
   1040539648,
   1053499817,
   3211079859,
   1045400591,
   1040228352,
   1040539648,
   1040228352,
   1040539648,
   1043161658,
   3210492296,
   1056324799,
   1040441344,
   1040605184,
   1040441344,
   1040605184,
   1062098196,
   1010195222,
   1058505265,
   1040171008,
   1041186816,
   1040171008,
   1041186816,
   1056491826,
   3210703618,
   1027106366,
   1040039936,
   1040588800,
   1040039936,
   1040588800,
   1057299634,
   3210388647,
   3160460517,
   1008697344,
   1040252928,
   1008697344,
   1040252928,
   1065348438,
   1019135552,
   3148524227,
   1008164864,
   1040842752,
   1008164864,
   1040842752,
   1043182668,
   3155082402,
   1065109423,
   1045962752,
   1041514496,
   1045962752,
   1041514496,
   3171504431,
   3210982303,
   1055480921,
   1057882112,
   1040490496,
   1057882112,
   1040490496,
   3187640819,
   3162521248,
   1065220031,
   1057890304,
   1041121280,
   1057890304,
   1041121280,
   3209184854,
   3168144563,
   1059016871,
   1059610624,
   1040711680,
   1059610624,
   1040711680,
   1041605864,
   3210355502,
   3204491277,
   1059495936,
   1039056896,
   1059495936,
   1039056896,
   3184967728,
   3210690041,
   1056228795,
   1059553280,
   1040097280,
   1059553280,
   1040097280,
   1050091157,
   3209773476,
   3204270410,
   1059545088,
   1038868480,
   1059545088,
   1038868480,
   3192233732,
   3211346697,
   1052401743,
   1059577856,
   1039982592,
   1059577856,
   1039982592,
   1056969143,
   3209736639,
   3197462885,
   1059594240,
   1038852096,
   1059594240,
   1038852096,
   3199494856,
   3211373236,
   1045665772,
   1059602432,
   1039974400,
   1059602432,
   1039974400,
   3202578391,
   3211066912,
   1028405514,
   1059627008,
   1040072704,
   1059627008,
   1040072704,
   3203768474,
   3210779456,
   3154868452,
   1061502976,
   1039925248,
   1061502976,
   1039925248,
   3212832090,
   3166614314,
   1001036320,
   1061502976,
   1040629760,
   1061502976,
   1040629760,
   1057734408,
   3210042294,
   3182443127,
   1059643392,
   1038991360,
   1059643392,
   1038991360,
   1057299273,
   3210388866,
   3160460567,
   1061502976,
   1038778368,
   1061502976,
   1038778368,
   3211660989,
   3200011720,
   971392004,
   1016299520,
   1063485440,
   1016299520,
   1063485440,
   3211930614,
   1051061748,
   1008260975,
   1014841344,
   1058185216,
   1014841344,
   1058185216,
   3202424451,
   1063642697,
   1013096068,
   1038524416,
   1055924224,
   1038524416,
   1055924224,
   3201009563,
   3211453501,
   3155892869,
   1039122432,
   1065197568,
   1039122432,
   1065197568,
   1053526091,
   1063969814,
   1008410323,
   1062600704,
   1055670272,
   1062600704,
   1055670272,
   1064177402,
   1052527762,
   3119038996,
   1064280064,
   1058004992,
   1064280064,
   1058004992,
   1054941109,
   3211126270,
   3160577394,
   1062690816,
   1065123840,
   1062690816,
   1065123840,
   1064447014,
   3198545116,
   3155745365,
   1064337408,
   1063362560,
   1064337408,
   1063362560,
   3203426260,
   3202239301,
   3208957697,
   1041317888,
   1052680192,
   1041317888,
   1052680192,
   3206127576,
   3203791860,
   3206790053,
   1032183808,
   1055031296,
   1032183808,
   1055031296,
   3208148150,
   3193426374,
   3207142964,
   1007493120,
   1052532736,
   1007493120,
   1052532736,
   3200018333,
   3208350608,
   3205666591,
   1034444800,
   1055391744,
   1034444800,
   1055391744,
   3206114808,
   3191667752,
   3209127987,
   1039417344,
   1051500544,
   1039417344,
   1051500544,
   3208537333,
   1042062131,
   3206977470,
   1008189440,
   1048887296,
   1008189440,
   1048887296,
   3192776076,
   3208084247,
   3207262509,
   1041948672,
   1052934144,
   1041948672,
   1052934144,
   3206410035,
   1041210730,
   3209052258,
   1039425536,
   1049690112,
   1039425536,
   1049690112,
   3199047034,
   3184516631,
   3211751110,
   1043054592,
   1051082752,
   1043054592,
   1051082752,
   3204661859,
   1053698831,
   3208781173,
   1041448960,
   1047732224,
   1041448960,
   1047732224,
   3206885131,
   1054627737,
   3206649880,
   1032790016,
   1043087360,
   1032790016,
   1043087360,
   3201158502,
   1060809272,
   3205351802,
   1034911744,
   1042407424,
   1034911744,
   1042407424,
   3199397001,
   1035310921,
   3211708530,
   1043070976,
   1049976832,
   1043070976,
   1049976832,
   3196394620,
   3196886944,
   3211590796,
   1044070400,
   1051820032,
   1044070400,
   1051820032,
   3188687682,
   3171833507,
   3212661045,
   1047085056,
   1050755072,
   1047085056,
   1050755072,
   3195021643,
   1060714446,
   3206952325,
   1042071552,
   1047232512,
   1042071552,
   1047232512,
   1052325654,
   1061108103,
   3205418442,
   1056718848,
   1042423808,
   1056718848,
   1042423808,
   3197251505,
   1049185162,
   3211496250,
   1044135936,
   1049010176,
   1044135936,
   1049010176,
   3188742075,
   1026778073,
   3212653089,
   1047093248,
   1050189824,
   1047093248,
   1050189824,
   3186223804,
   1057590989,
   3210078669,
   1045037056,
   1048756224,
   1045037056,
   1048756224,
   3181069555,
   1047721502,
   3212308072,
   1047633920,
   1049681920,
   1047633920,
   1049681920,
   1044805239,
   1060881830,
   3206989814,
   1054449664,
   1047232512,
   1054449664,
   1047232512,
   1056477952,
   1054478973,
   3208868515,
   1054760960,
   1047732224,
   1054760960,
   1047732224,
   1058942459,
   1055615424,
   3206760371,
   1057103872,
   1043120128,
   1057103872,
   1043120128,
   1060806327,
   1044363726,
   3207106219,
   1058111488,
   1048911872,
   1058111488,
   1048911872,
   1034197017,
   1057667116,
   3210095621,
   1052966912,
   1048756224,
   1052966912,
   1048756224,
   1058669767,
   1043115182,
   3209158772,
   1055580160,
   1049690112,
   1055580160,
   1049690112,
   1029677183,
   1047925605,
   3212319455,
   1051672576,
   1049681920,
   1051672576,
   1049681920,
   1049016494,
   1049613856,
   3211544226,
   1053417472,
   1049001984,
   1053417472,
   1049001984,
   1040420155,
   1028454633,
   3212676645,
   1051942912,
   1050189824,
   1051942912,
   1050189824,
   1051435599,
   1037450366,
   3211768382,
   1053949952,
   1049976832,
   1053949952,
   1049976832,
   1040610631,
   3169388577,
   3212684755,
   1051942912,
   1050746880,
   1051942912,
   1050746880,
   1051382137,
   3182412569,
   3211809926,
   1053958144,
   1051074560,
   1053958144,
   1051074560,
   1058627846,
   3189793795,
   3209232720,
   1055571968,
   1051484160,
   1055571968,
   1051484160,
   1060699966,
   3191170282,
   3207269103,
   1058086912,
   1052516352,
   1058086912,
   1052516352,
   1056333645,
   3201496668,
   3209040889,
   1054826496,
   1052655616,
   1054826496,
   1052655616,
   1058896101,
   3202842047,
   3206896190,
   1057169408,
   1054973952,
   1057169408,
   1054973952,
   1053465312,
   3208052094,
   3205733345,
   1056849920,
   1055334400,
   1056849920,
   1055334400,
   1049006387,
   3196478208,
   3211636546,
   1053458432,
   1051803648,
   1053458432,
   1051803648,
   1047048124,
   3207917212,
   3207299721,
   1054515200,
   1052909568,
   1054515200,
   1052909568,
   1030695554,
   3193827264,
   3212408755,
   1051680768,
   1051131904,
   1051680768,
   1051131904,
   1037493808,
   3204715460,
   3210323332,
   1053007872,
   1052057600,
   1053007872,
   1052057600,
   3182926238,
   3204791424,
   3210306363,
   1044971520,
   1052073984,
   1044971520,
   1052073984,
   3178175809,
   3194009985,
   3212398541,
   1047617536,
   1051140096,
   1047617536,
   1051140096;
  }
 }
}