xof 0303txt 0032
template ColorRGBA {
 <35ff44e0-6c7c-11cf-8f52-0040333594a3>
 FLOAT red;
 FLOAT green;
 FLOAT blue;
 FLOAT alpha;
}

template ColorRGB {
 <d3e16e81-7835-11cf-8f52-0040333594a3>
 FLOAT red;
 FLOAT green;
 FLOAT blue;
}

template Material {
 <3d82ab4d-62da-11cf-ab39-0020af71e433>
 ColorRGBA faceColor;
 FLOAT power;
 ColorRGB specularColor;
 ColorRGB emissiveColor;
 [...]
}

template TextureFilename {
 <a42790e1-7810-11cf-8f52-0040333594a3>
 STRING filename;
}

template Frame {
 <3d82ab46-62da-11cf-ab39-0020af71e433>
 [...]
}

template Matrix4x4 {
 <f6f23f45-7686-11cf-8f52-0040333594a3>
 array FLOAT matrix[16];
}

template FrameTransformMatrix {
 <f6f23f41-7686-11cf-8f52-0040333594a3>
 Matrix4x4 frameMatrix;
}

template Vector {
 <3d82ab5e-62da-11cf-ab39-0020af71e433>
 FLOAT x;
 FLOAT y;
 FLOAT z;
}

template MeshFace {
 <3d82ab5f-62da-11cf-ab39-0020af71e433>
 DWORD nFaceVertexIndices;
 array DWORD faceVertexIndices[nFaceVertexIndices];
}

template Mesh {
 <3d82ab44-62da-11cf-ab39-0020af71e433>
 DWORD nVertices;
 array Vector vertices[nVertices];
 DWORD nFaces;
 array MeshFace faces[nFaces];
 [...]
}

template MeshNormals {
 <f6f23f43-7686-11cf-8f52-0040333594a3>
 DWORD nNormals;
 array Vector normals[nNormals];
 DWORD nFaceNormals;
 array MeshFace faceNormals[nFaceNormals];
}

template MeshMaterialList {
 <f6f23f42-7686-11cf-8f52-0040333594a3>
 DWORD nMaterials;
 DWORD nFaceIndexes;
 array DWORD faceIndexes[nFaceIndexes];
 [Material <3d82ab4d-62da-11cf-ab39-0020af71e433>]
}

template Coords2d {
 <f6f23f44-7686-11cf-8f52-0040333594a3>
 FLOAT u;
 FLOAT v;
}

template MeshTextureCoords {
 <f6f23f40-7686-11cf-8f52-0040333594a3>
 DWORD nTextureCoords;
 array Coords2d textureCoords[nTextureCoords];
}


Material MI_rockS_5 {
 1.000000;1.000000;1.000000;1.000000;;
 10.000000;
 0.000000;0.000000;0.000000;;
 0.000000;0.000000;0.000000;;

 TextureFilename {
  "rock2_1.tga";
 }
}

Frame SM_rockS_5 {
 

 FrameTransformMatrix {
  1.000000,0.000000,0.000000,0.000000,0.000000,1.000000,0.000000,0.000000,0.000000,0.000000,1.000000,0.000000,0.000000,0.000000,0.000000,1.000000;;
 }

 Mesh SM_rockS_5 {
  319;
  -7.000976;-22.800299;-28.120726;,
  -9.755835;-20.748800;-28.716835;,
  -3.774836;-20.736598;-29.552032;,
  -7.206196;-14.824000;-30.509232;,
  0.640464;-18.243200;-29.200234;,
  -13.635611;-17.919600;-26.653534;,
  3.025565;-9.190300;-33.769136;,
  4.315764;-14.564899;-29.505434;,
  5.918565;-11.219799;-32.762429;,
  7.684666;-7.810398;-35.807930;,
  -12.472436;-14.198901;-27.658928;,
  -17.476856;-14.923699;-23.884430;,
  2.228965;-3.803799;-33.937034;,
  10.013665;-3.460899;-37.437430;,
  -18.880504;-10.314598;-22.844429;,
  -20.273056;-13.473200;-20.874931;,
  -16.184835;-5.801498;-26.317933;,
  -18.354237;-7.192600;-15.800930;,
  -21.254566;-13.405698;-15.982430;,
  -19.897915;-11.358498;-10.443832;,
  -13.122846;-6.173698;-29.613731;,
  -14.123114;-2.472099;-22.828934;,
  -14.690504;-1.751598;-28.191232;,
  -10.287586;-3.847000;-31.030829;,
  -3.372036;-7.682198;-31.255632;,
  -7.494276;1.554901;-32.852432;,
  -0.415336;-4.247601;-32.829331;,
  -1.764835;0.954700;-33.783827;,
  2.922364;2.463902;-37.277328;,
  -0.255436;4.030102;-35.597328;,
  6.205665;6.299099;-37.279434;,
  12.708964;-0.332699;-37.413034;,
  12.406964;3.937801;-37.491235;,
  9.656064;9.639900;-37.141533;,
  13.055965;9.363102;-37.859030;,
  12.129064;14.211299;-33.864128;,
  4.053365;10.249001;-34.405434;,
  8.205264;11.994102;-34.756035;,
  6.267564;16.067299;-31.371430;,
  10.358865;18.581501;-30.180832;,
  -2.571336;8.103901;-32.855232;,
  1.557664;12.726902;-31.833632;,
  4.288564;20.842202;-27.141830;,
  8.379865;23.671402;-26.127227;,
  0.182864;16.759701;-28.543930;,
  -4.912605;11.486702;-30.098832;,
  -10.672934;4.579502;-29.858832;,
  -9.134216;6.811802;-23.273430;,
  -3.677735;14.142701;-22.540634;,
  3.800065;19.577400;-21.765334;,
  7.829665;22.692902;-21.053131;,
  6.664964;23.284501;-16.381733;,
  2.292165;19.212501;-15.042234;,
  4.653165;21.870803;-8.959133;,
  -9.550686;7.792202;-19.527030;,
  -5.062756;13.070702;-19.386032;,
  -13.683674;0.850700;-19.679230;,
  -14.080922;0.323101;-17.127930;,
  -9.954275;8.527901;-15.607032;,
  -3.256136;14.299400;-14.739933;,
  -0.205336;17.455101;-11.872131;,
  -8.236776;11.522301;-12.195530;,
  2.116263;19.201901;-7.020332;,
  5.336665;19.406902;-2.834232;,
  -5.113266;14.718200;-9.082333;,
  -3.139336;15.668499;-7.444431;,
  -8.853086;9.676899;-9.922432;,
  0.138764;17.709301;-4.768730;,
  -11.500946;4.680000;-11.448330;,
  -3.812635;12.562802;-6.133430;,
  -7.199056;8.692902;-8.370830;,
  -15.283024;-1.397900;-10.460232;,
  -11.803316;2.720100;-9.237331;,
  -6.610486;8.130902;-4.158230;,
  -17.769454;-6.344799;-9.389732;,
  -19.572666;-8.442798;-5.889931;,
  -15.263307;-2.085701;-6.772430;,
  -17.838397;-7.229198;-2.226631;,
  -10.844086;1.652000;-3.996731;,
  -14.299853;-3.926300;-2.158432;,
  -16.402907;-7.705700;1.471870;,
  -11.814256;-2.556599;1.070168;,
  -13.062546;-5.633301;5.792568;,
  -6.822436;4.861301;0.535069;,
  -10.081356;-1.305199;4.874470;,
  -11.839806;-4.876499;11.752668;,
  -2.709536;10.709301;2.681168;,
  -7.839596;1.441402;11.747269;,
  -9.101314;-3.094299;15.333568;,
  -5.667076;5.393200;5.256470;,
  -5.761826;2.786602;14.981267;,
  -6.770856;0.756199;20.570469;,
  -3.090936;9.193699;11.102867;,
  -1.237136;12.286602;7.851368;,
  -2.288635;9.591499;22.987669;,
  -6.150375;3.239902;24.791970;,
  -0.522236;10.638199;15.626370;,
  1.748065;12.218602;13.622069;,
  1.274964;12.647999;19.271768;,
  -4.749125;8.954300;29.713267;,
  -7.325166;4.298702;29.899370;,
  -6.111425;4.940899;32.967568;,
  -1.629335;9.888702;34.390486;,
  -0.466736;14.052101;29.346368;,
  2.594665;14.153301;33.952531;,
  3.180863;16.647202;23.901669;,
  3.192464;17.832302;28.304070;,
  5.261365;17.992901;31.793667;,
  6.748664;17.799301;28.173469;,
  7.404664;16.386501;22.651370;,
  4.507964;14.722000;18.495469;,
  7.443265;15.306702;17.265469;,
  5.941363;12.729302;11.193268;,
  2.175263;14.917499;7.286568;,
  4.480664;15.520198;5.494568;,
  0.914764;16.106701;2.846767;,
  5.180465;16.431499;2.094467;,
  -1.296136;14.945301;-0.990433;,
  2.525865;19.315003;-1.679832;,
  -1.629335;9.888702;34.390486;,
  -6.111425;4.940899;32.967568;,
  0.054564;0.160599;34.030307;,
  4.540864;8.427502;37.292819;,
  6.040664;-4.104900;35.526198;,
  2.594665;14.153301;33.952531;,
  13.136365;-3.265400;37.859027;,
  10.936265;-7.508400;36.617520;,
  5.818364;15.529203;35.793517;,
  5.261365;17.992901;31.793667;,
  15.432565;-6.006199;35.461066;,
  13.777864;-9.016800;34.942576;,
  8.843564;14.705101;31.480970;,
  6.748664;17.799301;28.173469;,
  10.777465;10.067802;35.889747;,
  13.229665;4.147499;36.800707;,
  12.085463;8.568001;32.882768;,
  10.902564;11.919502;27.221869;,
  7.404664;16.386501;22.651370;,
  15.042864;-0.298599;36.716400;,
  11.731463;9.541702;19.531469;,
  7.443265;15.306702;17.265469;,
  16.902664;-3.178101;34.377018;,
  15.607363;0.788601;31.891770;,
  17.949363;-5.253399;29.542470;,
  13.425066;6.526001;29.519869;,
  15.878864;-0.220299;26.827469;,
  13.461064;6.322701;22.692768;,
  14.163763;2.957802;17.471869;,
  18.980466;-7.234600;23.476968;,
  10.781465;9.617598;14.706968;,
  5.941363;12.729302;11.193268;,
  17.061565;-3.224499;18.538368;,
  10.394565;10.041202;8.305569;,
  4.480664;15.520198;5.494568;,
  14.748365;1.702301;9.969070;,
  7.899064;13.232700;3.023270;,
  5.180465;16.431499;2.094467;,
  14.004264;6.327900;7.238270;,
  14.085165;6.625801;1.114868;,
  9.016965;15.049301;-1.890232;,
  5.336665;19.406902;-2.834232;,
  11.693765;11.822800;-2.725430;,
  9.576764;18.589099;-9.755730;,
  4.653165;21.870803;-8.959133;,
  6.664964;23.284501;-16.381733;,
  12.003465;15.233101;-8.747230;,
  10.964864;19.768699;-17.461034;,
  7.829665;22.692902;-21.053131;,
  13.824963;16.377301;-16.641034;,
  12.358165;17.191299;-24.922928;,
  8.379865;23.671402;-26.127227;,
  10.358865;18.581501;-30.180832;,
  14.649365;10.361900;-6.151230;,
  13.968862;13.485802;-29.319830;,
  12.129064;14.211299;-33.864128;,
  14.764264;10.703800;-27.361434;,
  14.664963;8.070099;-32.947235;,
  13.055965;9.363102;-37.859030;,
  12.406964;3.937801;-37.491235;,
  15.385264;12.115799;-22.277832;,
  13.332364;6.081902;-26.119133;,
  13.122365;4.505402;-32.060630;,
  12.708964;-0.332699;-37.413034;,
  13.633864;1.875099;-29.949136;,
  13.516965;0.617599;-25.224434;,
  13.713565;-2.133499;-30.735229;,
  13.748165;6.951599;-21.185928;,
  10.697965;-5.197598;-33.403632;,
  10.013665;-3.460899;-37.437430;,
  7.684666;-7.810398;-35.807930;,
  5.918565;-11.219799;-32.762429;,
  8.661164;-9.685600;-29.023834;,
  4.315764;-14.564899;-29.505434;,
  11.582965;-6.847198;-24.399933;,
  13.220065;-4.432800;-24.502128;,
  9.505765;-8.925800;-25.696229;,
  2.394565;-15.956400;-24.571030;,
  0.640464;-18.243200;-29.200234;,
  9.334763;-9.093998;-18.747032;,
  -2.446336;-20.302701;-21.398530;,
  -3.774836;-20.736598;-29.552032;,
  -7.000976;-22.800299;-28.120726;,
  -6.341996;-23.671400;-20.158230;,
  3.975965;-13.893400;-17.385032;,
  -4.523776;-22.569800;-14.493832;,
  -8.424986;-23.101499;-17.026531;,
  -6.226545;-22.984699;-9.908130;,
  -0.355536;-18.560499;-12.845333;,
  -2.426136;-22.949499;-8.696133;,
  -1.274735;-22.042699;-2.395832;,
  6.867164;-13.908600;-8.433033;,
  1.337765;-21.390899;-4.088230;,
  1.680465;-21.303000;0.803570;,
  3.878364;-17.595000;-6.688129;,
  6.071364;-19.856200;0.456070;,
  6.763364;-20.181299;6.787968;,
  9.966565;-9.686699;-11.212230;,
  10.970765;-19.048699;4.365570;,
  10.307864;-19.709699;10.941570;,
  13.623565;-6.698399;-16.600131;,
  13.681064;-18.471099;8.945969;,
  13.340365;-19.058800;14.871469;,
  11.152064;-16.902899;1.474567;,
  17.694766;-13.667000;7.320370;,
  16.830062;-17.866499;12.371668;,
  10.616065;-11.650200;-5.097431;,
  17.656365;-14.409299;16.521970;,
  11.865165;-17.458198;20.242168;,
  19.742366;-14.294600;11.905869;,
  16.238266;-11.451599;23.626669;,
  12.790065;-15.034501;24.732568;,
  21.254566;-10.784698;14.243168;,
  16.097264;-8.638199;29.634269;,
  12.161464;-12.470400;27.862870;,
  12.998565;-10.687099;30.812970;,
  19.893864;-8.441700;17.177970;,
  20.906864;-8.643200;9.437168;,
  16.756363;-3.424500;10.197270;,
  18.870965;-7.739498;4.597969;,
  14.048864;-12.617100;1.318470;,
  16.863064;-7.964001;-1.081131;,
  15.749664;-3.011700;1.578770;,
  14.176163;2.216301;3.002670;,
  15.785165;-5.053799;-6.531132;,
  15.264866;1.657001;-4.605133;,
  14.866963;5.906300;-5.073933;,
  13.289464;-6.695301;-9.717133;,
  16.345462;-3.363800;-11.228630;,
  15.409363;-0.351601;-7.420933;,
  15.463965;3.057602;-10.459732;,
  15.058264;0.440502;-13.977032;,
  16.053666;-4.326599;-17.399434;,
  14.346965;0.325699;-20.071533;,
  13.890565;5.508400;-15.582832;,
  14.317464;9.112202;-18.750931;,
  14.551565;7.608298;-11.402430;,
  15.353466;13.791702;-17.266731;,
  15.609565;12.369801;-12.705532;,
  -3.053636;0.839901;28.676269;,
  -7.325166;4.298702;29.899370;,
  -6.150375;3.239902;24.791970;,
  -6.111425;4.940899;32.967568;,
  -6.770856;0.756199;20.570469;,
  0.054564;0.160599;34.030307;,
  -3.379335;-4.908100;20.314067;,
  -9.101314;-3.094299;15.333568;,
  2.695365;-4.190399;29.649968;,
  6.040664;-4.104900;35.526198;,
  -6.135796;-8.036998;13.988069;,
  8.971663;-8.566898;31.845667;,
  10.936265;-7.508400;36.617520;,
  13.777864;-9.016800;34.942576;,
  12.998565;-10.687099;30.812970;,
  12.161464;-12.470400;27.862870;,
  6.320165;-9.439400;25.975069;,
  12.790065;-15.034501;24.732568;,
  1.170664;-8.450397;21.848869;,
  5.674264;-12.403598;22.498968;,
  11.865165;-17.458198;20.242168;,
  5.371764;-16.170499;17.854867;,
  13.340365;-19.058800;14.871469;,
  -0.516935;-12.089899;16.186968;,
  6.877364;-18.198099;13.036169;,
  10.307864;-19.709699;10.941570;,
  6.763364;-20.181299;6.787968;,
  -0.522936;-14.175901;10.974869;,
  4.300364;-20.525998;8.068870;,
  0.196364;-20.505101;2.946968;,
  1.680465;-21.303000;0.803570;,
  -3.082036;-15.774299;7.264969;,
  -1.274735;-22.042699;-2.395832;,
  -9.546896;-9.403698;10.103268;,
  -11.839806;-4.876499;11.752668;,
  -13.062546;-5.633301;5.792568;,
  -10.128146;-11.035400;5.523670;,
  -16.402907;-7.705700;1.471870;,
  -7.102136;-15.759800;1.833267;,
  -13.512358;-11.770899;0.723167;,
  -17.838397;-7.229198;-2.226631;,
  -19.572666;-8.442798;-5.889931;,
  -4.067136;-21.419499;-2.070431;,
  -9.835556;-18.010000;-3.545631;,
  -15.004053;-14.735099;-5.528431;,
  -19.897915;-11.358498;-10.443832;,
  -7.199556;-21.417099;-7.353733;,
  -6.226545;-22.984699;-9.908130;,
  -17.376666;-16.554699;-12.522430;,
  -21.254566;-13.405698;-15.982430;,
  -12.645276;-18.951000;-11.827633;,
  -15.853235;-17.565501;-20.417634;,
  -20.273056;-13.473200;-20.874931;,
  -17.476856;-14.923699;-23.884430;,
  -13.635611;-17.919600;-26.653534;,
  -9.404386;-21.484400;-14.643531;,
  -8.424986;-23.101499;-17.026531;,
  -10.654735;-21.685699;-21.727730;,
  -9.755835;-20.748800;-28.716835;,
  -6.341996;-23.671400;-20.158230;,
  -7.000976;-22.800299;-28.120726;;
  514;
  3;0,1,2;,
  3;2,1,3;,
  3;2,3,4;,
  3;3,1,5;,
  3;4,3,6;,
  3;6,7,4;,
  3;7,6,8;,
  3;9,8,6;,
  3;5,10,3;,
  3;11,10,5;,
  3;9,6,12;,
  3;9,12,13;,
  3;10,11,14;,
  3;14,11,15;,
  3;10,14,16;,
  3;17,14,15;,
  3;15,18,17;,
  3;17,18,19;,
  3;16,20,10;,
  3;3,10,20;,
  3;14,21,16;,
  3;17,21,14;,
  3;22,20,16;,
  3;21,22,16;,
  3;20,23,3;,
  3;22,23,20;,
  3;24,3,23;,
  3;3,24,6;,
  3;25,23,22;,
  3;25,24,23;,
  3;26,6,24;,
  3;26,24,25;,
  3;12,6,26;,
  3;12,26,27;,
  3;25,27,26;,
  3;27,28,12;,
  3;13,12,28;,
  3;29,27,25;,
  3;29,28,27;,
  3;30,13,28;,
  3;28,29,30;,
  3;31,13,30;,
  3;30,32,31;,
  3;33,32,30;,
  3;32,33,34;,
  3;33,35,34;,
  3;30,29,36;,
  3;30,36,33;,
  3;37,35,33;,
  3;36,37,33;,
  3;37,38,35;,
  3;36,38,37;,
  3;38,39,35;,
  3;29,40,36;,
  3;25,40,29;,
  3;36,41,38;,
  3;40,41,36;,
  3;38,42,39;,
  3;42,43,39;,
  3;41,44,38;,
  3;44,42,38;,
  3;41,40,45;,
  3;45,44,41;,
  3;40,25,46;,
  3;46,45,40;,
  3;22,46,25;,
  3;47,46,22;,
  3;45,46,47;,
  3;22,21,47;,
  3;48,44,45;,
  3;48,45,47;,
  3;49,42,44;,
  3;43,42,49;,
  3;44,48,49;,
  3;49,50,43;,
  3;49,51,50;,
  3;52,51,49;,
  3;48,52,49;,
  3;52,53,51;,
  3;48,47,54;,
  3;52,48,55;,
  3;54,55,48;,
  3;54,47,56;,
  3;21,56,47;,
  3;57,56,21;,
  3;54,56,57;,
  3;17,57,21;,
  3;55,54,58;,
  3;58,54,57;,
  3;55,59,52;,
  3;58,59,55;,
  3;60,52,59;,
  3;53,52,60;,
  3;58,61,59;,
  3;60,62,53;,
  3;63,53,62;,
  3;59,64,60;,
  3;61,64,59;,
  3;64,65,60;,
  3;62,60,65;,
  3;64,61,66;,
  3;65,64,66;,
  3;66,61,58;,
  3;65,67,62;,
  3;66,58,68;,
  3;57,68,58;,
  3;66,69,65;,
  3;69,67,65;,
  3;70,66,68;,
  3;69,66,70;,
  3;68,57,71;,
  3;57,17,71;,
  3;70,68,72;,
  3;72,68,71;,
  3;73,69,70;,
  3;73,70,72;,
  3;71,17,74;,
  3;17,19,74;,
  3;74,19,75;,
  3;74,76,71;,
  3;76,74,75;,
  3;71,76,72;,
  3;75,77,76;,
  3;72,76,78;,
  3;72,78,73;,
  3;76,77,79;,
  3;76,79,78;,
  3;79,77,80;,
  3;79,80,81;,
  3;79,81,78;,
  3;81,80,82;,
  3;83,78,81;,
  3;83,73,78;,
  3;82,84,81;,
  3;83,81,84;,
  3;85,84,82;,
  3;86,73,83;,
  3;84,85,87;,
  3;85,88,87;,
  3;83,84,89;,
  3;89,84,87;,
  3;86,83,89;,
  3;88,90,87;,
  3;91,90,88;,
  3;89,87,92;,
  3;87,90,92;,
  3;89,93,86;,
  3;89,92,93;,
  3;94,90,91;,
  3;91,95,94;,
  3;96,92,90;,
  3;90,94,96;,
  3;92,96,97;,
  3;93,92,97;,
  3;96,94,98;,
  3;97,96,98;,
  3;99,94,95;,
  3;95,100,99;,
  3;99,100,101;,
  3;102,99,101;,
  3;103,99,102;,
  3;103,94,99;,
  3;104,103,102;,
  3;94,103,105;,
  3;105,98,94;,
  3;104,106,103;,
  3;105,103,106;,
  3;104,107,106;,
  3;108,106,107;,
  3;108,105,106;,
  3;108,109,105;,
  3;105,110,98;,
  3;105,109,110;,
  3;110,97,98;,
  3;111,110,109;,
  3;97,110,111;,
  3;111,112,97;,
  3;112,113,97;,
  3;93,97,113;,
  3;112,114,113;,
  3;93,113,115;,
  3;115,113,114;,
  3;86,93,115;,
  3;115,114,116;,
  3;86,115,117;,
  3;73,86,117;,
  3;117,69,73;,
  3;69,117,67;,
  3;115,116,118;,
  3;117,115,118;,
  3;117,118,67;,
  3;118,116,63;,
  3;62,67,118;,
  3;63,62,118;,
  3;119,120,121;,
  3;121,122,119;,
  3;122,121,123;,
  3;122,124,119;,
  3;122,123,125;,
  3;125,123,126;,
  3;127,124,122;,
  3;124,127,128;,
  3;126,129,125;,
  3;129,126,130;,
  3;128,127,131;,
  3;132,128,131;,
  3;122,133,127;,
  3;127,133,131;,
  3;122,134,133;,
  3;125,134,122;,
  3;131,133,135;,
  3;134,135,133;,
  3;132,131,136;,
  3;136,131,135;,
  3;136,137,132;,
  3;134,125,138;,
  3;137,136,139;,
  3;139,140,137;,
  3;125,141,138;,
  3;141,125,129;,
  3;142,134,138;,
  3;138,141,142;,
  3;135,134,142;,
  3;143,141,129;,
  3;142,141,143;,
  3;142,144,135;,
  3;136,135,144;,
  3;143,145,142;,
  3;144,142,145;,
  3;136,144,146;,
  3;145,146,144;,
  3;146,139,136;,
  3;147,146,145;,
  3;139,146,147;,
  3;145,143,148;,
  3;149,139,147;,
  3;140,139,149;,
  3;149,150,140;,
  3;151,147,145;,
  3;148,151,145;,
  3;152,150,149;,
  3;153,150,152;,
  3;149,147,154;,
  3;152,155,153;,
  3;155,156,153;,
  3;157,152,149;,
  3;154,157,149;,
  3;152,158,155;,
  3;152,157,158;,
  3;156,155,159;,
  3;156,159,160;,
  3;158,161,155;,
  3;161,159,155;,
  3;162,160,159;,
  3;163,160,162;,
  3;164,163,162;,
  3;159,161,165;,
  3;159,165,162;,
  3;164,162,166;,
  3;167,164,166;,
  3;162,168,166;,
  3;168,162,165;,
  3;167,166,169;,
  3;166,168,169;,
  3;170,167,169;,
  3;169,171,170;,
  3;161,172,165;,
  3;161,158,172;,
  3;173,171,169;,
  3;171,173,174;,
  3;175,173,169;,
  3;176,174,173;,
  3;176,173,175;,
  3;174,176,177;,
  3;176,178,177;,
  3;169,179,175;,
  3;169,168,179;,
  3;176,175,180;,
  3;180,175,179;,
  3;178,176,181;,
  3;181,176,180;,
  3;182,178,181;,
  3;183,181,180;,
  3;181,183,182;,
  3;180,184,183;,
  3;183,185,182;,
  3;185,183,184;,
  3;179,186,180;,
  3;184,180,186;,
  3;185,187,182;,
  3;187,188,182;,
  3;188,187,189;,
  3;190,189,187;,
  3;187,191,190;,
  3;190,191,192;,
  3;193,187,185;,
  3;193,191,187;,
  3;184,194,185;,
  3;185,194,193;,
  3;195,192,191;,
  3;193,195,191;,
  3;192,195,196;,
  3;196,197,192;,
  3;195,193,198;,
  3;196,195,198;,
  3;199,197,196;,
  3;200,197,199;,
  3;201,200,199;,
  3;199,202,201;,
  3;198,203,196;,
  3;199,196,203;,
  3;202,199,204;,
  3;204,205,202;,
  3;205,204,206;,
  3;204,199,207;,
  3;199,203,207;,
  3;204,208,206;,
  3;204,207,208;,
  3;206,208,209;,
  3;207,203,210;,
  3;208,211,209;,
  3;212,209,211;,
  3;208,207,213;,
  3;213,211,208;,
  3;210,213,207;,
  3;211,214,212;,
  3;211,213,214;,
  3;212,214,215;,
  3;216,210,203;,
  3;216,203,198;,
  3;214,217,215;,
  3;218,215,217;,
  3;219,216,198;,
  3;198,193,219;,
  3;217,220,218;,
  3;218,220,221;,
  3;214,222,217;,
  3;222,214,213;,
  3;217,223,220;,
  3;223,217,222;,
  3;221,220,224;,
  3;225,222,213;,
  3;213,210,225;,
  3;225,210,216;,
  3;221,224,226;,
  3;227,221,226;,
  3;228,224,220;,
  3;228,226,224;,
  3;220,223,228;,
  3;227,226,229;,
  3;229,230,227;,
  3;226,228,231;,
  3;230,229,232;,
  3;232,233,230;,
  3;232,234,233;,
  3;130,234,232;,
  3;232,129,130;,
  3;129,232,143;,
  3;148,143,232;,
  3;148,232,229;,
  3;235,148,229;,
  3;229,226,235;,
  3;226,231,235;,
  3;151,148,235;,
  3;228,236,231;,
  3;231,236,235;,
  3;223,236,228;,
  3;235,237,151;,
  3;235,236,237;,
  3;147,151,237;,
  3;237,154,147;,
  3;238,236,223;,
  3;237,236,238;,
  3;239,238,223;,
  3;222,239,223;,
  3;222,225,239;,
  3;238,239,240;,
  3;225,240,239;,
  3;237,238,241;,
  3;238,240,241;,
  3;154,237,242;,
  3;242,237,241;,
  3;157,154,242;,
  3;158,157,242;,
  3;241,240,243;,
  3;240,225,243;,
  3;242,241,244;,
  3;243,244,241;,
  3;158,242,245;,
  3;244,245,242;,
  3;158,245,172;,
  3;246,243,225;,
  3;216,246,225;,
  3;219,246,216;,
  3;243,246,247;,
  3;219,247,246;,
  3;248,244,243;,
  3;247,248,243;,
  3;244,248,249;,
  3;245,244,249;,
  3;248,247,250;,
  3;248,250,249;,
  3;247,219,251;,
  3;250,247,251;,
  3;251,219,193;,
  3;193,194,251;,
  3;252,251,194;,
  3;252,250,251;,
  3;184,252,194;,
  3;186,252,184;,
  3;252,253,250;,
  3;253,252,186;,
  3;249,250,253;,
  3;254,253,186;,
  3;179,254,186;,
  3;249,253,255;,
  3;255,253,254;,
  3;249,255,245;,
  3;255,172,245;,
  3;256,254,179;,
  3;168,256,179;,
  3;257,255,254;,
  3;257,254,256;,
  3;172,255,257;,
  3;168,257,256;,
  3;257,165,172;,
  3;165,257,168;,
  3;258,259,260;,
  3;258,261,259;,
  3;258,260,262;,
  3;261,258,263;,
  3;258,262,264;,
  3;265,264,262;,
  3;258,266,263;,
  3;266,258,264;,
  3;266,267,263;,
  3;268,264,265;,
  3;266,269,267;,
  3;269,270,267;,
  3;269,271,270;,
  3;269,272,271;,
  3;269,273,272;,
  3;273,269,274;,
  3;266,274,269;,
  3;275,273,274;,
  3;264,276,266;,
  3;274,266,276;,
  3;276,264,268;,
  3;274,277,275;,
  3;274,276,277;,
  3;277,278,275;,
  3;278,277,279;,
  3;279,277,276;,
  3;280,278,279;,
  3;276,281,279;,
  3;268,281,276;,
  3;279,282,280;,
  3;282,279,281;,
  3;282,283,280;,
  3;283,282,284;,
  3;281,285,282;,
  3;268,285,281;,
  3;286,284,282;,
  3;282,285,286;,
  3;284,286,287;,
  3;287,288,284;,
  3;289,286,285;,
  3;289,285,268;,
  3;286,289,287;,
  3;288,287,290;,
  3;268,291,289;,
  3;291,268,265;,
  3;265,292,291;,
  3;292,293,291;,
  3;293,294,291;,
  3;291,294,289;,
  3;294,293,295;,
  3;294,296,289;,
  3;296,287,289;,
  3;295,297,294;,
  3;296,294,297;,
  3;298,297,295;,
  3;297,298,299;,
  3;287,296,300;,
  3;300,290,287;,
  3;297,301,296;,
  3;301,300,296;,
  3;299,302,297;,
  3;301,297,302;,
  3;303,302,299;,
  3;290,300,304;,
  3;300,301,304;,
  3;290,304,305;,
  3;302,303,306;,
  3;307,306,303;,
  3;302,308,301;,
  3;306,308,302;,
  3;308,304,301;,
  3;306,307,309;,
  3;308,306,309;,
  3;310,309,307;,
  3;311,309,310;,
  3;309,311,312;,
  3;304,308,313;,
  3;309,313,308;,
  3;313,305,304;,
  3;305,313,314;,
  3;315,309,312;,
  3;309,315,313;,
  3;315,314,313;,
  3;312,316,315;,
  3;317,314,315;,
  3;316,318,315;,
  3;318,317,315;;

  MeshNormals {
   319;
   -0.030281;-0.883731;-0.467014;,
   -0.518489;-0.564463;-0.642302;,
   0.325253;-0.682139;-0.654902;,
   -0.243425;-0.172463;-0.954464;,
   0.463824;-0.696183;-0.547902;,
   -0.677766;-0.444968;-0.585352;,
   -0.231353;-0.312698;-0.921247;,
   0.579568;-0.685595;-0.440524;,
   0.325860;-0.726422;-0.605084;,
   0.264638;-0.546956;-0.794233;,
   -0.557446;-0.130830;-0.819840;,
   -0.726557;-0.409484;-0.551759;,
   -0.387351;-0.226871;-0.893582;,
   0.317857;-0.446006;-0.836687;,
   -0.871670;0.200125;-0.447371;,
   -0.908625;-0.292064;-0.298496;,
   -0.906174;0.167783;-0.388198;,
   -0.892306;0.446411;-0.067139;,
   -0.985158;-0.171402;0.009218;,
   -0.974511;-0.066618;0.214223;,
   -0.571184;-0.103807;-0.814232;,
   -0.886582;0.459287;-0.055031;,
   -0.867051;0.290412;-0.404826;,
   -0.354698;-0.081914;-0.931386;,
   -0.241214;-0.078038;-0.967329;,
   -0.396148;0.036879;-0.917446;,
   -0.306859;-0.186379;-0.933328;,
   -0.297351;-0.323711;-0.898217;,
   -0.320468;-0.072527;-0.944479;,
   -0.419459;0.110773;-0.900990;,
   -0.198617;0.218167;-0.955486;,
   0.593338;-0.148289;-0.791177;,
   0.609483;-0.064562;-0.790166;,
   -0.193511;0.380412;-0.904345;,
   0.516193;0.247504;-0.819931;,
   0.444811;0.627564;-0.638989;,
   -0.329641;0.474593;-0.816148;,
   -0.238102;0.585794;-0.774696;,
   -0.225065;0.574551;-0.786917;,
   0.411082;0.685376;-0.601059;,
   -0.384649;0.390997;-0.836162;,
   -0.314550;0.513755;-0.798194;,
   -0.515477;0.771105;-0.373739;,
   0.255271;0.943366;-0.211889;,
   -0.531922;0.714946;-0.453775;,
   -0.613816;0.593796;-0.520227;,
   -0.746717;0.466405;-0.474216;,
   -0.815834;0.564451;-0.125741;,
   -0.688339;0.720623;-0.083017;,
   -0.625093;0.779957;-0.030430;,
   0.096505;0.995188;-0.016964;,
   -0.021841;0.999041;0.037942;,
   -0.656312;0.750986;-0.072621;,
   -0.053733;0.970403;0.235439;,
   -0.806386;0.557859;-0.196305;,
   -0.696245;0.716799;-0.037972;,
   -0.902460;0.398350;-0.163962;,
   -0.884553;0.460457;-0.074463;,
   -0.825020;0.559866;-0.076765;,
   -0.631422;0.769282;-0.097529;,
   -0.617119;0.782256;-0.085090;,
   -0.762674;0.643649;-0.063594;,
   -0.557655;0.822093;0.114824;,
   0.313886;0.887244;0.338044;,
   -0.683210;0.700860;0.204986;,
   -0.657828;0.674702;0.334723;,
   -0.813483;0.343038;0.469650;,
   -0.671020;0.728164;0.139676;,
   -0.846121;0.484699;0.221691;,
   -0.779528;0.498925;0.378694;,
   -0.770559;0.381359;0.510690;,
   -0.849623;0.523582;0.063273;,
   -0.767545;0.569473;0.294236;,
   -0.805556;0.542023;0.239354;,
   -0.884574;0.464454;-0.042558;,
   -0.970528;0.014717;0.240537;,
   -0.782156;0.587876;0.206479;,
   -0.894751;0.106099;0.433778;,
   -0.766850;0.566411;0.301860;,
   -0.692871;0.633248;0.344856;,
   -0.891803;0.078219;0.445611;,
   -0.763475;0.595140;0.250826;,
   -0.921000;0.095994;0.377551;,
   -0.816253;0.525597;0.239750;,
   -0.819625;0.559388;0.123693;,
   -0.910272;0.006431;0.413960;,
   -0.833062;0.522684;0.181132;,
   -0.831610;0.521227;0.191694;,
   -0.857110;0.000975;0.515132;,
   -0.841006;0.533642;0.089083;,
   -0.848160;0.507373;0.152309;,
   -0.965896;0.007845;0.258810;,
   -0.778190;0.602495;0.177256;,
   -0.718835;0.665892;0.199658;,
   -0.804542;0.568398;-0.172148;,
   -0.997326;-0.067582;0.027823;,
   -0.704544;0.709635;-0.006002;,
   -0.441574;0.896388;0.038736;,
   -0.657304;0.732106;-0.178806;,
   -0.821550;0.568323;0.045428;,
   -0.971740;-0.205697;0.115806;,
   -0.701242;-0.139888;0.699065;,
   -0.575228;0.382221;0.723201;,
   -0.727600;0.677991;0.104527;,
   -0.579019;0.571088;0.581890;,
   -0.418768;0.862207;-0.285012;,
   -0.427435;0.903971;-0.011656;,
   -0.025903;0.935250;0.353040;,
   0.429408;0.901302;-0.057133;,
   0.426792;0.880190;-0.207637;,
   -0.372704;0.886219;-0.275152;,
   0.302054;0.908568;-0.288560;,
   0.308288;0.950304;0.043379;,
   -0.223251;0.902510;0.368287;,
   0.342972;0.892220;0.293792;,
   -0.482646;0.810969;0.330729;,
   0.370654;0.821583;0.433148;,
   -0.782205;0.584185;0.216525;,
   -0.273021;0.915086;0.296778;,
   -0.575228;0.382221;0.723201;,
   -0.701242;-0.139888;0.699065;,
   -0.544857;-0.476090;0.690268;,
   -0.197300;0.102325;0.974988;,
   -0.502369;-0.478706;0.720045;,
   -0.579019;0.571088;0.581890;,
   0.222789;-0.148660;0.963465;,
   -0.218233;-0.626532;0.748220;,
   0.042958;0.645325;0.762699;,
   -0.025903;0.935250;0.353040;,
   0.690758;-0.354681;0.630122;,
   0.180988;-0.820972;0.541524;,
   0.771072;0.606188;0.194896;,
   0.429408;0.901302;-0.057133;,
   0.628619;0.423657;0.652191;,
   0.629680;0.320401;0.707705;,
   0.889759;0.435601;0.136311;,
   0.862141;0.506659;0.003096;,
   0.426792;0.880190;-0.207637;,
   0.738874;0.191873;0.645949;,
   0.873793;0.472144;-0.116470;,
   0.302054;0.908568;-0.288560;,
   0.919235;0.046514;0.390952;,
   0.924099;0.372903;0.083574;,
   0.982198;-0.043119;0.182834;,
   0.916103;0.398108;0.047587;,
   0.928571;0.370741;-0.017553;,
   0.925261;0.375351;-0.054810;,
   0.916020;0.397667;-0.052620;,
   0.985957;-0.067214;0.152873;,
   0.811530;0.574636;-0.105888;,
   0.308288;0.950304;0.043379;,
   0.897236;0.441050;-0.021064;,
   0.668859;0.740266;0.068076;,
   0.342972;0.892220;0.293792;,
   0.942955;0.332196;0.021944;,
   0.691742;0.675019;0.256597;,
   0.370654;0.821583;0.433148;,
   0.910515;0.408178;0.065978;,
   0.930655;0.335081;0.146978;,
   0.711868;0.598850;0.366909;,
   0.313886;0.887244;0.338044;,
   0.737585;0.573515;0.356440;,
   0.665276;0.691421;0.281684;,
   -0.053733;0.970403;0.235439;,
   -0.021841;0.999041;0.037942;,
   0.743563;0.595341;0.304439;,
   0.716256;0.693794;0.075009;,
   0.096505;0.995188;-0.016964;,
   0.807034;0.586453;0.069058;,
   0.849076;0.519166;-0.097661;,
   0.255271;0.943366;-0.211889;,
   0.411082;0.685376;-0.601059;,
   0.920607;0.326159;0.214715;,
   0.915136;0.380323;-0.133716;,
   0.444811;0.627564;-0.638989;,
   0.999087;0.023603;-0.035601;,
   0.988530;-0.067958;-0.134870;,
   0.516193;0.247504;-0.819931;,
   0.609483;-0.064562;-0.790166;,
   0.993560;0.083885;-0.076169;,
   0.990530;-0.137099;-0.007430;,
   0.987237;-0.145469;-0.064818;,
   0.593338;-0.148289;-0.791177;,
   0.996542;0.063188;-0.053963;,
   0.998696;-0.006081;-0.050682;,
   0.950079;-0.283934;-0.129353;,
   0.990886;-0.127917;-0.042216;,
   0.768097;-0.578026;-0.275525;,
   0.317857;-0.446006;-0.836687;,
   0.264638;-0.546956;-0.794233;,
   0.325860;-0.726422;-0.605084;,
   0.764185;-0.623444;-0.165346;,
   0.579568;-0.685595;-0.440524;,
   0.742533;-0.655614;-0.137168;,
   0.921267;-0.337352;-0.193549;,
   0.714244;-0.699875;-0.005539;,
   0.696603;-0.714464;0.065473;,
   0.463824;-0.696183;-0.547902;,
   0.619053;-0.782464;-0.067251;,
   0.647838;-0.761182;-0.030133;,
   0.325253;-0.682139;-0.654902;,
   -0.030281;-0.883731;-0.467014;,
   0.064676;-0.996048;-0.060867;,
   0.676080;-0.734529;-0.058158;,
   0.430712;-0.900095;-0.065704;,
   -0.311741;-0.942872;0.117519;,
   -0.287496;-0.948915;0.130021;,
   0.687418;-0.697385;-0.202758;,
   0.350701;-0.930209;-0.108263;,
   0.018132;-0.985606;0.168083;,
   0.667983;-0.692139;-0.273391;,
   0.479372;-0.862154;-0.163990;,
   0.103236;-0.985416;0.135268;,
   0.637771;-0.672639;-0.375241;,
   0.424433;-0.871664;-0.245069;,
   0.155554;-0.986441;0.052310;,
   0.670987;-0.720895;-0.173455;,
   0.469869;-0.838592;-0.275657;,
   0.033769;-0.991679;0.124230;,
   0.638845;-0.767067;-0.059035;,
   0.489233;-0.844769;-0.216833;,
   0.135847;-0.954782;0.264455;,
   0.630745;-0.617335;-0.470168;,
   0.746406;-0.504373;-0.434149;,
   0.621729;-0.782958;-0.020723;,
   0.677496;-0.621506;-0.393358;,
   0.722001;-0.564699;0.399786;,
   0.170904;-0.884937;0.433218;,
   0.838930;-0.536731;-0.090090;,
   0.769802;-0.566963;0.293187;,
   0.136989;-0.848905;0.510484;,
   0.965727;-0.127644;0.226007;,
   0.751383;-0.583502;0.308137;,
   -0.016421;-0.821531;0.569927;,
   0.166621;-0.893335;0.417360;,
   0.966389;0.120835;0.226916;,
   0.961121;0.176004;-0.212766;,
   0.879137;0.474420;-0.045208;,
   0.939124;0.074143;-0.335484;,
   0.718653;-0.526119;-0.454682;,
   0.910046;-0.252148;-0.328995;,
   0.948919;0.306609;-0.074458;,
   0.983293;0.181076;0.018613;,
   0.946005;-0.288087;-0.148593;,
   0.992743;0.103766;0.060778;,
   0.993235;0.093952;0.068244;,
   0.715885;-0.686023;-0.129924;,
   0.983852;-0.178881;-0.006079;,
   0.996321;0.081422;0.026725;,
   0.993570;0.082848;-0.077165;,
   0.973985;0.196412;-0.113026;,
   0.948851;-0.279997;-0.145886;,
   0.978503;0.115227;-0.171043;,
   0.993902;0.018951;-0.108622;,
   0.974195;-0.224617;-0.022155;,
   0.997883;-0.032719;-0.056206;,
   0.969983;0.238419;-0.047857;,
   0.974701;0.193366;0.112103;,
   -0.666971;-0.679659;0.305308;,
   -0.971740;-0.205697;0.115806;,
   -0.997326;-0.067582;0.027823;,
   -0.701242;-0.139888;0.699065;,
   -0.965896;0.007845;0.258810;,
   -0.544857;-0.476090;0.690268;,
   -0.667099;-0.545103;0.507781;,
   -0.857110;0.000975;0.515132;,
   -0.612464;-0.684538;0.395342;,
   -0.502369;-0.478706;0.720045;,
   -0.565316;-0.597986;0.568182;,
   -0.495448;-0.774668;0.392965;,
   -0.218233;-0.626532;0.748220;,
   0.180988;-0.820972;0.541524;,
   0.166621;-0.893335;0.417360;,
   -0.016421;-0.821531;0.569927;,
   -0.538682;-0.684808;0.490776;,
   0.136989;-0.848905;0.510484;,
   -0.598974;-0.607979;0.521144;,
   -0.508018;-0.640407;0.576018;,
   0.170904;-0.884937;0.433218;,
   -0.467536;-0.794794;0.386927;,
   0.135847;-0.954782;0.264455;,
   -0.602375;-0.677784;0.421607;,
   -0.322823;-0.878521;0.352117;,
   0.033769;-0.991679;0.124230;,
   0.155554;-0.986441;0.052310;,
   -0.508611;-0.711100;0.485440;,
   -0.148255;-0.935097;0.321891;,
   -0.323345;-0.872350;0.366678;,
   0.103236;-0.985416;0.135268;,
   -0.510700;-0.707099;0.489078;,
   0.018132;-0.985606;0.168083;,
   -0.641066;-0.610396;0.465243;,
   -0.910272;0.006431;0.413960;,
   -0.921000;0.095994;0.377551;,
   -0.648500;-0.623315;0.436952;,
   -0.891803;0.078219;0.445611;,
   -0.535107;-0.689488;0.488125;,
   -0.642213;-0.603593;0.472481;,
   -0.894751;0.106099;0.433778;,
   -0.970528;0.014717;0.240537;,
   -0.377392;-0.856071;0.353154;,
   -0.560038;-0.718820;0.411894;,
   -0.660170;-0.640288;0.392691;,
   -0.974511;-0.066618;0.214223;,
   -0.505851;-0.813996;0.285527;,
   -0.287496;-0.948915;0.130021;,
   -0.621886;-0.749637;0.226502;,
   -0.985158;-0.171402;0.009218;,
   -0.528461;-0.827249;0.190758;,
   -0.626298;-0.774922;-0.085128;,
   -0.908625;-0.292064;-0.298496;,
   -0.726557;-0.409484;-0.551759;,
   -0.677766;-0.444968;-0.585352;,
   -0.618018;-0.769741;0.159855;,
   -0.311741;-0.942872;0.117519;,
   -0.556812;-0.828965;-0.052698;,
   -0.518489;-0.564463;-0.642302;,
   0.064676;-0.996048;-0.060867;,
   -0.030281;-0.883731;-0.467014;;
   514;
   3;0,1,2;,
   3;2,1,3;,
   3;2,3,4;,
   3;3,1,5;,
   3;4,3,6;,
   3;6,7,4;,
   3;7,6,8;,
   3;9,8,6;,
   3;5,10,3;,
   3;11,10,5;,
   3;9,6,12;,
   3;9,12,13;,
   3;10,11,14;,
   3;14,11,15;,
   3;10,14,16;,
   3;17,14,15;,
   3;15,18,17;,
   3;17,18,19;,
   3;16,20,10;,
   3;3,10,20;,
   3;14,21,16;,
   3;17,21,14;,
   3;22,20,16;,
   3;21,22,16;,
   3;20,23,3;,
   3;22,23,20;,
   3;24,3,23;,
   3;3,24,6;,
   3;25,23,22;,
   3;25,24,23;,
   3;26,6,24;,
   3;26,24,25;,
   3;12,6,26;,
   3;12,26,27;,
   3;25,27,26;,
   3;27,28,12;,
   3;13,12,28;,
   3;29,27,25;,
   3;29,28,27;,
   3;30,13,28;,
   3;28,29,30;,
   3;31,13,30;,
   3;30,32,31;,
   3;33,32,30;,
   3;32,33,34;,
   3;33,35,34;,
   3;30,29,36;,
   3;30,36,33;,
   3;37,35,33;,
   3;36,37,33;,
   3;37,38,35;,
   3;36,38,37;,
   3;38,39,35;,
   3;29,40,36;,
   3;25,40,29;,
   3;36,41,38;,
   3;40,41,36;,
   3;38,42,39;,
   3;42,43,39;,
   3;41,44,38;,
   3;44,42,38;,
   3;41,40,45;,
   3;45,44,41;,
   3;40,25,46;,
   3;46,45,40;,
   3;22,46,25;,
   3;47,46,22;,
   3;45,46,47;,
   3;22,21,47;,
   3;48,44,45;,
   3;48,45,47;,
   3;49,42,44;,
   3;43,42,49;,
   3;44,48,49;,
   3;49,50,43;,
   3;49,51,50;,
   3;52,51,49;,
   3;48,52,49;,
   3;52,53,51;,
   3;48,47,54;,
   3;52,48,55;,
   3;54,55,48;,
   3;54,47,56;,
   3;21,56,47;,
   3;57,56,21;,
   3;54,56,57;,
   3;17,57,21;,
   3;55,54,58;,
   3;58,54,57;,
   3;55,59,52;,
   3;58,59,55;,
   3;60,52,59;,
   3;53,52,60;,
   3;58,61,59;,
   3;60,62,53;,
   3;63,53,62;,
   3;59,64,60;,
   3;61,64,59;,
   3;64,65,60;,
   3;62,60,65;,
   3;64,61,66;,
   3;65,64,66;,
   3;66,61,58;,
   3;65,67,62;,
   3;66,58,68;,
   3;57,68,58;,
   3;66,69,65;,
   3;69,67,65;,
   3;70,66,68;,
   3;69,66,70;,
   3;68,57,71;,
   3;57,17,71;,
   3;70,68,72;,
   3;72,68,71;,
   3;73,69,70;,
   3;73,70,72;,
   3;71,17,74;,
   3;17,19,74;,
   3;74,19,75;,
   3;74,76,71;,
   3;76,74,75;,
   3;71,76,72;,
   3;75,77,76;,
   3;72,76,78;,
   3;72,78,73;,
   3;76,77,79;,
   3;76,79,78;,
   3;79,77,80;,
   3;79,80,81;,
   3;79,81,78;,
   3;81,80,82;,
   3;83,78,81;,
   3;83,73,78;,
   3;82,84,81;,
   3;83,81,84;,
   3;85,84,82;,
   3;86,73,83;,
   3;84,85,87;,
   3;85,88,87;,
   3;83,84,89;,
   3;89,84,87;,
   3;86,83,89;,
   3;88,90,87;,
   3;91,90,88;,
   3;89,87,92;,
   3;87,90,92;,
   3;89,93,86;,
   3;89,92,93;,
   3;94,90,91;,
   3;91,95,94;,
   3;96,92,90;,
   3;90,94,96;,
   3;92,96,97;,
   3;93,92,97;,
   3;96,94,98;,
   3;97,96,98;,
   3;99,94,95;,
   3;95,100,99;,
   3;99,100,101;,
   3;102,99,101;,
   3;103,99,102;,
   3;103,94,99;,
   3;104,103,102;,
   3;94,103,105;,
   3;105,98,94;,
   3;104,106,103;,
   3;105,103,106;,
   3;104,107,106;,
   3;108,106,107;,
   3;108,105,106;,
   3;108,109,105;,
   3;105,110,98;,
   3;105,109,110;,
   3;110,97,98;,
   3;111,110,109;,
   3;97,110,111;,
   3;111,112,97;,
   3;112,113,97;,
   3;93,97,113;,
   3;112,114,113;,
   3;93,113,115;,
   3;115,113,114;,
   3;86,93,115;,
   3;115,114,116;,
   3;86,115,117;,
   3;73,86,117;,
   3;117,69,73;,
   3;69,117,67;,
   3;115,116,118;,
   3;117,115,118;,
   3;117,118,67;,
   3;118,116,63;,
   3;62,67,118;,
   3;63,62,118;,
   3;119,120,121;,
   3;121,122,119;,
   3;122,121,123;,
   3;122,124,119;,
   3;122,123,125;,
   3;125,123,126;,
   3;127,124,122;,
   3;124,127,128;,
   3;126,129,125;,
   3;129,126,130;,
   3;128,127,131;,
   3;132,128,131;,
   3;122,133,127;,
   3;127,133,131;,
   3;122,134,133;,
   3;125,134,122;,
   3;131,133,135;,
   3;134,135,133;,
   3;132,131,136;,
   3;136,131,135;,
   3;136,137,132;,
   3;134,125,138;,
   3;137,136,139;,
   3;139,140,137;,
   3;125,141,138;,
   3;141,125,129;,
   3;142,134,138;,
   3;138,141,142;,
   3;135,134,142;,
   3;143,141,129;,
   3;142,141,143;,
   3;142,144,135;,
   3;136,135,144;,
   3;143,145,142;,
   3;144,142,145;,
   3;136,144,146;,
   3;145,146,144;,
   3;146,139,136;,
   3;147,146,145;,
   3;139,146,147;,
   3;145,143,148;,
   3;149,139,147;,
   3;140,139,149;,
   3;149,150,140;,
   3;151,147,145;,
   3;148,151,145;,
   3;152,150,149;,
   3;153,150,152;,
   3;149,147,154;,
   3;152,155,153;,
   3;155,156,153;,
   3;157,152,149;,
   3;154,157,149;,
   3;152,158,155;,
   3;152,157,158;,
   3;156,155,159;,
   3;156,159,160;,
   3;158,161,155;,
   3;161,159,155;,
   3;162,160,159;,
   3;163,160,162;,
   3;164,163,162;,
   3;159,161,165;,
   3;159,165,162;,
   3;164,162,166;,
   3;167,164,166;,
   3;162,168,166;,
   3;168,162,165;,
   3;167,166,169;,
   3;166,168,169;,
   3;170,167,169;,
   3;169,171,170;,
   3;161,172,165;,
   3;161,158,172;,
   3;173,171,169;,
   3;171,173,174;,
   3;175,173,169;,
   3;176,174,173;,
   3;176,173,175;,
   3;174,176,177;,
   3;176,178,177;,
   3;169,179,175;,
   3;169,168,179;,
   3;176,175,180;,
   3;180,175,179;,
   3;178,176,181;,
   3;181,176,180;,
   3;182,178,181;,
   3;183,181,180;,
   3;181,183,182;,
   3;180,184,183;,
   3;183,185,182;,
   3;185,183,184;,
   3;179,186,180;,
   3;184,180,186;,
   3;185,187,182;,
   3;187,188,182;,
   3;188,187,189;,
   3;190,189,187;,
   3;187,191,190;,
   3;190,191,192;,
   3;193,187,185;,
   3;193,191,187;,
   3;184,194,185;,
   3;185,194,193;,
   3;195,192,191;,
   3;193,195,191;,
   3;192,195,196;,
   3;196,197,192;,
   3;195,193,198;,
   3;196,195,198;,
   3;199,197,196;,
   3;200,197,199;,
   3;201,200,199;,
   3;199,202,201;,
   3;198,203,196;,
   3;199,196,203;,
   3;202,199,204;,
   3;204,205,202;,
   3;205,204,206;,
   3;204,199,207;,
   3;199,203,207;,
   3;204,208,206;,
   3;204,207,208;,
   3;206,208,209;,
   3;207,203,210;,
   3;208,211,209;,
   3;212,209,211;,
   3;208,207,213;,
   3;213,211,208;,
   3;210,213,207;,
   3;211,214,212;,
   3;211,213,214;,
   3;212,214,215;,
   3;216,210,203;,
   3;216,203,198;,
   3;214,217,215;,
   3;218,215,217;,
   3;219,216,198;,
   3;198,193,219;,
   3;217,220,218;,
   3;218,220,221;,
   3;214,222,217;,
   3;222,214,213;,
   3;217,223,220;,
   3;223,217,222;,
   3;221,220,224;,
   3;225,222,213;,
   3;213,210,225;,
   3;225,210,216;,
   3;221,224,226;,
   3;227,221,226;,
   3;228,224,220;,
   3;228,226,224;,
   3;220,223,228;,
   3;227,226,229;,
   3;229,230,227;,
   3;226,228,231;,
   3;230,229,232;,
   3;232,233,230;,
   3;232,234,233;,
   3;130,234,232;,
   3;232,129,130;,
   3;129,232,143;,
   3;148,143,232;,
   3;148,232,229;,
   3;235,148,229;,
   3;229,226,235;,
   3;226,231,235;,
   3;151,148,235;,
   3;228,236,231;,
   3;231,236,235;,
   3;223,236,228;,
   3;235,237,151;,
   3;235,236,237;,
   3;147,151,237;,
   3;237,154,147;,
   3;238,236,223;,
   3;237,236,238;,
   3;239,238,223;,
   3;222,239,223;,
   3;222,225,239;,
   3;238,239,240;,
   3;225,240,239;,
   3;237,238,241;,
   3;238,240,241;,
   3;154,237,242;,
   3;242,237,241;,
   3;157,154,242;,
   3;158,157,242;,
   3;241,240,243;,
   3;240,225,243;,
   3;242,241,244;,
   3;243,244,241;,
   3;158,242,245;,
   3;244,245,242;,
   3;158,245,172;,
   3;246,243,225;,
   3;216,246,225;,
   3;219,246,216;,
   3;243,246,247;,
   3;219,247,246;,
   3;248,244,243;,
   3;247,248,243;,
   3;244,248,249;,
   3;245,244,249;,
   3;248,247,250;,
   3;248,250,249;,
   3;247,219,251;,
   3;250,247,251;,
   3;251,219,193;,
   3;193,194,251;,
   3;252,251,194;,
   3;252,250,251;,
   3;184,252,194;,
   3;186,252,184;,
   3;252,253,250;,
   3;253,252,186;,
   3;249,250,253;,
   3;254,253,186;,
   3;179,254,186;,
   3;249,253,255;,
   3;255,253,254;,
   3;249,255,245;,
   3;255,172,245;,
   3;256,254,179;,
   3;168,256,179;,
   3;257,255,254;,
   3;257,254,256;,
   3;172,255,257;,
   3;168,257,256;,
   3;257,165,172;,
   3;165,257,168;,
   3;258,259,260;,
   3;258,261,259;,
   3;258,260,262;,
   3;261,258,263;,
   3;258,262,264;,
   3;265,264,262;,
   3;258,266,263;,
   3;266,258,264;,
   3;266,267,263;,
   3;268,264,265;,
   3;266,269,267;,
   3;269,270,267;,
   3;269,271,270;,
   3;269,272,271;,
   3;269,273,272;,
   3;273,269,274;,
   3;266,274,269;,
   3;275,273,274;,
   3;264,276,266;,
   3;274,266,276;,
   3;276,264,268;,
   3;274,277,275;,
   3;274,276,277;,
   3;277,278,275;,
   3;278,277,279;,
   3;279,277,276;,
   3;280,278,279;,
   3;276,281,279;,
   3;268,281,276;,
   3;279,282,280;,
   3;282,279,281;,
   3;282,283,280;,
   3;283,282,284;,
   3;281,285,282;,
   3;268,285,281;,
   3;286,284,282;,
   3;282,285,286;,
   3;284,286,287;,
   3;287,288,284;,
   3;289,286,285;,
   3;289,285,268;,
   3;286,289,287;,
   3;288,287,290;,
   3;268,291,289;,
   3;291,268,265;,
   3;265,292,291;,
   3;292,293,291;,
   3;293,294,291;,
   3;291,294,289;,
   3;294,293,295;,
   3;294,296,289;,
   3;296,287,289;,
   3;295,297,294;,
   3;296,294,297;,
   3;298,297,295;,
   3;297,298,299;,
   3;287,296,300;,
   3;300,290,287;,
   3;297,301,296;,
   3;301,300,296;,
   3;299,302,297;,
   3;301,297,302;,
   3;303,302,299;,
   3;290,300,304;,
   3;300,301,304;,
   3;290,304,305;,
   3;302,303,306;,
   3;307,306,303;,
   3;302,308,301;,
   3;306,308,302;,
   3;308,304,301;,
   3;306,307,309;,
   3;308,306,309;,
   3;310,309,307;,
   3;311,309,310;,
   3;309,311,312;,
   3;304,308,313;,
   3;309,313,308;,
   3;313,305,304;,
   3;305,313,314;,
   3;315,309,312;,
   3;309,315,313;,
   3;315,314,313;,
   3;312,316,315;,
   3;317,314,315;,
   3;316,318,315;,
   3;318,317,315;;
  }

  MeshMaterialList {
   1;
   514;
   0,
   0,
   0,
   0,
   0,
   0,
   0,
   0,
   0,
   0,
   0,
   0,
   0,
   0,
   0,
   0,
   0,
   0,
   0,
   0,
   0,
   0,
   0,
   0,
   0,
   0,
   0,
   0,
   0,
   0,
   0,
   0,
   0,
   0,
   0,
   0,
   0,
   0,
   0,
   0,
   0,
   0,
   0,
   0,
   0,
   0,
   0,
   0,
   0,
   0,
   0,
   0,
   0,
   0,
   0,
   0,
   0,
   0,
   0,
   0,
   0,
   0,
   0,
   0,
   0,
   0,
   0,
   0,
   0,
   0,
   0,
   0,
   0,
   0,
   0,
   0,
   0,
   0,
   0,
   0,
   0,
   0,
   0,
   0,
   0,
   0,
   0,
   0,
   0,
   0,
   0,
   0,
   0,
   0,
   0,
   0,
   0,
   0,
   0,
   0,
   0,
   0,
   0,
   0,
   0,
   0,
   0,
   0,
   0,
   0,
   0,
   0,
   0,
   0,
   0,
   0,
   0,
   0,
   0,
   0,
   0,
   0,
   0,
   0,
   0,
   0,
   0,
   0,
   0,
   0,
   0,
   0,
   0,
   0,
   0,
   0,
   0,
   0,
   0,
   0,
   0,
   0,
   0,
   0,
   0,
   0,
   0,
   0,
   0,
   0,
   0,
   0,
   0,
   0,
   0,
   0,
   0,
   0,
   0,
   0,
   0,
   0,
   0,
   0,
   0,
   0,
   0,
   0,
   0,
   0,
   0,
   0,
   0,
   0,
   0,
   0,
   0,
   0,
   0,
   0,
   0,
   0,
   0,
   0,
   0,
   0,
   0,
   0,
   0,
   0,
   0,
   0,
   0,
   0,
   0,
   0,
   0,
   0,
   0,
   0,
   0,
   0,
   0,
   0,
   0,
   0,
   0,
   0,
   0,
   0,
   0,
   0,
   0,
   0,
   0,
   0,
   0,
   0,
   0,
   0,
   0,
   0,
   0,
   0,
   0,
   0,
   0,
   0,
   0,
   0,
   0,
   0,
   0,
   0,
   0,
   0,
   0,
   0,
   0,
   0,
   0,
   0,
   0,
   0,
   0,
   0,
   0,
   0,
   0,
   0,
   0,
   0,
   0,
   0,
   0,
   0,
   0,
   0,
   0,
   0,
   0,
   0,
   0,
   0,
   0,
   0,
   0,
   0,
   0,
   0,
   0,
   0,
   0,
   0,
   0,
   0,
   0,
   0,
   0,
   0,
   0,
   0,
   0,
   0,
   0,
   0,
   0,
   0,
   0,
   0,
   0,
   0,
   0,
   0,
   0,
   0,
   0,
   0,
   0,
   0,
   0,
   0,
   0,
   0,
   0,
   0,
   0,
   0,
   0,
   0,
   0,
   0,
   0,
   0,
   0,
   0,
   0,
   0,
   0,
   0,
   0,
   0,
   0,
   0,
   0,
   0,
   0,
   0,
   0,
   0,
   0,
   0,
   0,
   0,
   0,
   0,
   0,
   0,
   0,
   0,
   0,
   0,
   0,
   0,
   0,
   0,
   0,
   0,
   0,
   0,
   0,
   0,
   0,
   0,
   0,
   0,
   0,
   0,
   0,
   0,
   0,
   0,
   0,
   0,
   0,
   0,
   0,
   0,
   0,
   0,
   0,
   0,
   0,
   0,
   0,
   0,
   0,
   0,
   0,
   0,
   0,
   0,
   0,
   0,
   0,
   0,
   0,
   0,
   0,
   0,
   0,
   0,
   0,
   0,
   0,
   0,
   0,
   0,
   0,
   0,
   0,
   0,
   0,
   0,
   0,
   0,
   0,
   0,
   0,
   0,
   0,
   0,
   0,
   0,
   0,
   0,
   0,
   0,
   0,
   0,
   0,
   0,
   0,
   0,
   0,
   0,
   0,
   0,
   0,
   0,
   0,
   0,
   0,
   0,
   0,
   0,
   0,
   0,
   0,
   0,
   0,
   0,
   0,
   0,
   0,
   0,
   0,
   0,
   0,
   0,
   0,
   0,
   0,
   0,
   0,
   0,
   0,
   0,
   0,
   0,
   0,
   0,
   0,
   0,
   0,
   0,
   0,
   0,
   0,
   0,
   0,
   0,
   0,
   0,
   0,
   0,
   0,
   0,
   0,
   0,
   0,
   0,
   0,
   0,
   0,
   0,
   0,
   0,
   0,
   0,
   0,
   0,
   0,
   0,
   0,
   0,
   0,
   0,
   0,
   0,
   0,
   0,
   0,
   0,
   0,
   0,
   0,
   0,
   0,
   0,
   0,
   0,
   0,
   0;
   { MI_rockS_5 }
  }

  MeshTextureCoords c1 {
   319;
   0.758301;0.878906;,
   0.728027;0.881836;,
   0.765625;0.843750;,
   0.708984;0.826660;,
   0.779297;0.799316;,
   0.682617;0.896484;,
   0.731934;0.720215;,
   0.783203;0.752930;,
   0.763672;0.714355;,
   0.746094;0.674316;,
   0.667480;0.865234;,
   0.632813;0.910156;,
   0.689941;0.694824;,
   0.724609;0.626953;,
   0.592285;0.894531;,
   0.595703;0.928223;,
   0.591309;0.840820;,
   0.522949;0.905762;,
   0.557617;0.954590;,
   0.501953;0.961426;,
   0.620117;0.814453;,
   0.547363;0.830078;,
   0.582031;0.803711;,
   0.623535;0.782227;,
   0.686035;0.759277;,
   0.603516;0.733398;,
   0.679199;0.717285;,
   0.635742;0.697266;,
   0.649414;0.647949;,
   0.623047;0.666016;,
   0.634766;0.607910;,
   0.712891;0.591309;,
   0.678711;0.572754;,
   0.621582;0.567871;,
   0.637207;0.542969;,
   0.579102;0.533203;,
   0.588379;0.609863;,
   0.588867;0.571777;,
   0.538574;0.575195;,
   0.522461;0.535645;,
   0.578613;0.668945;,
   0.553223;0.621582;,
   0.479736;0.582031;,
   0.460205;0.543457;,
   0.505859;0.624023;,
   0.538574;0.676270;,
   0.563965;0.744629;,
   0.507324;0.749023;,
   0.471191;0.679199;,
   0.436768;0.607422;,
   0.417480;0.566895;,
   0.376465;0.589844;,
   0.385498;0.643066;,
   0.323730;0.639648;,
   0.478516;0.758301;,
   0.452637;0.703613;,
   0.510254;0.819824;,
   0.494873;0.834961;,
   0.448730;0.769531;,
   0.409424;0.702637;,
   0.370605;0.680176;,
   0.410400;0.755859;,
   0.321045;0.677734;,
   0.274414;0.674805;,
   0.370117;0.733887;,
   0.349854;0.725098;,
   0.401367;0.778320;,
   0.314453;0.708008;,
   0.432373;0.817871;,
   0.347656;0.754883;,
   0.384277;0.787109;,
   0.453857;0.877930;,
   0.421631;0.841309;,
   0.352295;0.803223;,
   0.468750;0.924805;,
   0.453369;0.959961;,
   0.427490;0.896484;,
   0.415039;0.958984;,
   0.381104;0.864746;,
   0.392334;0.922852;,
   0.380615;0.970215;,
   0.355225;0.915527;,
   0.330078;0.958496;,
   0.324951;0.843750;,
   0.317139;0.914063;,
   0.278320;0.970215;,
   0.281006;0.795410;,
   0.250000;0.911621;,
   0.238037;0.960938;,
   0.283447;0.852539;,
   0.215210;0.906738;,
   0.181274;0.947266;,
   0.219727;0.837891;,
   0.232544;0.797363;,
   0.122925;0.882324;,
   0.140137;0.946289;,
   0.171997;0.835938;,
   0.175293;0.804199;,
   0.132080;0.830566;,
   0.077942;0.926270;,
   0.098450;0.966797;,
   0.068909;0.971191;,
   0.028549;0.927246;,
   0.053772;0.875977;,
   0.005703;0.878906;,
   0.077209;0.820801;,
   0.041107;0.833008;,
   0.006958;0.832031;,
   0.030304;0.805176;,
   0.076172;0.784180;,
   0.121399;0.797852;,
   0.119263;0.770996;,
   0.171509;0.761230;,
   0.219971;0.762695;,
   0.219238;0.736816;,
   0.256592;0.744141;,
   0.236206;0.710938;,
   0.295898;0.747070;,
   0.280518;0.699707;,
   0.742676;0.163452;,
   0.800293;0.181152;,
   0.774902;0.245605;,
   0.701660;0.204590;,
   0.743164;0.310547;,
   0.686523;0.144287;,
   0.681152;0.326904;,
   0.702637;0.361084;,
   0.658691;0.160645;,
   0.632813;0.131226;,
   0.658691;0.355713;,
   0.667969;0.383301;,
   0.616211;0.171753;,
   0.591309;0.137085;,
   0.648438;0.218872;,
   0.655762;0.270264;,
   0.623535;0.231567;,
   0.577148;0.199707;,
   0.537598;0.151367;,
   0.656738;0.308350;,
   0.510254;0.223267;,
   0.489014;0.162964;,
   0.639648;0.336182;,
   0.615723;0.303711;,
   0.602539;0.359619;,
   0.596191;0.251221;,
   0.576172;0.313232;,
   0.538574;0.253906;,
   0.494629;0.284912;,
   0.554199;0.381104;,
   0.466309;0.221680;,
   0.432861;0.174438;,
   0.508301;0.343994;,
   0.409424;0.220337;,
   0.383057;0.151611;,
   0.430420;0.301758;,
   0.361816;0.187622;,
   0.353271;0.151001;,
   0.402100;0.265137;,
   0.348145;0.267578;,
   0.316162;0.182739;,
   0.306885;0.133179;,
   0.310791;0.219971;,
   0.243896;0.164063;,
   0.251709;0.113464;,
   0.183228;0.119629;,
   0.254883;0.199585;,
   0.175293;0.167603;,
   0.141235;0.133301;,
   0.184937;0.204224;,
   0.112671;0.198120;,
   0.095032;0.134033;,
   0.063904;0.185181;,
   0.280029;0.247192;,
   0.078979;0.237671;,
   0.036438;0.231079;,
   0.098267;0.261475;,
   0.052124;0.286865;,
   0.007290;0.279541;,
   0.014069;0.327881;,
   0.140747;0.246460;,
   0.112122;0.302490;,
   0.061462;0.319580;,
   0.018723;0.365234;,
   0.082031;0.340820;,
   0.123901;0.349121;,
   0.078186;0.375488;,
   0.153809;0.291748;,
   0.053925;0.410645;,
   0.016693;0.401123;,
   0.031021;0.443604;,
   0.057007;0.476563;,
   0.091797;0.452637;,
   0.084717;0.508301;,
   0.133667;0.419189;,
   0.133301;0.392822;,
   0.120972;0.444092;,
   0.125977;0.531250;,
   0.084229;0.552246;,
   0.180908;0.450195;,
   0.149292;0.588867;,
   0.077942;0.595215;,
   0.087524;0.628906;,
   0.156372;0.633301;,
   0.189087;0.512207;,
   0.207031;0.620117;,
   0.181763;0.652344;,
   0.244385;0.641113;,
   0.224121;0.569824;,
   0.259277;0.610840;,
   0.314453;0.607910;,
   0.269531;0.499023;,
   0.303467;0.582031;,
   0.345459;0.587402;,
   0.282715;0.541016;,
   0.350342;0.548340;,
   0.405762;0.556641;,
   0.247192;0.452637;,
   0.393311;0.516602;,
   0.449951;0.534180;,
   0.203003;0.410645;,
   0.437744;0.501465;,
   0.492920;0.508301;,
   0.366699;0.499023;,
   0.422852;0.447998;,
   0.469238;0.480225;,
   0.301758;0.462647;,
   0.504883;0.450928;,
   0.549805;0.495850;,
   0.463623;0.444580;,
   0.566406;0.424072;,
   0.585938;0.463867;,
   0.478516;0.413330;,
   0.614746;0.390381;,
   0.616699;0.440674;,
   0.638184;0.414551;,
   0.502441;0.394775;,
   0.438232;0.400879;,
   0.437012;0.348145;,
   0.396240;0.397705;,
   0.364014;0.454590;,
   0.345215;0.404541;,
   0.361328;0.355469;,
   0.368408;0.304932;,
   0.292969;0.385986;,
   0.302979;0.322998;,
   0.294678;0.284668;,
   0.262695;0.413086;,
   0.250244;0.374023;,
   0.280762;0.343994;,
   0.251465;0.316162;,
   0.223022;0.341064;,
   0.197998;0.384033;,
   0.169189;0.347412;,
   0.203369;0.299072;,
   0.172974;0.271484;,
   0.238159;0.277588;,
   0.182251;0.229736;,
   0.221680;0.238159;,
   0.945801;0.421875;,
   0.993652;0.411621;,
   0.979981;0.455322;,
   0.989258;0.383545;,
   0.968262;0.495605;,
   0.922852;0.373047;,
   0.911621;0.502930;,
   0.956543;0.553711;,
   0.879395;0.411621;,
   0.860352;0.356201;,
   0.907715;0.568848;,
   0.814453;0.388184;,
   0.810059;0.342773;,
   0.780273;0.352051;,
   0.774414;0.390381;,
   0.769531;0.420654;,
   0.824219;0.443604;,
   0.749023;0.449707;,
   0.861816;0.487549;,
   0.810059;0.480713;,
   0.739258;0.493652;,
   0.789063;0.527344;,
   0.712891;0.535645;,
   0.849121;0.545898;,
   0.763184;0.566406;,
   0.727051;0.576172;,
   0.743652;0.620605;,
   0.834473;0.592285;,
   0.766602;0.618164;,
   0.789551;0.669434;,
   0.770508;0.684082;,
   0.840820;0.633301;,
   0.785156;0.719238;,
   0.919922;0.613770;,
   0.961914;0.594727;,
   0.966309;0.647949;,
   0.913086;0.655273;,
   0.970703;0.698242;,
   0.863770;0.687012;,
   0.927734;0.705078;,
   0.981934;0.731445;,
   0.982422;0.768555;,
   0.809570;0.722656;,
   0.864746;0.742676;,
   0.915527;0.765137;,
   0.963867;0.811035;,
   0.825684;0.772949;,
   0.808105;0.793945;,
   0.915039;0.830566;,
   0.955566;0.863281;,
   0.871582;0.818359;,
   0.892578;0.895996;,
   0.944336;0.905273;,
   0.915039;0.929199;,
   0.870117;0.948731;,
   0.833496;0.838379;,
   0.815918;0.858398;,
   0.834473;0.900879;,
   0.826660;0.961914;,
   0.794922;0.883789;,
   0.797852;0.953613;;
  }

  MeshTextureCoords c2 {
   319;
   0.662109;0.968262;,
   0.664551;0.940918;,
   0.630371;0.974609;,
   0.615234;0.923828;,
   0.590820;0.987305;,
   0.677734;0.899902;,
   0.519531;0.944824;,
   0.548828;0.990723;,
   0.514160;0.973145;,
   0.478027;0.957031;,
   0.649902;0.886231;,
   0.690430;0.855469;,
   0.496582;0.906738;,
   0.436035;0.937988;,
   0.675781;0.818359;,
   0.706055;0.821777;,
   0.627930;0.817383;,
   0.686035;0.755859;,
   0.729980;0.787109;,
   0.736328;0.736816;,
   0.604004;0.843262;,
   0.618164;0.777832;,
   0.594238;0.809570;,
   0.575195;0.846680;,
   0.554199;0.903320;,
   0.531250;0.828613;,
   0.517090;0.896973;,
   0.498779;0.857422;,
   0.454834;0.870117;,
   0.470947;0.846680;,
   0.418457;0.856934;,
   0.404053;0.927246;,
   0.387207;0.896484;,
   0.383057;0.845215;,
   0.360107;0.858887;,
   0.351563;0.806641;,
   0.420410;0.814941;,
   0.385986;0.815430;,
   0.389160;0.770020;,
   0.353516;0.755371;,
   0.473389;0.806152;,
   0.431152;0.783203;,
   0.395508;0.716797;,
   0.360840;0.699219;,
   0.432861;0.740723;,
   0.480225;0.770020;,
   0.541504;0.792969;,
   0.545410;0.741699;,
   0.482666;0.708984;,
   0.418457;0.677734;,
   0.382080;0.660645;,
   0.402344;0.623535;,
   0.450195;0.631836;,
   0.447266;0.576172;,
   0.553711;0.715820;,
   0.504395;0.692383;,
   0.609375;0.744141;,
   0.622559;0.730469;,
   0.563965;0.688965;,
   0.503906;0.653320;,
   0.483398;0.618164;,
   0.551758;0.654297;,
   0.481689;0.573730;,
   0.478760;0.531738;,
   0.531738;0.617676;,
   0.523926;0.599609;,
   0.571777;0.645996;,
   0.508789;0.567383;,
   0.607422;0.674316;,
   0.550781;0.597656;,
   0.579590;0.630371;,
   0.661133;0.693359;,
   0.628418;0.664551;,
   0.594238;0.601563;,
   0.703125;0.707031;,
   0.734863;0.692871;,
   0.677734;0.669922;,
   0.733887;0.658691;,
   0.649414;0.627930;,
   0.701172;0.637695;,
   0.743652;0.627441;,
   0.694824;0.604492;,
   0.733398;0.581543;,
   0.630371;0.577148;,
   0.693359;0.569824;,
   0.744141;0.535156;,
   0.586914;0.537598;,
   0.691406;0.509277;,
   0.735840;0.498779;,
   0.638184;0.539551;,
   0.687012;0.478027;,
   0.723145;0.447510;,
   0.625000;0.482178;,
   0.588867;0.493652;,
   0.665039;0.394775;,
   0.722168;0.410400;,
   0.623535;0.438965;,
   0.595215;0.442139;,
   0.618652;0.403076;,
   0.704590;0.354248;,
   0.741211;0.372559;,
   0.745117;0.345947;,
   0.705078;0.309570;,
   0.659180;0.332275;,
   0.662109;0.289063;,
   0.609863;0.353516;,
   0.620605;0.320801;,
   0.620117;0.290039;,
   0.595703;0.311035;,
   0.577148;0.352539;,
   0.589355;0.393311;,
   0.565430;0.391357;,
   0.556152;0.438721;,
   0.557617;0.482422;,
   0.534180;0.481689;,
   0.540527;0.515137;,
   0.510742;0.497070;,
   0.543945;0.550781;,
   0.500977;0.537109;,
   0.670898;0.052795;,
   0.722168;0.068787;,
   0.699707;0.126831;,
   0.633789;0.089905;,
   0.670898;0.185181;,
   0.620117;0.035583;,
   0.614746;0.199951;,
   0.634766;0.230713;,
   0.595215;0.050323;,
   0.571777;0.023849;,
   0.595215;0.225830;,
   0.603516;0.250732;,
   0.556641;0.060333;,
   0.534180;0.029083;,
   0.585449;0.102661;,
   0.592285;0.149048;,
   0.563477;0.114136;,
   0.521484;0.085449;,
   0.485840;0.041931;,
   0.593262;0.183350;,
   0.461426;0.106689;,
   0.441895;0.052368;,
   0.577637;0.208496;,
   0.556152;0.179077;,
   0.544434;0.229370;,
   0.538574;0.131714;,
   0.520508;0.187622;,
   0.486572;0.134277;,
   0.447022;0.162109;,
   0.500488;0.248901;,
   0.421631;0.105225;,
   0.391357;0.062744;,
   0.459473;0.215332;,
   0.370117;0.104004;,
   0.346436;0.042175;,
   0.389160;0.177368;,
   0.327393;0.074585;,
   0.319580;0.041687;,
   0.363770;0.144287;,
   0.314941;0.146606;,
   0.286377;0.070190;,
   0.277832;0.025543;,
   0.281494;0.103760;,
   0.221069;0.053436;,
   0.228271;0.007813;,
   0.166382;0.013374;,
   0.230957;0.085327;,
   0.159180;0.056610;,
   0.128540;0.025711;,
   0.167969;0.089539;,
   0.102783;0.084045;,
   0.086914;0.026367;,
   0.058838;0.072449;,
   0.253662;0.128174;,
   0.072388;0.119629;,
   0.034088;0.113647;,
   0.089783;0.140991;,
   0.048218;0.163940;,
   0.007813;0.157349;,
   0.013924;0.200928;,
   0.128052;0.127563;,
   0.102295;0.177979;,
   0.056641;0.193359;,
   0.018112;0.234497;,
   0.075134;0.212646;,
   0.112915;0.219849;,
   0.071716;0.243652;,
   0.139893;0.168335;,
   0.049835;0.275391;,
   0.016296;0.266602;,
   0.029205;0.304932;,
   0.052612;0.334717;,
   0.083984;0.313232;,
   0.077576;0.363281;,
   0.121704;0.282959;,
   0.121399;0.259277;,
   0.110229;0.305420;,
   0.114868;0.383789;,
   0.077148;0.402832;,
   0.164307;0.311035;,
   0.135742;0.435791;,
   0.071472;0.441650;,
   0.080139;0.471924;,
   0.142212;0.476074;,
   0.171631;0.366943;,
   0.187866;0.463867;,
   0.165039;0.492920;,
   0.221558;0.483154;,
   0.203247;0.418701;,
   0.235107;0.455811;,
   0.284668;0.452881;,
   0.244141;0.354736;,
   0.274658;0.429932;,
   0.312500;0.434570;,
   0.256104;0.392822;,
   0.316895;0.399170;,
   0.366943;0.406982;,
   0.223999;0.312988;,
   0.355713;0.370605;,
   0.406738;0.386475;,
   0.184204;0.275391;,
   0.395752;0.357178;,
   0.445313;0.363525;,
   0.331787;0.354980;,
   0.382324;0.309082;,
   0.424072;0.337891;,
   0.273193;0.322266;,
   0.456299;0.311523;,
   0.496826;0.352051;,
   0.419189;0.305908;,
   0.511719;0.287354;,
   0.529297;0.323242;,
   0.432617;0.277588;,
   0.555176;0.257080;,
   0.556641;0.302490;,
   0.576172;0.278809;,
   0.454346;0.260986;,
   0.396240;0.266357;,
   0.395020;0.219116;,
   0.358398;0.263672;,
   0.329346;0.314697;,
   0.312500;0.270020;,
   0.326904;0.225830;,
   0.333496;0.180298;,
   0.265381;0.253174;,
   0.274414;0.196411;,
   0.266846;0.162109;,
   0.238159;0.277588;,
   0.226807;0.242310;,
   0.254150;0.215332;,
   0.228027;0.190430;,
   0.202271;0.212769;,
   0.179688;0.251465;,
   0.153809;0.218384;,
   0.184570;0.174927;,
   0.157104;0.150146;,
   0.215820;0.155640;,
   0.165527;0.112488;,
   0.201050;0.120117;,
   0.935547;0.078857;,
   0.978516;0.069763;,
   0.966309;0.108948;,
   0.974609;0.044464;,
   0.955566;0.145142;,
   0.914551;0.035065;,
   0.904785;0.151978;,
   0.944824;0.197266;,
   0.875977;0.069763;,
   0.858887;0.019989;,
   0.901367;0.211182;,
   0.817871;0.048584;,
   0.813965;0.007813;,
   0.787109;0.016190;,
   0.781250;0.050720;,
   0.777344;0.077698;,
   0.826660;0.098389;,
   0.758789;0.103821;,
   0.860352;0.137939;,
   0.813477;0.131714;,
   0.750000;0.143311;,
   0.794434;0.173584;,
   0.726563;0.181396;,
   0.848633;0.190552;,
   0.771484;0.208862;,
   0.739258;0.217773;,
   0.753906;0.257568;,
   0.835449;0.232056;,
   0.774902;0.255127;,
   0.794922;0.301270;,
   0.778320;0.314453;,
   0.841309;0.269043;,
   0.791504;0.345947;,
   0.912598;0.251221;,
   0.949707;0.234375;,
   0.954102;0.282227;,
   0.906250;0.288818;,
   0.958008;0.327393;,
   0.861816;0.317139;,
   0.918945;0.333496;,
   0.968262;0.356934;,
   0.968262;0.390137;,
   0.812988;0.349121;,
   0.862793;0.366943;,
   0.908203;0.387207;,
   0.951660;0.428711;,
   0.827637;0.394531;,
   0.812012;0.413330;,
   0.908203;0.446045;,
   0.944336;0.475586;,
   0.868652;0.435059;,
   0.887695;0.504395;,
   0.934082;0.513184;,
   0.907715;0.534668;,
   0.867676;0.552246;,
   0.834473;0.453369;,
   0.818848;0.470947;,
   0.835449;0.509277;,
   0.828613;0.563965;,
   0.799805;0.494141;,
   0.802246;0.556641;;
  }
 }
}