xof 0303txt 0032
template ColorRGBA {
 <35ff44e0-6c7c-11cf-8f52-0040333594a3>
 FLOAT red;
 FLOAT green;
 FLOAT blue;
 FLOAT alpha;
}

template ColorRGB {
 <d3e16e81-7835-11cf-8f52-0040333594a3>
 FLOAT red;
 FLOAT green;
 FLOAT blue;
}

template Material {
 <3d82ab4d-62da-11cf-ab39-0020af71e433>
 ColorRGBA faceColor;
 FLOAT power;
 ColorRGB specularColor;
 ColorRGB emissiveColor;
 [...]
}

template TextureFilename {
 <a42790e1-7810-11cf-8f52-0040333594a3>
 STRING filename;
}

template Frame {
 <3d82ab46-62da-11cf-ab39-0020af71e433>
 [...]
}

template Matrix4x4 {
 <f6f23f45-7686-11cf-8f52-0040333594a3>
 array FLOAT matrix[16];
}

template FrameTransformMatrix {
 <f6f23f41-7686-11cf-8f52-0040333594a3>
 Matrix4x4 frameMatrix;
}

template Vector {
 <3d82ab5e-62da-11cf-ab39-0020af71e433>
 FLOAT x;
 FLOAT y;
 FLOAT z;
}

template MeshFace {
 <3d82ab5f-62da-11cf-ab39-0020af71e433>
 DWORD nFaceVertexIndices;
 array DWORD faceVertexIndices[nFaceVertexIndices];
}

template Mesh {
 <3d82ab44-62da-11cf-ab39-0020af71e433>
 DWORD nVertices;
 array Vector vertices[nVertices];
 DWORD nFaces;
 array MeshFace faces[nFaces];
 [...]
}

template MeshNormals {
 <f6f23f43-7686-11cf-8f52-0040333594a3>
 DWORD nNormals;
 array Vector normals[nNormals];
 DWORD nFaceNormals;
 array MeshFace faceNormals[nFaceNormals];
}

template MeshMaterialList {
 <f6f23f42-7686-11cf-8f52-0040333594a3>
 DWORD nMaterials;
 DWORD nFaceIndexes;
 array DWORD faceIndexes[nFaceIndexes];
 [Material <3d82ab4d-62da-11cf-ab39-0020af71e433>]
}

template Coords2d {
 <f6f23f44-7686-11cf-8f52-0040333594a3>
 FLOAT u;
 FLOAT v;
}

template MeshTextureCoords {
 <f6f23f40-7686-11cf-8f52-0040333594a3>
 DWORD nTextureCoords;
 array Coords2d textureCoords[nTextureCoords];
}


Material MI_rockS_3 {
 1.000000;1.000000;1.000000;1.000000;;
 10.000000;
 0.000000;0.000000;0.000000;;
 0.000000;0.000000;0.000000;;

 TextureFilename {
  "rock2_1.tga";
 }
}

Frame SM_rockS_3 {
 

 FrameTransformMatrix {
  1.000000,0.000000,0.000000,0.000000,0.000000,1.000000,0.000000,0.000000,0.000000,0.000000,1.000000,0.000000,0.000000,0.000000,0.000000,1.000000;;
 }

 Mesh SM_rockS_3 {
  453;
  15.199402;-8.130497;33.884947;,
  14.479901;-11.385498;34.612253;,
  16.519302;-10.602798;33.747651;,
  17.227699;-7.921898;32.321152;,
  15.045600;-4.690800;31.866950;,
  17.386902;-4.979298;30.179952;,
  12.348901;-5.230598;33.384448;,
  13.736800;-2.619396;30.193850;,
  16.158402;-1.964699;28.163549;,
  9.444701;-2.710499;32.239952;,
  9.402301;-4.700996;34.467350;,
  7.001700;-4.895798;34.367853;,
  11.375501;-1.004898;28.464051;,
  9.021402;-1.106598;30.724650;,
  4.062700;-2.772697;32.323952;,
  11.070602;1.062401;25.502750;,
  16.201400;-0.354198;24.350150;,
  7.736900;2.075603;26.123450;,
  2.731701;0.104801;27.828550;,
  0.273190;-1.371197;30.169050;,
  -0.321109;3.663403;25.614451;,
  -4.686540;2.293404;27.913549;,
  3.864901;3.955803;23.168850;,
  -3.806189;6.177803;23.841150;,
  -7.740036;4.842804;24.858050;,
  -9.035600;7.720604;22.733350;,
  0.897401;4.878002;23.143350;,
  6.526501;3.086403;21.094650;,
  -1.296759;8.505402;21.645850;,
  9.825000;1.356102;21.688350;,
  2.559001;6.021503;19.698851;,
  4.338301;4.034103;19.508850;,
  7.919500;5.740501;16.164650;,
  10.335900;2.898701;18.306550;,
  12.875401;0.848404;21.633850;,
  17.958901;1.185101;19.675750;,
  18.073101;-0.539997;21.078550;,
  19.353802;0.771301;16.774250;,
  14.407602;2.479900;17.701050;,
  18.367702;2.407600;15.719848;,
  19.644101;1.298901;13.085949;,
  9.467401;4.091801;15.701549;,
  18.064602;3.204002;12.194649;,
  19.629200;2.087902;9.621052;,
  19.702099;4.213303;7.878250;,
  15.964301;3.628002;12.343552;,
  16.209301;5.469402;7.824051;,
  17.747798;6.498402;4.018951;,
  11.199102;4.656502;11.827549;,
  11.896501;5.748302;9.001148;,
  14.139501;7.002502;5.567749;,
  12.729999;10.278202;0.348148;,
  16.618301;8.724903;-0.974751;,
  11.263002;8.723404;4.620850;,
  9.797801;7.653301;9.162251;,
  8.368001;8.997601;12.846649;,
  9.177202;10.340103;8.557949;,
  10.372901;12.611401;2.632549;,
  5.669101;9.443702;15.620549;,
  7.946701;12.657402;9.585651;,
  2.157201;9.152401;19.019251;,
  5.557501;10.790302;14.178250;,
  -2.611419;13.027103;13.912152;,
  1.537491;13.714302;10.808449;,
  9.128100;14.897301;4.127651;,
  2.978701;16.245701;5.362350;,
  -3.649029;16.937802;7.204948;,
  4.046801;19.441205;-0.421150;,
  -1.171989;18.481403;3.588749;,
  9.739501;17.999901;-1.271950;,
  11.455901;15.301701;-2.670849;,
  5.061300;22.539406;-5.664650;,
  13.486402;12.848904;-5.106548;,
  9.295501;20.699002;-5.604149;,
  11.266801;17.797901;-8.281849;,
  15.329301;10.609001;-6.670849;,
  17.136798;7.997101;-5.082649;,
  17.152802;7.200203;-8.440850;,
  12.547502;14.419003;-9.775951;,
  15.553802;10.739902;-9.964050;,
  16.949501;7.410302;-12.271649;,
  14.537501;11.692101;-14.300949;,
  16.127202;7.581501;-15.919952;,
  10.632600;16.916104;-13.251850;,
  11.867400;11.723602;-18.031754;,
  12.377501;7.822201;-20.997848;,
  15.409600;4.257401;-20.916550;,
  10.262200;19.801701;-11.497650;,
  11.295701;4.041504;-25.794350;,
  14.991200;1.312202;-24.549653;,
  9.307302;22.620400;-10.084850;,
  6.403101;19.951603;-14.870850;,
  6.538900;23.783806;-8.096050;,
  5.655500;24.879600;-12.351448;,
  6.969101;15.688400;-19.991250;,
  1.401510;21.694000;-17.010453;,
  1.400440;25.883805;-10.980549;,
  1.156651;26.455902;-14.126651;,
  0.165161;25.009499;-7.966648;,
  -3.674919;28.519805;-11.951248;,
  -1.174339;22.734603;-4.307549;,
  0.650381;20.908005;-1.873650;,
  -5.544559;25.705605;-6.783852;,
  -8.199729;22.390800;-0.727848;,
  -9.543009;18.987602;6.466549;,
  -10.097479;25.096099;-4.623852;,
  -8.033494;27.203002;-9.523350;,
  -12.925659;23.365798;0.054550;,
  -6.760543;28.966499;-12.314049;,
  -5.831800;27.515603;-15.996354;,
  -12.821590;21.111198;3.558552;,
  -16.315730;21.792603;3.109348;,
  -3.454149;26.407402;-16.291352;,
  -8.151710;24.708000;-17.740448;,
  -3.306910;22.765899;-18.915253;,
  -7.904846;22.452400;-20.011048;,
  -18.895000;20.249302;5.168350;,
  -18.175099;17.683202;7.904549;,
  -4.068890;19.929203;-21.814346;,
  -7.557475;19.567002;-22.205749;,
  -7.250459;15.442902;-25.945152;,
  2.835300;16.215504;-21.693352;,
  -2.959970;14.469203;-25.472946;,
  -7.090276;12.517402;-27.866950;,
  -6.890766;9.646602;-28.741050;,
  2.113581;12.481804;-25.371750;,
  -0.501760;6.950302;-30.203750;,
  -5.772029;6.610802;-30.142051;,
  -3.045069;3.470901;-32.748154;,
  6.301301;10.877403;-24.345253;,
  3.473001;6.626904;-29.083251;,
  2.323581;2.129704;-32.504349;,
  -1.341990;-0.190197;-33.890250;,
  8.846801;8.582501;-24.093552;,
  8.299601;4.465401;-27.700653;,
  6.287400;1.894001;-30.879754;,
  10.359500;-0.525497;-30.227654;,
  13.570800;-1.906597;-28.693846;,
  8.975802;-3.481098;-33.076051;,
  11.233800;-5.865597;-31.655450;,
  7.906301;-9.294098;-33.646653;,
  2.841901;-2.168697;-34.376954;,
  0.353181;-3.240597;-34.438950;,
  2.175891;-7.125698;-34.667648;,
  5.612201;-8.098999;-34.457846;,
  4.476400;-12.043198;-33.963654;,
  16.519302;-10.602798;33.747651;,
  14.479901;-11.385498;34.612253;,
  15.297101;-13.209498;32.748250;,
  16.752701;-12.581198;29.777350;,
  17.227699;-7.921898;32.321152;,
  14.605501;-15.269698;30.349952;,
  17.939400;-8.765900;28.358650;,
  17.386902;-4.979298;30.179952;,
  15.187600;-16.963997;27.733152;,
  13.823301;-18.543099;29.291152;,
  16.175102;-13.540698;24.028450;,
  17.573501;-5.531498;26.015750;,
  16.158402;-1.964699;28.163549;,
  17.489200;-8.648098;24.259750;,
  17.978702;-3.829899;23.739550;,
  16.201400;-0.354198;24.350150;,
  18.073101;-0.539997;21.078550;,
  18.392200;-8.034996;21.651450;,
  18.836800;-2.822399;19.606150;,
  19.353802;0.771301;16.774250;,
  17.517502;-11.335398;21.440050;,
  18.964501;-0.911598;13.975150;,
  19.644101;1.298901;13.085949;,
  17.654202;-8.029797;16.482150;,
  17.702602;-3.215397;9.391949;,
  19.629200;2.087902;9.621052;,
  15.336501;-16.286898;14.555050;,
  19.352901;2.789101;5.598850;,
  19.702099;4.213303;7.878250;,
  17.747798;6.498402;4.018951;,
  16.013198;-11.893598;12.054352;,
  16.447398;-3.235497;1.689949;,
  18.802403;2.658104;-0.443050;,
  16.618301;8.724903;-0.974751;,
  13.325200;-16.415197;6.094051;,
  17.866402;4.852703;-5.582249;,
  17.136798;7.997101;-5.082649;,
  17.152802;7.200203;-8.440850;,
  18.082600;2.171902;-5.581551;,
  16.307202;4.182800;-12.126450;,
  16.949501;7.410302;-12.271649;,
  16.127202;7.581501;-15.919952;,
  17.152402;0.694103;-10.445751;,
  14.782800;-4.815697;-5.721352;,
  15.924800;-1.886700;-13.477051;,
  15.444701;2.356003;-17.229248;,
  15.409600;4.257401;-20.916550;,
  15.332400;-0.824497;-18.301354;,
  14.991200;1.312202;-24.549653;,
  14.177800;-5.841198;-14.530152;,
  13.485002;-3.606899;-22.625053;,
  13.570800;-1.906597;-28.693846;,
  12.943000;-6.602798;-18.264053;,
  10.922302;-7.273598;-28.219651;,
  11.233800;-5.865597;-31.655450;,
  7.906301;-9.294098;-33.646653;,
  9.946500;-10.838596;-22.493653;,
  7.397000;-12.235498;-30.634355;,
  4.476400;-12.043198;-33.963654;,
  4.368200;-14.997898;-30.679152;,
  4.519401;-17.404398;-27.602547;,
  6.081201;-16.920797;-26.206848;,
  4.160801;-19.084398;-24.446152;,
  6.439401;-18.356598;-22.987747;,
  9.746101;-12.199398;-18.959954;,
  12.121801;-11.258598;-13.393551;,
  4.693201;-19.226498;-22.607246;,
  2.725801;-21.916899;-20.664147;,
  12.464400;-9.998097;-10.980450;,
  5.057800;-21.092197;-20.090653;,
  12.836400;-11.340597;-3.072151;,
  10.685701;-15.608698;-8.713951;,
  11.599900;-17.009698;-1.327648;,
  10.725102;-17.005598;-11.991550;,
  9.467000;-20.662898;-8.090050;,
  10.544900;-21.355498;-1.830650;,
  8.192000;-18.198198;-18.426453;,
  9.359102;-22.504997;-11.646450;,
  6.677801;-18.784098;-19.255250;,
  7.346801;-23.423198;-15.530350;,
  4.806601;-24.467898;-17.781250;,
  2.678301;-24.867998;-17.879448;,
  4.725901;-27.128397;-13.851152;,
  7.586801;-24.782698;-12.219650;,
  5.559701;-27.072598;-10.234451;,
  8.637000;-25.525498;-6.866848;,
  7.377300;-28.756998;-4.847248;,
  9.311200;-26.361498;-1.380550;,
  7.555301;-28.662698;-1.566250;,
  6.124701;-28.629798;2.143650;,
  10.144801;-25.635698;2.485550;,
  7.450001;-28.064797;5.089851;,
  12.548501;-21.905898;8.022350;,
  11.098901;-26.736398;6.474049;,
  10.172502;-28.966496;9.409550;,
  12.152702;-27.374397;10.164550;,
  11.696601;-28.320598;12.807550;,
  13.024600;-27.201898;15.076450;,
  14.966000;-21.336798;16.147651;,
  13.872301;-25.797197;18.946750;,
  15.999003;-17.081398;19.538150;,
  14.833400;-23.705298;19.741950;,
  13.383700;-24.233797;22.018850;,
  15.569301;-18.427997;22.191851;,
  14.776701;-19.849598;24.950750;,
  12.929601;-22.081698;25.857451;,
  -3.933719;9.473801;21.166750;,
  -6.878576;11.424603;19.192051;,
  -8.851919;9.437802;21.583851;,
  -11.024139;9.932903;20.580749;,
  -12.224249;7.774200;20.292350;,
  -14.974798;11.401604;17.441650;,
  -11.513719;13.046204;18.056550;,
  -8.166991;15.487301;11.993149;,
  -14.335949;13.895603;17.601749;,
  -17.134178;14.274704;14.941848;,
  -13.994699;17.077405;11.304650;,
  -18.166000;16.805901;11.256351;,
  -16.187800;15.827701;13.918152;,
  11.802402;-10.853897;34.667648;,
  14.479901;-11.385498;34.612253;,
  15.199402;-8.130497;33.884947;,
  15.297101;-13.209498;32.748250;,
  12.348901;-5.230598;33.384448;,
  9.658700;-14.084298;32.428749;,
  14.605501;-15.269698;30.349952;,
  9.221502;-9.006199;34.358749;,
  9.402301;-4.700996;34.467350;,
  7.001700;-4.895798;34.367853;,
  7.146501;-10.533096;31.813450;,
  3.674001;-7.039597;29.582950;,
  4.062700;-2.772697;32.323952;,
  11.366500;-16.053997;31.054250;,
  13.823301;-18.543099;29.291152;,
  -1.483999;-4.028099;27.451651;,
  0.273190;-1.371197;30.169050;,
  11.616901;-19.512398;28.451850;,
  12.929601;-22.081698;25.857451;,
  9.835000;-17.061499;29.947450;,
  7.158200;-17.694597;25.647250;,
  8.226601;-15.097698;31.597152;,
  5.781800;-13.439998;31.020451;,
  2.813301;-11.607198;28.816048;,
  3.373501;-14.291098;24.992750;,
  0.238241;-9.728599;26.663050;,
  1.374681;-14.546598;20.300950;,
  9.480102;-22.048998;21.967350;,
  13.383700;-24.233797;22.018850;,
  13.872301;-25.797197;18.946750;,
  4.905301;-18.602099;20.405251;,
  8.748700;-24.261898;16.317749;,
  13.024600;-27.201898;15.076450;,
  11.696601;-28.320598;12.807550;,
  4.804201;-21.367498;14.997250;,
  6.864501;-26.123398;8.981049;,
  10.172502;-28.966496;9.409550;,
  7.450001;-28.064797;5.089851;,
  1.253441;-16.660797;14.011451;,
  4.169801;-22.425798;10.637650;,
  3.376700;-25.019598;1.609749;,
  6.124701;-28.629798;2.143650;,
  1.319040;-18.797499;8.709450;,
  3.047001;-25.514898;-2.129349;,
  7.555301;-28.662698;-1.566250;,
  0.900790;-21.139797;0.284451;,
  3.958200;-27.366397;-3.492451;,
  7.377300;-28.756998;-4.847248;,
  3.201900;-24.338298;-0.291748;,
  1.905291;-24.050698;-6.743450;,
  5.559701;-27.072598;-10.234451;,
  1.747591;-22.870298;-4.741150;,
  1.873771;-21.186998;-1.268349;,
  1.242440;-23.241898;-11.600350;,
  4.725901;-27.128397;-13.851152;,
  -0.042589;-18.086699;-5.412949;,
  0.071651;-18.593198;-3.926151;,
  -0.520129;-18.371397;-2.261051;,
  -2.506729;-16.158098;-4.046551;,
  -2.734639;-14.883298;4.993050;,
  -4.909829;-11.930397;8.391850;,
  -5.977709;-12.417698;2.583351;,
  -4.202899;-10.680397;13.662152;,
  -8.728270;-8.264698;4.569149;,
  -2.800789;-10.066898;18.976650;,
  -9.167139;-5.612797;10.377548;,
  -2.682379;-7.335899;24.647550;,
  -5.873799;-6.001499;19.950050;,
  -9.124510;-2.747997;16.905550;,
  -5.998909;-4.395699;22.102650;,
  -5.473209;-3.193699;25.298550;,
  -4.876179;-1.461697;27.329350;,
  -4.686540;2.293404;27.913549;,
  -7.740036;4.842804;24.858050;,
  -8.319147;-0.430599;20.862450;,
  -10.904799;3.049301;22.029350;,
  -9.035600;7.720604;22.733350;,
  -12.224249;7.774200;20.292350;,
  -12.525459;2.936302;18.728750;,
  -11.333189;0.831604;16.609650;,
  -13.834998;2.147404;14.189547;,
  -14.273739;4.809200;16.081250;,
  -14.974798;11.401604;17.441650;,
  -12.665199;-0.589497;10.538448;,
  -17.772899;12.380001;12.848251;,
  -17.134178;14.274704;14.941848;,
  -18.166000;16.805901;11.256351;,
  -15.536970;4.599701;12.466850;,
  -18.351600;11.205101;9.546349;,
  -18.175099;17.683202;7.904549;,
  -17.249669;5.017403;7.866249;,
  -18.611000;9.412403;7.417950;,
  -19.058998;11.154702;3.298649;,
  -13.481128;-0.284397;3.937450;,
  -17.041667;4.359901;2.910149;,
  -19.303000;18.205205;3.454449;,
  -18.895000;20.249302;5.168350;,
  -16.315730;21.792603;3.109348;,
  -16.072158;19.346203;-0.545948;,
  -12.925659;23.365798;0.054550;,
  -19.702099;14.706002;1.104549;,
  -11.626360;21.499802;-6.414848;,
  -10.097479;25.096099;-4.623852;,
  -8.033494;27.203002;-9.523350;,
  -14.784909;14.384803;-5.758450;,
  -12.158010;18.031704;-8.172348;,
  -9.350499;23.241203;-12.464950;,
  -8.907150;26.941901;-12.073448;,
  -6.760543;28.966499;-12.314049;,
  -8.515615;25.803299;-15.099850;,
  -5.831800;27.515603;-15.996354;,
  -8.151710;24.708000;-17.740448;,
  -8.027414;20.003101;-18.245552;,
  -7.904846;22.452400;-20.011048;,
  -7.557475;19.567002;-22.205749;,
  -9.696470;17.524101;-13.290451;,
  -12.107809;12.703301;-10.827950;,
  -8.898469;13.363201;-17.327552;,
  -7.999935;13.426003;-22.551246;,
  -7.250459;15.442902;-25.945152;,
  -7.090276;12.517402;-27.866950;,
  -7.836964;9.202002;-25.042152;,
  -6.890766;9.646602;-28.741050;,
  -9.377289;9.005703;-18.078048;,
  -6.153009;4.839203;-25.580254;,
  -5.772029;6.610802;-30.142051;,
  -3.045069;3.470901;-32.748154;,
  -11.243819;8.890003;-13.971451;,
  -2.315849;-1.656498;-29.991149;,
  -1.341990;-0.190197;-33.890250;,
  0.353181;-3.240597;-34.438950;,
  -6.935744;2.306602;-19.768646;,
  0.733511;-7.666897;-31.113350;,
  2.175891;-7.125698;-34.667648;,
  4.476400;-12.043198;-33.963654;,
  -4.660799;-0.735699;-24.016152;,
  0.726380;-10.465397;-29.311754;,
  4.368200;-14.997898;-30.679152;,
  -2.664879;-4.884998;-25.329048;,
  2.341011;-14.896098;-29.062150;,
  4.519401;-17.404398;-27.602547;,
  -1.084689;-10.767098;-25.140747;,
  1.161871;-15.730099;-26.479149;,
  4.160801;-19.084398;-24.446152;,
  -5.013509;-2.233196;-20.511352;,
  -3.232649;-8.856498;-18.290451;,
  -0.750409;-13.806797;-21.152154;,
  0.503330;-16.578798;-23.024552;,
  1.111570;-20.065397;-20.606048;,
  2.725801;-21.916899;-20.664147;,
  0.610531;-22.469997;-16.327454;,
  2.678301;-24.867998;-17.879448;,
  -1.424850;-17.080298;-13.681149;,
  -2.697289;-12.293698;-12.954552;,
  -2.093809;-14.589998;-8.245153;,
  -3.230989;-12.313898;-10.149948;,
  -5.398679;-4.015297;-15.106450;,
  -5.665559;-7.897598;-9.794949;,
  -7.802724;-0.844196;-12.988350;,
  -7.264951;-4.854599;-11.004750;,
  -4.532129;-9.779099;-8.568650;,
  -9.116450;2.499203;-13.751750;,
  -4.069139;-11.332498;-6.985748;,
  -9.711858;6.154800;-15.435150;,
  -11.482279;5.199203;-12.563549;,
  -9.112410;0.504101;-11.890850;,
  -8.349657;-3.072098;-9.792450;,
  -11.146799;-0.386799;-10.953350;,
  -14.492659;7.437901;-10.495250;,
  -14.698650;4.232601;-9.366150;,
  -16.921160;8.785801;-6.399651;,
  -15.669709;4.575802;-6.348251;,
  -13.692400;-0.150299;-5.865448;,
  -19.023701;11.568402;-2.135849;,
  -17.924499;8.040203;-2.858849;,
  -18.965198;9.217202;-0.559551;,
  -16.985069;4.895203;-0.227249;,
  -14.966878;1.013203;-1.051949;,
  -11.556099;-3.590496;-1.929050;,
  -10.619689;-4.092400;-8.379950;,
  -9.355370;-8.552298;-2.051151;,
  -9.822089;-7.463298;-8.037350;,
  -7.354671;-6.604397;-9.392849;,
  -7.610367;-10.609898;-7.373951;,
  -6.198119;-12.266798;-1.208248;,
  -6.499199;-12.306797;-5.062851;,
  -3.897799;-14.256498;-5.728050;,
  -2.857579;-13.544998;-7.350552;;
  748;
  3;0,1,2;,
  3;3,0,2;,
  3;0,3,4;,
  3;5,4,3;,
  3;4,6,0;,
  3;5,7,4;,
  3;6,4,7;,
  3;7,5,8;,
  3;7,9,6;,
  3;6,9,10;,
  3;11,10,9;,
  3;8,12,7;,
  3;7,12,9;,
  3;11,9,13;,
  3;12,13,9;,
  3;13,14,11;,
  3;15,12,8;,
  3;8,16,15;,
  3;17,13,12;,
  3;12,15,17;,
  3;18,14,13;,
  3;13,17,18;,
  3;18,19,14;,
  3;19,18,20;,
  3;19,20,21;,
  3;22,18,17;,
  3;22,20,18;,
  3;20,23,21;,
  3;23,24,21;,
  3;24,23,25;,
  3;20,22,26;,
  3;23,20,26;,
  3;27,22,17;,
  3;28,23,26;,
  3;27,17,29;,
  3;17,15,29;,
  3;26,22,30;,
  3;26,30,28;,
  3;31,22,27;,
  3;22,31,30;,
  3;31,27,32;,
  3;30,31,32;,
  3;29,33,27;,
  3;33,32,27;,
  3;29,15,34;,
  3;29,34,33;,
  3;34,15,16;,
  3;35,34,16;,
  3;16,36,35;,
  3;35,36,37;,
  3;34,38,33;,
  3;34,35,38;,
  3;35,37,39;,
  3;38,35,39;,
  3;40,39,37;,
  3;38,41,33;,
  3;33,41,32;,
  3;39,40,42;,
  3;42,40,43;,
  3;42,43,44;,
  3;38,39,45;,
  3;39,42,45;,
  3;42,44,46;,
  3;45,42,46;,
  3;44,47,46;,
  3;38,45,48;,
  3;48,41,38;,
  3;32,41,48;,
  3;45,46,49;,
  3;45,49,48;,
  3;47,50,46;,
  3;50,49,46;,
  3;51,50,47;,
  3;47,52,51;,
  3;49,50,53;,
  3;50,51,53;,
  3;54,48,49;,
  3;54,49,53;,
  3;55,48,54;,
  3;48,55,32;,
  3;56,54,53;,
  3;55,54,56;,
  3;51,57,53;,
  3;56,53,57;,
  3;58,32,55;,
  3;32,58,30;,
  3;59,55,56;,
  3;58,60,30;,
  3;60,28,30;,
  3;55,61,58;,
  3;60,58,61;,
  3;61,55,59;,
  3;28,60,62;,
  3;61,62,60;,
  3;59,63,61;,
  3;61,63,62;,
  3;64,59,56;,
  3;56,57,64;,
  3;63,59,65;,
  3;64,65,59;,
  3;66,63,65;,
  3;66,62,63;,
  3;65,64,67;,
  3;66,65,68;,
  3;68,65,67;,
  3;64,57,69;,
  3;64,69,67;,
  3;57,70,69;,
  3;57,51,70;,
  3;71,67,69;,
  3;51,72,70;,
  3;51,52,72;,
  3;73,69,70;,
  3;69,73,71;,
  3;70,72,74;,
  3;70,74,73;,
  3;75,72,52;,
  3;75,52,76;,
  3;77,75,76;,
  3;72,75,78;,
  3;72,78,74;,
  3;79,75,77;,
  3;75,79,78;,
  3;80,79,77;,
  3;79,80,81;,
  3;78,79,81;,
  3;82,81,80;,
  3;81,83,78;,
  3;74,78,83;,
  3;84,81,82;,
  3;81,84,83;,
  3;82,85,84;,
  3;85,82,86;,
  3;83,87,74;,
  3;85,86,88;,
  3;89,88,86;,
  3;74,87,90;,
  3;73,74,90;,
  3;83,91,87;,
  3;91,90,87;,
  3;90,92,73;,
  3;92,71,73;,
  3;90,91,93;,
  3;93,92,90;,
  3;94,91,83;,
  3;84,94,83;,
  3;93,91,95;,
  3;95,91,94;,
  3;96,92,93;,
  3;97,93,95;,
  3;97,96,93;,
  3;98,92,96;,
  3;98,71,92;,
  3;99,96,97;,
  3;99,98,96;,
  3;100,71,98;,
  3;71,100,101;,
  3;71,101,67;,
  3;68,67,101;,
  3;102,100,98;,
  3;98,99,102;,
  3;101,100,103;,
  3;103,68,101;,
  3;100,102,103;,
  3;103,104,68;,
  3;68,104,66;,
  3;105,103,102;,
  3;102,106,105;,
  3;106,102,99;,
  3;107,103,105;,
  3;106,99,108;,
  3;99,109,108;,
  3;103,107,110;,
  3;103,110,104;,
  3;111,110,107;,
  3;109,99,112;,
  3;99,97,112;,
  3;112,113,109;,
  3;114,112,97;,
  3;112,114,113;,
  3;97,95,114;,
  3;115,113,114;,
  3;111,116,117;,
  3;117,110,111;,
  3;115,114,118;,
  3;118,114,95;,
  3;118,119,115;,
  3;120,119,118;,
  3;118,95,121;,
  3;94,121,95;,
  3;118,122,120;,
  3;121,122,118;,
  3;122,123,120;,
  3;124,123,122;,
  3;125,121,94;,
  3;121,125,122;,
  3;122,126,124;,
  3;122,125,126;,
  3;124,126,127;,
  3;127,126,128;,
  3;94,129,125;,
  3;129,94,84;,
  3;126,125,130;,
  3;129,130,125;,
  3;126,131,128;,
  3;126,130,131;,
  3;128,131,132;,
  3;84,133,129;,
  3;130,129,133;,
  3;85,133,84;,
  3;88,133,85;,
  3;133,134,130;,
  3;133,88,134;,
  3;130,134,135;,
  3;130,135,131;,
  3;136,134,88;,
  3;136,135,134;,
  3;136,88,89;,
  3;89,137,136;,
  3;138,136,137;,
  3;138,135,136;,
  3;137,139,138;,
  3;140,138,139;,
  3;135,141,131;,
  3;138,141,135;,
  3;131,141,132;,
  3;141,142,132;,
  3;143,142,141;,
  3;140,144,138;,
  3;141,138,144;,
  3;144,143,141;,
  3;145,144,140;,
  3;143,144,145;,
  3;146,147,148;,
  3;146,148,149;,
  3;149,150,146;,
  3;149,148,151;,
  3;152,150,149;,
  3;152,153,150;,
  3;154,149,151;,
  3;151,155,154;,
  3;156,152,149;,
  3;149,154,156;,
  3;153,152,157;,
  3;157,158,153;,
  3;152,159,157;,
  3;152,156,159;,
  3;158,157,160;,
  3;159,160,157;,
  3;160,161,158;,
  3;161,160,162;,
  3;160,159,163;,
  3;162,160,164;,
  3;164,160,163;,
  3;162,164,165;,
  3;163,159,166;,
  3;156,166,159;,
  3;167,165,164;,
  3;165,167,168;,
  3;163,169,164;,
  3;169,167,164;,
  3;169,163,166;,
  3;168,167,170;,
  3;170,167,169;,
  3;170,171,168;,
  3;169,166,172;,
  3;173,171,170;,
  3;173,174,171;,
  3;174,173,175;,
  3;170,169,176;,
  3;176,169,172;,
  3;173,170,177;,
  3;177,170,176;,
  3;173,178,175;,
  3;178,173,177;,
  3;178,179,175;,
  3;177,176,180;,
  3;176,172,180;,
  3;179,178,181;,
  3;181,182,179;,
  3;183,182,181;,
  3;184,181,178;,
  3;181,185,183;,
  3;185,186,183;,
  3;187,186,185;,
  3;181,184,188;,
  3;188,185,181;,
  3;189,184,178;,
  3;184,189,188;,
  3;178,177,189;,
  3;185,188,190;,
  3;190,188,189;,
  3;185,191,187;,
  3;190,191,185;,
  3;187,191,192;,
  3;193,192,191;,
  3;193,191,190;,
  3;192,193,194;,
  3;189,195,190;,
  3;195,193,190;,
  3;193,196,194;,
  3;196,197,194;,
  3;198,193,195;,
  3;196,193,198;,
  3;196,199,197;,
  3;199,200,197;,
  3;199,201,200;,
  3;202,199,196;,
  3;202,196,198;,
  3;203,201,199;,
  3;202,203,199;,
  3;201,203,204;,
  3;204,203,205;,
  3;206,205,203;,
  3;203,207,206;,
  3;207,203,202;,
  3;207,208,206;,
  3;207,202,209;,
  3;207,209,208;,
  3;202,198,210;,
  3;210,209,202;,
  3;211,210,198;,
  3;198,195,211;,
  3;208,209,212;,
  3;213,208,212;,
  3;195,214,211;,
  3;189,214,195;,
  3;213,212,215;,
  3;216,214,189;,
  3;216,189,177;,
  3;216,177,180;,
  3;214,216,217;,
  3;211,214,217;,
  3;216,180,218;,
  3;217,216,218;,
  3;211,217,219;,
  3;210,211,219;,
  3;220,217,218;,
  3;219,217,220;,
  3;221,218,180;,
  3;218,221,220;,
  3;219,222,210;,
  3;210,222,209;,
  3;219,220,223;,
  3;222,224,209;,
  3;212,209,224;,
  3;212,224,215;,
  3;219,225,222;,
  3;225,224,222;,
  3;215,224,225;,
  3;219,223,225;,
  3;225,226,215;,
  3;215,226,213;,
  3;213,226,227;,
  3;227,226,228;,
  3;226,225,228;,
  3;229,228,225;,
  3;225,223,229;,
  3;228,229,230;,
  3;231,229,223;,
  3;231,230,229;,
  3;223,220,231;,
  3;230,231,232;,
  3;221,231,220;,
  3;233,232,231;,
  3;221,233,231;,
  3;233,234,232;,
  3;235,234,233;,
  3;235,233,236;,
  3;236,233,221;,
  3;235,236,237;,
  3;238,236,221;,
  3;180,238,221;,
  3;237,236,239;,
  3;236,238,239;,
  3;240,237,239;,
  3;172,238,180;,
  3;240,239,241;,
  3;239,238,241;,
  3;242,240,241;,
  3;242,241,243;,
  3;241,238,244;,
  3;244,243,241;,
  3;238,172,244;,
  3;245,243,244;,
  3;244,172,246;,
  3;166,246,172;,
  3;166,156,246;,
  3;244,247,245;,
  3;247,244,246;,
  3;245,247,248;,
  3;249,246,156;,
  3;246,249,247;,
  3;249,156,154;,
  3;250,248,247;,
  3;249,250,247;,
  3;154,250,249;,
  3;248,250,251;,
  3;250,154,155;,
  3;251,250,155;,
  3;252,23,28;,
  3;62,252,28;,
  3;25,23,252;,
  3;252,62,253;,
  3;252,254,25;,
  3;254,252,253;,
  3;25,254,255;,
  3;255,256,25;,
  3;256,255,257;,
  3;254,253,258;,
  3;258,255,254;,
  3;259,253,62;,
  3;258,253,259;,
  3;259,62,66;,
  3;104,259,66;,
  3;255,260,257;,
  3;258,260,255;,
  3;257,260,261;,
  3;262,258,259;,
  3;262,259,104;,
  3;260,258,262;,
  3;262,104,110;,
  3;110,117,262;,
  3;262,117,263;,
  3;260,262,264;,
  3;262,263,264;,
  3;261,260,264;,
  3;264,263,261;,
  3;265,266,267;,
  3;268,266,265;,
  3;265,267,269;,
  3;268,265,270;,
  3;271,268,270;,
  3;269,272,265;,
  3;269,273,272;,
  3;272,273,274;,
  3;265,272,275;,
  3;275,270,265;,
  3;272,274,276;,
  3;276,275,272;,
  3;277,276,274;,
  3;270,278,271;,
  3;271,278,279;,
  3;280,276,277;,
  3;277,281,280;,
  3;282,279,278;,
  3;282,283,279;,
  3;278,284,282;,
  3;284,278,270;,
  3;285,283,282;,
  3;285,282,284;,
  3;270,286,284;,
  3;287,286,270;,
  3;284,286,287;,
  3;270,275,287;,
  3;287,285,284;,
  3;287,275,288;,
  3;275,276,288;,
  3;289,287,288;,
  3;287,289,285;,
  3;276,290,288;,
  3;289,288,290;,
  3;276,280,290;,
  3;285,289,291;,
  3;291,289,290;,
  3;283,285,292;,
  3;283,292,293;,
  3;294,293,292;,
  3;295,292,285;,
  3;291,295,285;,
  3;294,292,296;,
  3;296,292,295;,
  3;296,297,294;,
  3;296,298,297;,
  3;299,296,295;,
  3;300,298,296;,
  3;300,296,299;,
  3;300,301,298;,
  3;300,302,301;,
  3;299,295,303;,
  3;303,295,291;,
  3;299,304,300;,
  3;303,304,299;,
  3;302,300,305;,
  3;305,300,304;,
  3;305,306,302;,
  3;307,304,303;,
  3;307,305,304;,
  3;305,308,306;,
  3;309,306,308;,
  3;310,305,307;,
  3;308,311,309;,
  3;311,312,309;,
  3;305,313,308;,
  3;310,313,305;,
  3;312,311,314;,
  3;314,315,312;,
  3;311,308,316;,
  3;316,314,311;,
  3;308,313,317;,
  3;316,308,317;,
  3;313,310,317;,
  3;314,318,315;,
  3;318,319,315;,
  3;314,316,320;,
  3;320,318,314;,
  3;316,317,321;,
  3;316,321,320;,
  3;317,322,321;,
  3;322,317,310;,
  3;321,322,323;,
  3;323,320,321;,
  3;322,310,324;,
  3;324,323,322;,
  3;324,310,307;,
  3;324,307,325;,
  3;307,303,325;,
  3;323,324,326;,
  3;325,326,324;,
  3;327,325,303;,
  3;327,303,291;,
  3;326,325,328;,
  3;291,329,327;,
  3;329,291,290;,
  3;330,325,327;,
  3;325,330,328;,
  3;290,331,329;,
  3;280,331,290;,
  3;327,329,332;,
  3;331,332,329;,
  3;327,332,333;,
  3;330,327,333;,
  3;331,334,332;,
  3;333,332,334;,
  3;331,280,335;,
  3;335,334,331;,
  3;280,336,335;,
  3;281,336,280;,
  3;336,281,337;,
  3;338,336,337;,
  3;335,339,334;,
  3;339,335,336;,
  3;336,338,339;,
  3;334,339,333;,
  3;338,340,339;,
  3;340,338,341;,
  3;342,340,341;,
  3;343,339,340;,
  3;343,340,342;,
  3;333,339,344;,
  3;339,343,344;,
  3;333,344,345;,
  3;345,344,343;,
  3;346,343,342;,
  3;346,345,343;,
  3;347,346,342;,
  3;345,348,333;,
  3;330,333,348;,
  3;346,347,349;,
  3;349,347,350;,
  3;351,349,350;,
  3;352,345,346;,
  3;349,352,346;,
  3;348,345,352;,
  3;349,351,353;,
  3;352,349,353;,
  3;354,353,351;,
  3;348,352,355;,
  3;352,353,356;,
  3;356,355,352;,
  3;353,354,357;,
  3;357,356,353;,
  3;355,358,348;,
  3;330,348,358;,
  3;359,355,356;,
  3;358,355,359;,
  3;356,357,359;,
  3;328,330,358;,
  3;354,360,357;,
  3;360,354,361;,
  3;360,361,362;,
  3;360,362,363;,
  3;363,362,364;,
  3;357,360,365;,
  3;360,363,365;,
  3;366,363,364;,
  3;364,367,366;,
  3;367,368,366;,
  3;365,363,369;,
  3;363,366,370;,
  3;370,369,363;,
  3;366,368,371;,
  3;371,370,366;,
  3;371,368,372;,
  3;372,368,373;,
  3;372,373,374;,
  3;374,371,372;,
  3;373,375,374;,
  3;374,375,376;,
  3;371,374,376;,
  3;376,377,371;,
  3;376,378,377;,
  3;378,379,377;,
  3;371,380,370;,
  3;380,371,377;,
  3;370,380,381;,
  3;370,381,369;,
  3;382,380,377;,
  3;380,382,381;,
  3;377,379,383;,
  3;377,383,382;,
  3;379,384,383;,
  3;383,384,385;,
  3;383,385,386;,
  3;387,386,385;,
  3;382,383,388;,
  3;383,386,388;,
  3;387,389,386;,
  3;388,386,389;,
  3;389,387,390;,
  3;389,390,391;,
  3;382,388,392;,
  3;392,381,382;,
  3;391,393,389;,
  3;394,393,391;,
  3;393,394,395;,
  3;389,396,388;,
  3;393,395,397;,
  3;395,398,397;,
  3;399,397,398;,
  3;400,389,393;,
  3;389,400,396;,
  3;399,401,397;,
  3;401,393,397;,
  3;402,401,399;,
  3;403,400,393;,
  3;393,401,403;,
  3;401,402,404;,
  3;402,405,404;,
  3;406,401,404;,
  3;403,401,406;,
  3;404,405,407;,
  3;404,407,406;,
  3;405,408,407;,
  3;409,400,403;,
  3;396,400,409;,
  3;403,406,410;,
  3;409,403,410;,
  3;411,406,407;,
  3;411,410,406;,
  3;407,408,412;,
  3;407,412,411;,
  3;408,413,412;,
  3;413,411,412;,
  3;408,414,413;,
  3;413,414,415;,
  3;414,416,415;,
  3;415,416,319;,
  3;319,318,415;,
  3;417,413,415;,
  3;318,417,415;,
  3;417,411,413;,
  3;318,320,417;,
  3;417,418,411;,
  3;418,410,411;,
  3;417,320,419;,
  3;320,323,419;,
  3;420,418,417;,
  3;417,419,420;,
  3;421,410,418;,
  3;410,421,409;,
  3;409,421,396;,
  3;421,418,422;,
  3;418,420,422;,
  3;396,421,423;,
  3;422,424,421;,
  3;421,424,423;,
  3;420,425,422;,
  3;423,426,396;,
  3;420,427,425;,
  3;396,426,428;,
  3;396,428,388;,
  3;388,428,392;,
  3;426,429,428;,
  3;428,429,392;,
  3;423,430,426;,
  3;429,426,430;,
  3;430,423,431;,
  3;424,431,423;,
  3;430,432,429;,
  3;432,430,431;,
  3;392,429,433;,
  3;381,392,433;,
  3;434,429,432;,
  3;433,429,434;,
  3;381,433,435;,
  3;369,381,435;,
  3;433,434,436;,
  3;435,433,436;,
  3;434,432,437;,
  3;436,434,437;,
  3;369,435,438;,
  3;369,438,365;,
  3;357,365,438;,
  3;435,439,438;,
  3;435,436,439;,
  3;438,440,357;,
  3;439,440,438;,
  3;440,359,357;,
  3;439,441,440;,
  3;440,441,359;,
  3;436,441,439;,
  3;441,442,359;,
  3;436,442,441;,
  3;436,437,442;,
  3;442,358,359;,
  3;443,358,442;,
  3;437,443,442;,
  3;358,443,328;,
  3;432,444,437;,
  3;444,443,437;,
  3;432,431,444;,
  3;443,445,328;,
  3;328,445,326;,
  3;443,444,446;,
  3;446,445,443;,
  3;444,431,447;,
  3;444,447,446;,
  3;431,424,447;,
  3;422,447,424;,
  3;446,447,448;,
  3;422,448,447;,
  3;445,446,448;,
  3;448,422,425;,
  3;448,425,427;,
  3;445,449,326;,
  3;326,449,323;,
  3;448,450,445;,
  3;445,450,449;,
  3;450,448,427;,
  3;323,449,450;,
  3;450,451,323;,
  3;450,427,451;,
  3;419,323,451;,
  3;451,427,452;,
  3;451,452,419;,
  3;420,452,427;,
  3;419,452,420;;

  MeshNormals {
   453;
   0.272520;0.287527;0.918184;,
   0.281219;-0.267080;0.921729;,
   0.708595;-0.109254;0.697105;,
   0.846430;0.164847;0.506341;,
   0.414413;0.606200;0.678811;,
   0.812613;0.431589;0.391652;,
   0.257616;0.389864;0.884104;,
   0.290774;0.755048;0.587667;,
   0.685259;0.622750;0.377629;,
   0.184732;0.722696;0.666021;,
   0.150866;0.389503;0.908585;,
   -0.328109;0.264029;0.906991;,
   0.286586;0.811071;0.509934;,
   0.211070;0.770230;0.601826;,
   -0.435875;0.269338;0.858761;,
   0.286498;0.919532;0.269033;,
   0.629457;0.699225;0.338922;,
   0.185304;0.901862;0.390267;,
   0.077491;0.770471;0.632748;,
   -0.260166;0.259030;0.930170;,
   0.245517;0.725394;0.643059;,
   -0.329483;0.366409;0.870164;,
   0.317612;0.869727;0.377753;,
   0.100808;0.657779;0.746434;,
   -0.456031;0.313001;0.833106;,
   -0.410130;0.368948;0.834069;,
   0.347435;0.753913;0.557588;,
   0.338923;0.903559;0.262131;,
   0.309550;0.670047;0.674697;,
   0.288396;0.931563;0.221401;,
   0.608038;0.513550;0.605438;,
   0.468011;0.762514;0.446696;,
   0.608940;0.583350;0.537490;,
   0.295211;0.861670;0.412765;,
   0.163998;0.949265;0.268330;,
   0.552522;0.731505;0.399525;,
   0.876270;0.299587;0.377357;,
   0.958721;0.233882;0.161718;,
   0.152872;0.929097;0.336762;,
   0.512283;0.828818;0.225004;,
   0.980627;0.191324;0.042027;,
   0.554754;0.787267;0.269182;,
   0.500516;0.827622;0.254019;,
   0.989417;0.070121;0.127035;,
   0.861107;0.494006;0.120224;,
   0.181155;0.934776;0.305575;,
   0.244934;0.894387;0.374271;,
   0.716565;0.683121;0.140998;,
   0.479953;0.801779;0.356084;,
   0.399243;0.814331;0.421272;,
   0.286196;0.852192;0.438019;,
   0.631256;0.660243;0.406935;,
   0.805279;0.579489;0.125371;,
   0.660761;0.620452;0.422414;,
   0.818715;0.486514;0.304976;,
   0.765272;0.475517;0.433868;,
   0.897623;0.316396;0.306867;,
   0.865412;0.363144;0.345237;,
   0.578627;0.535515;0.615154;,
   0.609480;0.662369;0.435662;,
   0.462026;0.590750;0.661473;,
   0.428431;0.742103;0.515490;,
   0.220903;0.859059;0.461757;,
   0.219518;0.856304;0.467499;,
   0.667702;0.618507;0.414274;,
   0.245230;0.843994;0.477008;,
   0.223318;0.845007;0.485894;,
   0.230884;0.832415;0.503765;,
   0.216998;0.848188;0.483207;,
   0.646540;0.644843;0.407631;,
   0.859076;0.431504;0.275303;,
   0.226894;0.811928;0.537858;,
   0.811003;0.563618;0.156869;,
   0.661652;0.663731;0.348824;,
   0.914037;0.405219;0.018253;,
   0.820898;0.570522;0.025113;,
   0.920237;0.391290;-0.007424;,
   0.965135;0.245516;-0.090754;,
   0.850148;0.524346;-0.048061;,
   0.849905;0.526934;-0.001539;,
   0.984159;0.117265;-0.132969;,
   0.791626;0.544342;-0.277525;,
   0.940946;0.187608;-0.281822;,
   0.766906;0.526737;-0.366612;,
   0.667093;0.530747;-0.522775;,
   0.652798;0.528180;-0.543029;,
   0.907379;0.269812;-0.322280;,
   0.823417;0.412965;-0.389158;,
   0.569865;0.535904;-0.622945;,
   0.899221;0.177294;-0.399960;,
   0.744070;0.656905;-0.121802;,
   0.560748;0.564713;-0.605525;,
   0.360428;0.858574;0.364614;,
   0.511037;0.797248;-0.321304;,
   0.528242;0.603618;-0.597164;,
   0.429170;0.570246;-0.700451;,
   0.312541;0.915509;0.253301;,
   0.414922;0.815765;-0.402948;,
   0.217868;0.846017;0.486610;,
   0.228044;0.968344;0.101520;,
   0.190651;0.824228;0.533199;,
   0.173246;0.855376;0.488178;,
   0.147217;0.848827;0.507759;,
   0.212465;0.848897;0.483975;,
   0.186113;0.861236;0.472900;,
   -0.452714;0.876704;0.162606;,
   -0.507849;0.807645;0.299665;,
   -0.339537;0.935238;0.100223;,
   -0.304951;0.952327;-0.008896;,
   -0.202229;0.790300;-0.578386;,
   0.105496;0.848803;0.518078;,
   -0.415859;0.900853;0.124604;,
   0.235886;0.699367;-0.674718;,
   -0.542937;0.528821;-0.652355;,
   0.262183;0.614060;-0.744439;,
   -0.647986;0.474007;-0.596181;,
   -0.587466;0.722732;0.364064;,
   -0.709043;0.583913;0.395352;,
   0.210939;0.637589;-0.740935;,
   -0.649838;0.463948;-0.602049;,
   -0.565800;0.459972;-0.684322;,
   0.344028;0.633014;-0.693497;,
   0.233364;0.561910;-0.793599;,
   -0.494688;0.321640;-0.807361;,
   -0.594785;0.197115;-0.779344;,
   0.315327;0.593694;-0.740335;,
   0.143566;0.546761;-0.824888;,
   -0.642994;0.058527;-0.763632;,
   -0.557621;0.105485;-0.823366;,
   0.487192;0.538470;-0.687527;,
   0.357217;0.541120;-0.761305;,
   0.247645;0.451814;-0.857051;,
   -0.520361;-0.015427;-0.853807;,
   0.554157;0.539058;-0.634292;,
   0.470534;0.542991;-0.695528;,
   0.387183;0.505818;-0.770868;,
   0.499413;0.507000;-0.702522;,
   0.884929;0.040232;-0.463986;,
   0.438223;0.256008;-0.861638;,
   0.801132;-0.262280;-0.537956;,
   0.598814;-0.348098;-0.721283;,
   0.144997;0.257068;-0.955454;,
   -0.526759;-0.162282;-0.834379;,
   -0.472308;-0.243882;-0.847022;,
   0.186418;-0.040546;-0.981634;,
   -0.037946;-0.527031;-0.848998;,
   0.708595;-0.109254;0.697105;,
   0.281219;-0.267080;0.921729;,
   0.422156;-0.679489;0.600066;,
   0.912161;-0.377466;0.159630;,
   0.846430;0.164847;0.506341;,
   0.524127;-0.556081;0.645031;,
   0.994078;-0.101429;0.038992;,
   0.812613;0.431589;0.391652;,
   0.906971;-0.345346;0.241121;,
   0.513472;-0.550614;0.658157;,
   0.961132;-0.261440;0.088741;,
   0.990474;0.105616;0.088352;,
   0.685259;0.622750;0.377629;,
   0.982308;-0.158074;0.100418;,
   0.953605;0.145640;0.263490;,
   0.629457;0.699225;0.338922;,
   0.876270;0.299587;0.377357;,
   0.982684;-0.160221;0.093068;,
   0.993605;-0.024893;0.110137;,
   0.958721;0.233882;0.161718;,
   0.962263;-0.263554;0.067746;,
   0.964869;-0.255097;-0.062875;,
   0.980627;0.191324;0.042027;,
   0.967881;-0.215187;-0.130002;,
   0.950150;-0.279030;-0.139133;,
   0.989417;0.070121;0.127035;,
   0.960647;-0.200136;-0.192623;,
   0.985414;-0.053085;-0.161681;,
   0.861107;0.494006;0.120224;,
   0.716565;0.683121;0.140998;,
   0.950597;-0.254111;-0.178308;,
   0.928807;-0.341330;-0.144263;,
   0.995183;-0.046176;-0.086478;,
   0.805279;0.579489;0.125371;,
   0.946057;-0.246666;-0.210077;,
   0.980015;0.163419;-0.113423;,
   0.920237;0.391290;-0.007424;,
   0.965135;0.245516;-0.090754;,
   0.977611;-0.162947;-0.133140;,
   0.978445;-0.049294;-0.200539;,
   0.984159;0.117265;-0.132969;,
   0.940946;0.187608;-0.281822;,
   0.968363;-0.149919;-0.199493;,
   0.922715;-0.376894;-0.080917;,
   0.957765;-0.254444;-0.133959;,
   0.994508;-0.050716;-0.091557;,
   0.907379;0.269812;-0.322280;,
   0.970309;-0.200895;-0.134694;,
   0.899221;0.177294;-0.399960;,
   0.915750;-0.382193;-0.123815;,
   0.909576;-0.391655;-0.138845;,
   0.884929;0.040232;-0.463986;,
   0.887839;-0.412466;-0.203993;,
   0.858052;-0.488720;-0.157798;,
   0.801132;-0.262280;-0.537956;,
   0.598814;-0.348098;-0.721283;,
   0.880114;-0.448020;-0.157092;,
   0.736326;-0.557306;-0.383712;,
   -0.037946;-0.527031;-0.848998;,
   -0.035985;-0.718280;-0.694823;,
   0.050751;-0.837484;-0.544100;,
   0.718695;-0.602116;-0.347756;,
   -0.031234;-0.872201;-0.488150;,
   0.677034;-0.688896;-0.258934;,
   0.893737;-0.384564;-0.230963;,
   0.931726;-0.339165;-0.129826;,
   0.567101;-0.774074;-0.281436;,
   -0.178152;-0.703545;-0.687958;,
   0.939969;-0.340591;-0.021363;,
   0.616965;-0.512707;-0.597065;,
   0.940911;-0.299698;-0.157693;,
   0.964783;-0.260723;-0.034878;,
   0.952408;-0.238581;-0.189731;,
   0.960928;-0.255874;-0.105575;,
   0.975707;-0.214173;-0.046109;,
   0.954922;-0.230887;-0.186588;,
   0.819537;-0.414090;-0.396091;,
   0.918504;-0.348165;-0.187432;,
   0.621055;-0.663613;-0.417023;,
   0.769395;-0.481364;-0.419905;,
   0.442906;-0.657676;-0.609341;,
   -0.376031;-0.780887;-0.498815;,
   -0.071717;-0.982447;-0.172204;,
   0.731392;-0.635050;-0.248550;,
   0.004109;-0.990512;-0.137365;,
   0.876520;-0.426952;-0.222316;,
   0.224217;-0.949453;-0.219693;,
   0.873603;-0.483630;-0.054034;,
   0.190806;-0.977143;0.093731;,
   -0.061692;-0.986162;0.153877;,
   0.817533;-0.544377;-0.187867;,
   -0.127185;-0.991834;0.009499;,
   0.947821;-0.201759;-0.246836;,
   0.764927;-0.533115;-0.361490;,
   -0.021459;-0.999161;0.034888;,
   0.840112;-0.487698;-0.237407;,
   0.133427;-0.966747;0.218169;,
   0.412635;-0.868496;0.274675;,
   0.964664;-0.199584;-0.172017;,
   0.356462;-0.890090;0.284034;,
   0.982431;-0.184069;-0.030785;,
   0.921558;-0.373557;0.105768;,
   0.208111;-0.851525;0.481243;,
   0.976074;-0.187010;0.110933;,
   0.886808;-0.384037;0.257075;,
   0.221437;-0.809494;0.543770;,
   0.139029;0.755206;0.640573;,
   0.160191;0.814518;0.557584;,
   -0.055899;0.627304;0.776766;,
   -0.399261;0.411978;0.819063;,
   -0.700393;0.073918;0.709919;,
   -0.754178;-0.038495;0.655541;,
   0.117689;0.781556;0.612634;,
   0.204800;0.860327;0.466792;,
   -0.288157;0.602523;0.744266;,
   -0.788509;0.246926;0.563277;,
   0.034810;0.901242;0.431917;,
   -0.729734;0.613092;0.302666;,
   -0.226531;0.823248;0.520525;,
   -0.120960;-0.219072;0.968182;,
   0.281219;-0.267080;0.921729;,
   0.272520;0.287527;0.918184;,
   0.422156;-0.679489;0.600066;,
   0.257616;0.389864;0.884104;,
   -0.177078;-0.447799;0.876425;,
   0.524127;-0.556081;0.645031;,
   -0.315870;-0.222238;0.922408;,
   0.150866;0.389503;0.908585;,
   -0.328109;0.264029;0.906991;,
   -0.562172;-0.171667;0.809007;,
   -0.604070;-0.247852;0.757409;,
   -0.435875;0.269338;0.858761;,
   0.078573;-0.512674;0.854981;,
   0.513472;-0.550614;0.658157;,
   -0.514505;-0.427997;0.743036;,
   -0.260166;0.259030;0.930170;,
   -0.282336;-0.714244;0.640424;,
   0.221437;-0.809494;0.543770;,
   -0.358738;-0.693758;0.624505;,
   -0.610405;-0.679548;0.406965;,
   -0.375564;-0.600797;0.705687;,
   -0.590858;-0.375680;0.713969;,
   -0.703535;-0.349507;0.618775;,
   -0.683276;-0.647772;0.336935;,
   -0.703927;-0.428456;0.566491;,
   -0.722976;-0.625539;0.293270;,
   -0.546150;-0.737698;0.396889;,
   0.208111;-0.851525;0.481243;,
   0.356462;-0.890090;0.284034;,
   -0.693086;-0.632268;0.346220;,
   -0.550655;-0.744390;0.377707;,
   0.412635;-0.868496;0.274675;,
   0.133427;-0.966747;0.218169;,
   -0.718070;-0.624277;0.307658;,
   -0.671738;-0.683006;0.286830;,
   -0.021459;-0.999161;0.034888;,
   -0.127185;-0.991834;0.009499;,
   -0.756261;-0.606987;0.244202;,
   -0.771185;-0.589014;0.241529;,
   -0.829660;-0.535489;0.157848;,
   -0.061692;-0.986162;0.153877;,
   -0.789206;-0.577786;0.208128;,
   -0.862347;-0.485561;0.143483;,
   0.190806;-0.977143;0.093731;,
   -0.820837;-0.561174;-0.106348;,
   -0.645409;-0.762514;0.044930;,
   0.224217;-0.949453;-0.219693;,
   -0.953628;-0.298281;0.040271;,
   -0.841717;-0.539321;0.025406;,
   0.004109;-0.990512;-0.137365;,
   -0.923209;-0.357916;0.139931;,
   -0.851703;-0.506924;-0.132780;,
   -0.836581;-0.545359;0.052122;,
   -0.071717;-0.982447;-0.172204;,
   -0.854279;-0.515426;-0.067415;,
   -0.808184;-0.583093;-0.082711;,
   -0.762468;-0.640730;-0.090043;,
   -0.696870;-0.705721;-0.127790;,
   -0.732482;-0.669019;0.126028;,
   -0.743954;-0.634930;0.208318;,
   -0.731962;-0.672402;0.110034;,
   -0.747732;-0.615524;0.249051;,
   -0.826752;-0.544890;0.139918;,
   -0.735289;-0.613626;0.287772;,
   -0.798954;-0.564289;0.207968;,
   -0.706195;-0.518993;0.481596;,
   -0.769335;-0.566074;0.296114;,
   -0.794286;-0.514360;0.323333;,
   -0.806156;-0.485113;0.338789;,
   -0.747926;-0.435027;0.501356;,
   -0.648559;-0.316583;0.692204;,
   -0.329483;0.366409;0.870164;,
   -0.456031;0.313001;0.833106;,
   -0.782637;-0.440908;0.439408;,
   -0.697366;-0.316163;0.643212;,
   -0.410130;0.368948;0.834069;,
   -0.700393;0.073918;0.709919;,
   -0.819784;-0.413789;0.395896;,
   -0.724803;-0.550779;0.413888;,
   -0.821540;-0.507866;0.259123;,
   -0.875051;-0.266655;0.403957;,
   -0.754178;-0.038495;0.655541;,
   -0.801885;-0.577385;0.153644;,
   -0.938536;-0.140526;0.315282;,
   -0.788509;0.246926;0.563277;,
   -0.729734;0.613092;0.302666;,
   -0.879977;-0.385497;0.277548;,
   -0.974981;-0.106371;0.195186;,
   -0.709043;0.583913;0.395352;,
   -0.894833;-0.419376;0.152964;,
   -0.972982;-0.180317;0.144196;,
   -0.987406;-0.134919;0.082620;,
   -0.816261;-0.573322;0.070852;,
   -0.888475;-0.458819;0.009883;,
   -0.953679;0.266868;-0.138847;,
   -0.587466;0.722732;0.364064;,
   -0.415859;0.900853;0.124604;,
   -0.746523;0.482573;-0.458069;,
   -0.339537;0.935238;0.100223;,
   -0.969598;0.146270;-0.196178;,
   -0.851212;0.420013;-0.314687;,
   -0.452714;0.876704;0.162606;,
   -0.507849;0.807645;0.299665;,
   -0.784372;0.326800;-0.527221;,
   -0.862126;0.256197;-0.437152;,
   -0.959553;0.186904;-0.210538;,
   -0.896555;0.442911;0.004374;,
   -0.304951;0.952327;-0.008896;,
   -0.842187;0.445444;-0.303812;,
   -0.202229;0.790300;-0.578386;,
   -0.542937;0.528821;-0.652355;,
   -0.981577;0.043797;-0.185980;,
   -0.647986;0.474007;-0.596181;,
   -0.649838;0.463948;-0.602049;,
   -0.916652;0.148338;-0.371139;,
   -0.830839;0.257085;-0.493574;,
   -0.948137;0.142551;-0.284105;,
   -0.980215;0.088995;-0.176801;,
   -0.565800;0.459972;-0.684322;,
   -0.494688;0.321640;-0.807361;,
   -0.963574;-0.139228;-0.228342;,
   -0.594785;0.197115;-0.779344;,
   -0.947009;-0.067816;-0.313966;,
   -0.909027;-0.326324;-0.259198;,
   -0.642994;0.058527;-0.763632;,
   -0.557621;0.105485;-0.823366;,
   -0.847030;0.012544;-0.531397;,
   -0.879390;-0.335748;-0.337559;,
   -0.520361;-0.015427;-0.853807;,
   -0.526759;-0.162282;-0.834379;,
   -0.906461;-0.325517;-0.269011;,
   -0.816622;-0.353882;-0.455957;,
   -0.472308;-0.243882;-0.847022;,
   -0.037946;-0.527031;-0.848998;,
   -0.902377;-0.336346;-0.269420;,
   -0.823639;-0.334658;-0.457847;,
   -0.035985;-0.718280;-0.694823;,
   -0.905563;-0.315277;-0.283826;,
   -0.655439;-0.480994;-0.582275;,
   0.050751;-0.837484;-0.544100;,
   -0.905205;-0.301466;-0.299538;,
   -0.755961;-0.524339;-0.391908;,
   -0.031234;-0.872201;-0.488150;,
   -0.914046;-0.341905;-0.218223;,
   -0.926816;-0.333029;-0.173502;,
   -0.927407;-0.319380;-0.194714;,
   -0.844602;-0.430764;-0.317945;,
   -0.789981;-0.446409;-0.420296;,
   -0.178152;-0.703545;-0.687958;,
   -0.871402;-0.465138;-0.155901;,
   -0.376031;-0.780887;-0.498815;,
   -0.945533;-0.318574;-0.066913;,
   -0.930381;-0.314781;-0.187892;,
   -0.862264;-0.493521;-0.113745;,
   -0.903398;-0.419510;-0.088784;,
   -0.882379;-0.377381;-0.281053;,
   -0.676769;-0.499847;-0.540496;,
   -0.834893;-0.396251;-0.382019;,
   -0.807605;-0.404309;-0.429312;,
   -0.638217;-0.652367;-0.408774;,
   -0.818293;-0.397646;-0.415061;,
   -0.603586;-0.594352;-0.531441;,
   -0.857860;-0.266463;-0.439401;,
   -0.686927;-0.274388;-0.672936;,
   -0.587185;-0.437474;-0.681052;,
   -0.606411;-0.410057;-0.681263;,
   -0.523429;-0.449054;-0.724136;,
   -0.799555;0.008219;-0.600536;,
   -0.841341;-0.258094;-0.474904;,
   -0.880156;0.017863;-0.474348;,
   -0.907659;-0.328393;-0.261370;,
   -0.848525;-0.488552;-0.203282;,
   -0.924930;0.094952;-0.368088;,
   -0.912996;-0.321173;-0.251568;,
   -0.966050;-0.242922;-0.087953;,
   -0.895348;-0.426505;-0.128242;,
   -0.849865;-0.525329;-0.041947;,
   -0.866973;-0.498336;-0.004463;,
   -0.736272;-0.410731;-0.537777;,
   -0.855792;-0.515741;0.040384;,
   -0.745835;-0.417123;-0.519364;,
   -0.527654;-0.388185;-0.755575;,
   -0.520910;-0.690110;-0.502395;,
   -0.740391;-0.671238;0.035496;,
   -0.650359;-0.713299;-0.261226;,
   -0.652350;-0.589344;-0.476563;,
   -0.854571;-0.335793;-0.396171;;
   748;
   3;0,1,2;,
   3;3,0,2;,
   3;0,3,4;,
   3;5,4,3;,
   3;4,6,0;,
   3;5,7,4;,
   3;6,4,7;,
   3;7,5,8;,
   3;7,9,6;,
   3;6,9,10;,
   3;11,10,9;,
   3;8,12,7;,
   3;7,12,9;,
   3;11,9,13;,
   3;12,13,9;,
   3;13,14,11;,
   3;15,12,8;,
   3;8,16,15;,
   3;17,13,12;,
   3;12,15,17;,
   3;18,14,13;,
   3;13,17,18;,
   3;18,19,14;,
   3;19,18,20;,
   3;19,20,21;,
   3;22,18,17;,
   3;22,20,18;,
   3;20,23,21;,
   3;23,24,21;,
   3;24,23,25;,
   3;20,22,26;,
   3;23,20,26;,
   3;27,22,17;,
   3;28,23,26;,
   3;27,17,29;,
   3;17,15,29;,
   3;26,22,30;,
   3;26,30,28;,
   3;31,22,27;,
   3;22,31,30;,
   3;31,27,32;,
   3;30,31,32;,
   3;29,33,27;,
   3;33,32,27;,
   3;29,15,34;,
   3;29,34,33;,
   3;34,15,16;,
   3;35,34,16;,
   3;16,36,35;,
   3;35,36,37;,
   3;34,38,33;,
   3;34,35,38;,
   3;35,37,39;,
   3;38,35,39;,
   3;40,39,37;,
   3;38,41,33;,
   3;33,41,32;,
   3;39,40,42;,
   3;42,40,43;,
   3;42,43,44;,
   3;38,39,45;,
   3;39,42,45;,
   3;42,44,46;,
   3;45,42,46;,
   3;44,47,46;,
   3;38,45,48;,
   3;48,41,38;,
   3;32,41,48;,
   3;45,46,49;,
   3;45,49,48;,
   3;47,50,46;,
   3;50,49,46;,
   3;51,50,47;,
   3;47,52,51;,
   3;49,50,53;,
   3;50,51,53;,
   3;54,48,49;,
   3;54,49,53;,
   3;55,48,54;,
   3;48,55,32;,
   3;56,54,53;,
   3;55,54,56;,
   3;51,57,53;,
   3;56,53,57;,
   3;58,32,55;,
   3;32,58,30;,
   3;59,55,56;,
   3;58,60,30;,
   3;60,28,30;,
   3;55,61,58;,
   3;60,58,61;,
   3;61,55,59;,
   3;28,60,62;,
   3;61,62,60;,
   3;59,63,61;,
   3;61,63,62;,
   3;64,59,56;,
   3;56,57,64;,
   3;63,59,65;,
   3;64,65,59;,
   3;66,63,65;,
   3;66,62,63;,
   3;65,64,67;,
   3;66,65,68;,
   3;68,65,67;,
   3;64,57,69;,
   3;64,69,67;,
   3;57,70,69;,
   3;57,51,70;,
   3;71,67,69;,
   3;51,72,70;,
   3;51,52,72;,
   3;73,69,70;,
   3;69,73,71;,
   3;70,72,74;,
   3;70,74,73;,
   3;75,72,52;,
   3;75,52,76;,
   3;77,75,76;,
   3;72,75,78;,
   3;72,78,74;,
   3;79,75,77;,
   3;75,79,78;,
   3;80,79,77;,
   3;79,80,81;,
   3;78,79,81;,
   3;82,81,80;,
   3;81,83,78;,
   3;74,78,83;,
   3;84,81,82;,
   3;81,84,83;,
   3;82,85,84;,
   3;85,82,86;,
   3;83,87,74;,
   3;85,86,88;,
   3;89,88,86;,
   3;74,87,90;,
   3;73,74,90;,
   3;83,91,87;,
   3;91,90,87;,
   3;90,92,73;,
   3;92,71,73;,
   3;90,91,93;,
   3;93,92,90;,
   3;94,91,83;,
   3;84,94,83;,
   3;93,91,95;,
   3;95,91,94;,
   3;96,92,93;,
   3;97,93,95;,
   3;97,96,93;,
   3;98,92,96;,
   3;98,71,92;,
   3;99,96,97;,
   3;99,98,96;,
   3;100,71,98;,
   3;71,100,101;,
   3;71,101,67;,
   3;68,67,101;,
   3;102,100,98;,
   3;98,99,102;,
   3;101,100,103;,
   3;103,68,101;,
   3;100,102,103;,
   3;103,104,68;,
   3;68,104,66;,
   3;105,103,102;,
   3;102,106,105;,
   3;106,102,99;,
   3;107,103,105;,
   3;106,99,108;,
   3;99,109,108;,
   3;103,107,110;,
   3;103,110,104;,
   3;111,110,107;,
   3;109,99,112;,
   3;99,97,112;,
   3;112,113,109;,
   3;114,112,97;,
   3;112,114,113;,
   3;97,95,114;,
   3;115,113,114;,
   3;111,116,117;,
   3;117,110,111;,
   3;115,114,118;,
   3;118,114,95;,
   3;118,119,115;,
   3;120,119,118;,
   3;118,95,121;,
   3;94,121,95;,
   3;118,122,120;,
   3;121,122,118;,
   3;122,123,120;,
   3;124,123,122;,
   3;125,121,94;,
   3;121,125,122;,
   3;122,126,124;,
   3;122,125,126;,
   3;124,126,127;,
   3;127,126,128;,
   3;94,129,125;,
   3;129,94,84;,
   3;126,125,130;,
   3;129,130,125;,
   3;126,131,128;,
   3;126,130,131;,
   3;128,131,132;,
   3;84,133,129;,
   3;130,129,133;,
   3;85,133,84;,
   3;88,133,85;,
   3;133,134,130;,
   3;133,88,134;,
   3;130,134,135;,
   3;130,135,131;,
   3;136,134,88;,
   3;136,135,134;,
   3;136,88,89;,
   3;89,137,136;,
   3;138,136,137;,
   3;138,135,136;,
   3;137,139,138;,
   3;140,138,139;,
   3;135,141,131;,
   3;138,141,135;,
   3;131,141,132;,
   3;141,142,132;,
   3;143,142,141;,
   3;140,144,138;,
   3;141,138,144;,
   3;144,143,141;,
   3;145,144,140;,
   3;143,144,145;,
   3;146,147,148;,
   3;146,148,149;,
   3;149,150,146;,
   3;149,148,151;,
   3;152,150,149;,
   3;152,153,150;,
   3;154,149,151;,
   3;151,155,154;,
   3;156,152,149;,
   3;149,154,156;,
   3;153,152,157;,
   3;157,158,153;,
   3;152,159,157;,
   3;152,156,159;,
   3;158,157,160;,
   3;159,160,157;,
   3;160,161,158;,
   3;161,160,162;,
   3;160,159,163;,
   3;162,160,164;,
   3;164,160,163;,
   3;162,164,165;,
   3;163,159,166;,
   3;156,166,159;,
   3;167,165,164;,
   3;165,167,168;,
   3;163,169,164;,
   3;169,167,164;,
   3;169,163,166;,
   3;168,167,170;,
   3;170,167,169;,
   3;170,171,168;,
   3;169,166,172;,
   3;173,171,170;,
   3;173,174,171;,
   3;174,173,175;,
   3;170,169,176;,
   3;176,169,172;,
   3;173,170,177;,
   3;177,170,176;,
   3;173,178,175;,
   3;178,173,177;,
   3;178,179,175;,
   3;177,176,180;,
   3;176,172,180;,
   3;179,178,181;,
   3;181,182,179;,
   3;183,182,181;,
   3;184,181,178;,
   3;181,185,183;,
   3;185,186,183;,
   3;187,186,185;,
   3;181,184,188;,
   3;188,185,181;,
   3;189,184,178;,
   3;184,189,188;,
   3;178,177,189;,
   3;185,188,190;,
   3;190,188,189;,
   3;185,191,187;,
   3;190,191,185;,
   3;187,191,192;,
   3;193,192,191;,
   3;193,191,190;,
   3;192,193,194;,
   3;189,195,190;,
   3;195,193,190;,
   3;193,196,194;,
   3;196,197,194;,
   3;198,193,195;,
   3;196,193,198;,
   3;196,199,197;,
   3;199,200,197;,
   3;199,201,200;,
   3;202,199,196;,
   3;202,196,198;,
   3;203,201,199;,
   3;202,203,199;,
   3;201,203,204;,
   3;204,203,205;,
   3;206,205,203;,
   3;203,207,206;,
   3;207,203,202;,
   3;207,208,206;,
   3;207,202,209;,
   3;207,209,208;,
   3;202,198,210;,
   3;210,209,202;,
   3;211,210,198;,
   3;198,195,211;,
   3;208,209,212;,
   3;213,208,212;,
   3;195,214,211;,
   3;189,214,195;,
   3;213,212,215;,
   3;216,214,189;,
   3;216,189,177;,
   3;216,177,180;,
   3;214,216,217;,
   3;211,214,217;,
   3;216,180,218;,
   3;217,216,218;,
   3;211,217,219;,
   3;210,211,219;,
   3;220,217,218;,
   3;219,217,220;,
   3;221,218,180;,
   3;218,221,220;,
   3;219,222,210;,
   3;210,222,209;,
   3;219,220,223;,
   3;222,224,209;,
   3;212,209,224;,
   3;212,224,215;,
   3;219,225,222;,
   3;225,224,222;,
   3;215,224,225;,
   3;219,223,225;,
   3;225,226,215;,
   3;215,226,213;,
   3;213,226,227;,
   3;227,226,228;,
   3;226,225,228;,
   3;229,228,225;,
   3;225,223,229;,
   3;228,229,230;,
   3;231,229,223;,
   3;231,230,229;,
   3;223,220,231;,
   3;230,231,232;,
   3;221,231,220;,
   3;233,232,231;,
   3;221,233,231;,
   3;233,234,232;,
   3;235,234,233;,
   3;235,233,236;,
   3;236,233,221;,
   3;235,236,237;,
   3;238,236,221;,
   3;180,238,221;,
   3;237,236,239;,
   3;236,238,239;,
   3;240,237,239;,
   3;172,238,180;,
   3;240,239,241;,
   3;239,238,241;,
   3;242,240,241;,
   3;242,241,243;,
   3;241,238,244;,
   3;244,243,241;,
   3;238,172,244;,
   3;245,243,244;,
   3;244,172,246;,
   3;166,246,172;,
   3;166,156,246;,
   3;244,247,245;,
   3;247,244,246;,
   3;245,247,248;,
   3;249,246,156;,
   3;246,249,247;,
   3;249,156,154;,
   3;250,248,247;,
   3;249,250,247;,
   3;154,250,249;,
   3;248,250,251;,
   3;250,154,155;,
   3;251,250,155;,
   3;252,23,28;,
   3;62,252,28;,
   3;25,23,252;,
   3;252,62,253;,
   3;252,254,25;,
   3;254,252,253;,
   3;25,254,255;,
   3;255,256,25;,
   3;256,255,257;,
   3;254,253,258;,
   3;258,255,254;,
   3;259,253,62;,
   3;258,253,259;,
   3;259,62,66;,
   3;104,259,66;,
   3;255,260,257;,
   3;258,260,255;,
   3;257,260,261;,
   3;262,258,259;,
   3;262,259,104;,
   3;260,258,262;,
   3;262,104,110;,
   3;110,117,262;,
   3;262,117,263;,
   3;260,262,264;,
   3;262,263,264;,
   3;261,260,264;,
   3;264,263,261;,
   3;265,266,267;,
   3;268,266,265;,
   3;265,267,269;,
   3;268,265,270;,
   3;271,268,270;,
   3;269,272,265;,
   3;269,273,272;,
   3;272,273,274;,
   3;265,272,275;,
   3;275,270,265;,
   3;272,274,276;,
   3;276,275,272;,
   3;277,276,274;,
   3;270,278,271;,
   3;271,278,279;,
   3;280,276,277;,
   3;277,281,280;,
   3;282,279,278;,
   3;282,283,279;,
   3;278,284,282;,
   3;284,278,270;,
   3;285,283,282;,
   3;285,282,284;,
   3;270,286,284;,
   3;287,286,270;,
   3;284,286,287;,
   3;270,275,287;,
   3;287,285,284;,
   3;287,275,288;,
   3;275,276,288;,
   3;289,287,288;,
   3;287,289,285;,
   3;276,290,288;,
   3;289,288,290;,
   3;276,280,290;,
   3;285,289,291;,
   3;291,289,290;,
   3;283,285,292;,
   3;283,292,293;,
   3;294,293,292;,
   3;295,292,285;,
   3;291,295,285;,
   3;294,292,296;,
   3;296,292,295;,
   3;296,297,294;,
   3;296,298,297;,
   3;299,296,295;,
   3;300,298,296;,
   3;300,296,299;,
   3;300,301,298;,
   3;300,302,301;,
   3;299,295,303;,
   3;303,295,291;,
   3;299,304,300;,
   3;303,304,299;,
   3;302,300,305;,
   3;305,300,304;,
   3;305,306,302;,
   3;307,304,303;,
   3;307,305,304;,
   3;305,308,306;,
   3;309,306,308;,
   3;310,305,307;,
   3;308,311,309;,
   3;311,312,309;,
   3;305,313,308;,
   3;310,313,305;,
   3;312,311,314;,
   3;314,315,312;,
   3;311,308,316;,
   3;316,314,311;,
   3;308,313,317;,
   3;316,308,317;,
   3;313,310,317;,
   3;314,318,315;,
   3;318,319,315;,
   3;314,316,320;,
   3;320,318,314;,
   3;316,317,321;,
   3;316,321,320;,
   3;317,322,321;,
   3;322,317,310;,
   3;321,322,323;,
   3;323,320,321;,
   3;322,310,324;,
   3;324,323,322;,
   3;324,310,307;,
   3;324,307,325;,
   3;307,303,325;,
   3;323,324,326;,
   3;325,326,324;,
   3;327,325,303;,
   3;327,303,291;,
   3;326,325,328;,
   3;291,329,327;,
   3;329,291,290;,
   3;330,325,327;,
   3;325,330,328;,
   3;290,331,329;,
   3;280,331,290;,
   3;327,329,332;,
   3;331,332,329;,
   3;327,332,333;,
   3;330,327,333;,
   3;331,334,332;,
   3;333,332,334;,
   3;331,280,335;,
   3;335,334,331;,
   3;280,336,335;,
   3;281,336,280;,
   3;336,281,337;,
   3;338,336,337;,
   3;335,339,334;,
   3;339,335,336;,
   3;336,338,339;,
   3;334,339,333;,
   3;338,340,339;,
   3;340,338,341;,
   3;342,340,341;,
   3;343,339,340;,
   3;343,340,342;,
   3;333,339,344;,
   3;339,343,344;,
   3;333,344,345;,
   3;345,344,343;,
   3;346,343,342;,
   3;346,345,343;,
   3;347,346,342;,
   3;345,348,333;,
   3;330,333,348;,
   3;346,347,349;,
   3;349,347,350;,
   3;351,349,350;,
   3;352,345,346;,
   3;349,352,346;,
   3;348,345,352;,
   3;349,351,353;,
   3;352,349,353;,
   3;354,353,351;,
   3;348,352,355;,
   3;352,353,356;,
   3;356,355,352;,
   3;353,354,357;,
   3;357,356,353;,
   3;355,358,348;,
   3;330,348,358;,
   3;359,355,356;,
   3;358,355,359;,
   3;356,357,359;,
   3;328,330,358;,
   3;354,360,357;,
   3;360,354,361;,
   3;360,361,362;,
   3;360,362,363;,
   3;363,362,364;,
   3;357,360,365;,
   3;360,363,365;,
   3;366,363,364;,
   3;364,367,366;,
   3;367,368,366;,
   3;365,363,369;,
   3;363,366,370;,
   3;370,369,363;,
   3;366,368,371;,
   3;371,370,366;,
   3;371,368,372;,
   3;372,368,373;,
   3;372,373,374;,
   3;374,371,372;,
   3;373,375,374;,
   3;374,375,376;,
   3;371,374,376;,
   3;376,377,371;,
   3;376,378,377;,
   3;378,379,377;,
   3;371,380,370;,
   3;380,371,377;,
   3;370,380,381;,
   3;370,381,369;,
   3;382,380,377;,
   3;380,382,381;,
   3;377,379,383;,
   3;377,383,382;,
   3;379,384,383;,
   3;383,384,385;,
   3;383,385,386;,
   3;387,386,385;,
   3;382,383,388;,
   3;383,386,388;,
   3;387,389,386;,
   3;388,386,389;,
   3;389,387,390;,
   3;389,390,391;,
   3;382,388,392;,
   3;392,381,382;,
   3;391,393,389;,
   3;394,393,391;,
   3;393,394,395;,
   3;389,396,388;,
   3;393,395,397;,
   3;395,398,397;,
   3;399,397,398;,
   3;400,389,393;,
   3;389,400,396;,
   3;399,401,397;,
   3;401,393,397;,
   3;402,401,399;,
   3;403,400,393;,
   3;393,401,403;,
   3;401,402,404;,
   3;402,405,404;,
   3;406,401,404;,
   3;403,401,406;,
   3;404,405,407;,
   3;404,407,406;,
   3;405,408,407;,
   3;409,400,403;,
   3;396,400,409;,
   3;403,406,410;,
   3;409,403,410;,
   3;411,406,407;,
   3;411,410,406;,
   3;407,408,412;,
   3;407,412,411;,
   3;408,413,412;,
   3;413,411,412;,
   3;408,414,413;,
   3;413,414,415;,
   3;414,416,415;,
   3;415,416,319;,
   3;319,318,415;,
   3;417,413,415;,
   3;318,417,415;,
   3;417,411,413;,
   3;318,320,417;,
   3;417,418,411;,
   3;418,410,411;,
   3;417,320,419;,
   3;320,323,419;,
   3;420,418,417;,
   3;417,419,420;,
   3;421,410,418;,
   3;410,421,409;,
   3;409,421,396;,
   3;421,418,422;,
   3;418,420,422;,
   3;396,421,423;,
   3;422,424,421;,
   3;421,424,423;,
   3;420,425,422;,
   3;423,426,396;,
   3;420,427,425;,
   3;396,426,428;,
   3;396,428,388;,
   3;388,428,392;,
   3;426,429,428;,
   3;428,429,392;,
   3;423,430,426;,
   3;429,426,430;,
   3;430,423,431;,
   3;424,431,423;,
   3;430,432,429;,
   3;432,430,431;,
   3;392,429,433;,
   3;381,392,433;,
   3;434,429,432;,
   3;433,429,434;,
   3;381,433,435;,
   3;369,381,435;,
   3;433,434,436;,
   3;435,433,436;,
   3;434,432,437;,
   3;436,434,437;,
   3;369,435,438;,
   3;369,438,365;,
   3;357,365,438;,
   3;435,439,438;,
   3;435,436,439;,
   3;438,440,357;,
   3;439,440,438;,
   3;440,359,357;,
   3;439,441,440;,
   3;440,441,359;,
   3;436,441,439;,
   3;441,442,359;,
   3;436,442,441;,
   3;436,437,442;,
   3;442,358,359;,
   3;443,358,442;,
   3;437,443,442;,
   3;358,443,328;,
   3;432,444,437;,
   3;444,443,437;,
   3;432,431,444;,
   3;443,445,328;,
   3;328,445,326;,
   3;443,444,446;,
   3;446,445,443;,
   3;444,431,447;,
   3;444,447,446;,
   3;431,424,447;,
   3;422,447,424;,
   3;446,447,448;,
   3;422,448,447;,
   3;445,446,448;,
   3;448,422,425;,
   3;448,425,427;,
   3;445,449,326;,
   3;326,449,323;,
   3;448,450,445;,
   3;445,450,449;,
   3;450,448,427;,
   3;323,449,450;,
   3;450,451,323;,
   3;450,427,451;,
   3;419,323,451;,
   3;451,427,452;,
   3;451,452,419;,
   3;420,452,427;,
   3;419,452,420;;
  }

  MeshMaterialList {
   1;
   748;
   0,
   0,
   0,
   0,
   0,
   0,
   0,
   0,
   0,
   0,
   0,
   0,
   0,
   0,
   0,
   0,
   0,
   0,
   0,
   0,
   0,
   0,
   0,
   0,
   0,
   0,
   0,
   0,
   0,
   0,
   0,
   0,
   0,
   0,
   0,
   0,
   0,
   0,
   0,
   0,
   0,
   0,
   0,
   0,
   0,
   0,
   0,
   0,
   0,
   0,
   0,
   0,
   0,
   0,
   0,
   0,
   0,
   0,
   0,
   0,
   0,
   0,
   0,
   0,
   0,
   0,
   0,
   0,
   0,
   0,
   0,
   0,
   0,
   0,
   0,
   0,
   0,
   0,
   0,
   0,
   0,
   0,
   0,
   0,
   0,
   0,
   0,
   0,
   0,
   0,
   0,
   0,
   0,
   0,
   0,
   0,
   0,
   0,
   0,
   0,
   0,
   0,
   0,
   0,
   0,
   0,
   0,
   0,
   0,
   0,
   0,
   0,
   0,
   0,
   0,
   0,
   0,
   0,
   0,
   0,
   0,
   0,
   0,
   0,
   0,
   0,
   0,
   0,
   0,
   0,
   0,
   0,
   0,
   0,
   0,
   0,
   0,
   0,
   0,
   0,
   0,
   0,
   0,
   0,
   0,
   0,
   0,
   0,
   0,
   0,
   0,
   0,
   0,
   0,
   0,
   0,
   0,
   0,
   0,
   0,
   0,
   0,
   0,
   0,
   0,
   0,
   0,
   0,
   0,
   0,
   0,
   0,
   0,
   0,
   0,
   0,
   0,
   0,
   0,
   0,
   0,
   0,
   0,
   0,
   0,
   0,
   0,
   0,
   0,
   0,
   0,
   0,
   0,
   0,
   0,
   0,
   0,
   0,
   0,
   0,
   0,
   0,
   0,
   0,
   0,
   0,
   0,
   0,
   0,
   0,
   0,
   0,
   0,
   0,
   0,
   0,
   0,
   0,
   0,
   0,
   0,
   0,
   0,
   0,
   0,
   0,
   0,
   0,
   0,
   0,
   0,
   0,
   0,
   0,
   0,
   0,
   0,
   0,
   0,
   0,
   0,
   0,
   0,
   0,
   0,
   0,
   0,
   0,
   0,
   0,
   0,
   0,
   0,
   0,
   0,
   0,
   0,
   0,
   0,
   0,
   0,
   0,
   0,
   0,
   0,
   0,
   0,
   0,
   0,
   0,
   0,
   0,
   0,
   0,
   0,
   0,
   0,
   0,
   0,
   0,
   0,
   0,
   0,
   0,
   0,
   0,
   0,
   0,
   0,
   0,
   0,
   0,
   0,
   0,
   0,
   0,
   0,
   0,
   0,
   0,
   0,
   0,
   0,
   0,
   0,
   0,
   0,
   0,
   0,
   0,
   0,
   0,
   0,
   0,
   0,
   0,
   0,
   0,
   0,
   0,
   0,
   0,
   0,
   0,
   0,
   0,
   0,
   0,
   0,
   0,
   0,
   0,
   0,
   0,
   0,
   0,
   0,
   0,
   0,
   0,
   0,
   0,
   0,
   0,
   0,
   0,
   0,
   0,
   0,
   0,
   0,
   0,
   0,
   0,
   0,
   0,
   0,
   0,
   0,
   0,
   0,
   0,
   0,
   0,
   0,
   0,
   0,
   0,
   0,
   0,
   0,
   0,
   0,
   0,
   0,
   0,
   0,
   0,
   0,
   0,
   0,
   0,
   0,
   0,
   0,
   0,
   0,
   0,
   0,
   0,
   0,
   0,
   0,
   0,
   0,
   0,
   0,
   0,
   0,
   0,
   0,
   0,
   0,
   0,
   0,
   0,
   0,
   0,
   0,
   0,
   0,
   0,
   0,
   0,
   0,
   0,
   0,
   0,
   0,
   0,
   0,
   0,
   0,
   0,
   0,
   0,
   0,
   0,
   0,
   0,
   0,
   0,
   0,
   0,
   0,
   0,
   0,
   0,
   0,
   0,
   0,
   0,
   0,
   0,
   0,
   0,
   0,
   0,
   0,
   0,
   0,
   0,
   0,
   0,
   0,
   0,
   0,
   0,
   0,
   0,
   0,
   0,
   0,
   0,
   0,
   0,
   0,
   0,
   0,
   0,
   0,
   0,
   0,
   0,
   0,
   0,
   0,
   0,
   0,
   0,
   0,
   0,
   0,
   0,
   0,
   0,
   0,
   0,
   0,
   0,
   0,
   0,
   0,
   0,
   0,
   0,
   0,
   0,
   0,
   0,
   0,
   0,
   0,
   0,
   0,
   0,
   0,
   0,
   0,
   0,
   0,
   0,
   0,
   0,
   0,
   0,
   0,
   0,
   0,
   0,
   0,
   0,
   0,
   0,
   0,
   0,
   0,
   0,
   0,
   0,
   0,
   0,
   0,
   0,
   0,
   0,
   0,
   0,
   0,
   0,
   0,
   0,
   0,
   0,
   0,
   0,
   0,
   0,
   0,
   0,
   0,
   0,
   0,
   0,
   0,
   0,
   0,
   0,
   0,
   0,
   0,
   0,
   0,
   0,
   0,
   0,
   0,
   0,
   0,
   0,
   0,
   0,
   0,
   0,
   0,
   0,
   0,
   0,
   0,
   0,
   0,
   0,
   0,
   0,
   0,
   0,
   0,
   0,
   0,
   0,
   0,
   0,
   0,
   0,
   0,
   0,
   0,
   0,
   0,
   0,
   0,
   0,
   0,
   0,
   0,
   0,
   0,
   0,
   0,
   0,
   0,
   0,
   0,
   0,
   0,
   0,
   0,
   0,
   0,
   0,
   0,
   0,
   0,
   0,
   0,
   0,
   0,
   0,
   0,
   0,
   0,
   0,
   0,
   0,
   0,
   0,
   0,
   0,
   0,
   0,
   0,
   0,
   0,
   0,
   0,
   0,
   0,
   0,
   0,
   0,
   0,
   0,
   0,
   0,
   0,
   0,
   0,
   0,
   0,
   0,
   0,
   0,
   0,
   0,
   0,
   0,
   0,
   0,
   0,
   0,
   0,
   0,
   0,
   0,
   0,
   0,
   0,
   0,
   0,
   0,
   0,
   0,
   0,
   0,
   0,
   0,
   0,
   0,
   0,
   0,
   0,
   0,
   0,
   0,
   0,
   0,
   0,
   0,
   0,
   0,
   0,
   0,
   0,
   0,
   0,
   0,
   0,
   0,
   0,
   0,
   0,
   0,
   0,
   0,
   0,
   0,
   0,
   0,
   0,
   0,
   0,
   0,
   0,
   0,
   0,
   0,
   0,
   0,
   0,
   0,
   0,
   0,
   0,
   0,
   0,
   0,
   0,
   0,
   0,
   0,
   0,
   0,
   0,
   0,
   0,
   0,
   0,
   0;
   { MI_rockS_3 }
  }

  MeshTextureCoords c1 {
   453;
   0.651855;0.573242;,
   0.664551;0.598145;,
   0.645508;0.595215;,
   0.630859;0.574707;,
   0.638672;0.543457;,
   0.615723;0.548828;,
   0.664551;0.541992;,
   0.636719;0.519531;,
   0.610352;0.517578;,
   0.674316;0.510742;,
   0.687988;0.530762;,
   0.704590;0.520020;,
   0.641602;0.493164;,
   0.667969;0.493897;,
   0.711426;0.486816;,
   0.626953;0.467529;,
   0.589355;0.491211;,
   0.650879;0.450684;,
   0.696289;0.444336;,
   0.725098;0.451660;,
   0.699707;0.401855;,
   0.741699;0.401123;,
   0.660156;0.408691;,
   0.712402;0.365479;,
   0.747070;0.360596;,
   0.742188;0.329590;,
   0.678711;0.389404;,
   0.630371;0.413330;,
   0.682129;0.352539;,
   0.612793;0.438232;,
   0.648438;0.375732;,
   0.635742;0.391846;,
   0.595215;0.381348;,
   0.591309;0.416748;,
   0.594727;0.455078;,
   0.552734;0.469238;,
   0.558105;0.486572;,
   0.526855;0.464111;,
   0.562988;0.436279;,
   0.528320;0.446289;,
   0.502930;0.444580;,
   0.581055;0.394531;,
   0.508789;0.423340;,
   0.482422;0.424805;,
   0.475098;0.404053;,
   0.522949;0.411621;,
   0.495605;0.381836;,
   0.464600;0.364990;,
   0.548828;0.381348;,
   0.528320;0.365967;,
   0.494629;0.353516;,
   0.475098;0.305664;,
   0.442627;0.322754;,
   0.507324;0.328369;,
   0.541992;0.347900;,
   0.576172;0.348145;,
   0.546387;0.326416;,
   0.506348;0.292969;,
   0.607422;0.347168;,
   0.562988;0.310791;,
   0.646973;0.349854;,
   0.601074;0.332520;,
   0.651855;0.285156;,
   0.609863;0.284424;,
   0.527344;0.278809;,
   0.572754;0.251221;,
   0.624023;0.227905;,
   0.536621;0.213135;,
   0.589844;0.213257;,
   0.496338;0.240723;,
   0.472900;0.257813;,
   0.502441;0.178955;,
   0.440918;0.268066;,
   0.478027;0.206909;,
   0.444580;0.217529;,
   0.415283;0.278564;,
   0.409668;0.307129;,
   0.383301;0.293701;,
   0.417969;0.232178;,
   0.392822;0.260986;,
   0.358643;0.270752;,
   0.371826;0.229370;,
   0.336914;0.245239;,
   0.411133;0.193115;,
   0.352783;0.196167;,
   0.312744;0.197998;,
   0.288574;0.227417;,
   0.436523;0.187012;,
   0.265137;0.179932;,
   0.251221;0.216187;,
   0.458252;0.177734;,
   0.421631;0.148560;,
   0.482910;0.170288;,
   0.464600;0.142822;,
   0.370117;0.144775;,
   0.428223;0.102234;,
   0.493164;0.121948;,
   0.473633;0.105469;,
   0.517578;0.132935;,
   0.511230;0.079834;,
   0.546875;0.153931;,
   0.549805;0.183228;,
   0.556641;0.106628;,
   0.609375;0.140137;,
   0.656738;0.187866;,
   0.597656;0.098328;,
   0.553711;0.072632;,
   0.642578;0.118408;,
   0.523438;0.058472;,
   0.486816;0.048462;,
   0.661621;0.147583;,
   0.681641;0.126099;,
   0.471680;0.065308;,
   0.458984;0.024628;,
   0.433105;0.060730;,
   0.429932;0.022232;,
   0.710938;0.131714;,
   0.724121;0.160889;,
   0.399170;0.049866;,
   0.398438;0.021210;,
   0.351563;0.019470;,
   0.368408;0.107178;,
   0.343506;0.055115;,
   0.322266;0.018677;,
   0.296875;0.020782;,
   0.327148;0.097351;,
   0.269287;0.072083;,
   0.268555;0.028976;,
   0.234131;0.050568;,
   0.319092;0.134644;,
   0.270508;0.106323;,
   0.225098;0.094910;,
   0.202271;0.065430;,
   0.304199;0.159302;,
   0.260254;0.150391;,
   0.229736;0.129883;,
   0.214600;0.166260;,
   0.210571;0.197144;,
   0.183105;0.151733;,
   0.169800;0.177124;,
   0.135132;0.150391;,
   0.187134;0.100342;,
   0.176880;0.080994;,
   0.146118;0.099731;,
   0.141846;0.128784;,
   0.108582;0.125122;,
   0.951172;0.515625;,
   0.970215;0.514160;,
   0.965332;0.536133;,
   0.942383;0.551270;,
   0.925781;0.510742;,
   0.968262;0.562500;,
   0.910156;0.540039;,
   0.895996;0.508789;,
   0.961914;0.587402;,
   0.983398;0.586426;,
   0.920410;0.593262;,
   0.877441;0.538086;,
   0.865723;0.504395;,
   0.888672;0.565918;,
   0.854492;0.544434;,
   0.835449;0.518555;,
   0.819824;0.544434;,
   0.870117;0.579590;,
   0.826660;0.566406;,
   0.789063;0.566406;,
   0.890625;0.598145;,
   0.785645;0.593262;,
   0.766602;0.586914;,
   0.844727;0.613770;,
   0.778320;0.635742;,
   0.744141;0.604980;,
   0.889648;0.669434;,
   0.719238;0.627441;,
   0.722168;0.605469;,
   0.684570;0.618652;,
   0.848633;0.663086;,
   0.740723;0.687012;,
   0.689941;0.666992;,
   0.644531;0.640137;,
   0.849609;0.728027;,
   0.649902;0.690430;,
   0.630859;0.671875;,
   0.620117;0.698242;,
   0.667480;0.703125;,
   0.621582;0.737305;,
   0.599609;0.721680;,
   0.580566;0.745605;,
   0.652832;0.742676;,
   0.714844;0.744629;,
   0.654297;0.776367;,
   0.608398;0.780273;,
   0.577637;0.794434;,
   0.623535;0.802734;,
   0.578613;0.832520;,
   0.675781;0.806152;,
   0.620605;0.847656;,
   0.578125;0.876465;,
   0.662598;0.835938;,
   0.617188;0.905762;,
   0.589844;0.919434;,
   0.605957;0.958008;,
   0.670410;0.890137;,
   0.640137;0.954102;,
   0.626465;0.987305;,
   0.661621;0.979492;,
   0.691895;0.969727;,
   0.693359;0.952637;,
   0.719727;0.960938;,
   0.718262;0.937988;,
   0.698242;0.875488;,
   0.718262;0.829590;,
   0.730469;0.949219;,
   0.759766;0.960938;,
   0.722656;0.807617;,
   0.754395;0.940430;,
   0.771484;0.763184;,
   0.771484;0.823242;,
   0.817383;0.781738;,
   0.763184;0.851074;,
   0.807617;0.845703;,
   0.843750;0.807617;,
   0.740234;0.904297;,
   0.800781;0.876953;,
   0.742188;0.919434;,
   0.789551;0.911133;,
   0.788086;0.938965;,
   0.793457;0.955566;,
   0.825195;0.928223;,
   0.814453;0.896484;,
   0.843262;0.903320;,
   0.845215;0.863770;,
   0.877441;0.869629;,
   0.878418;0.832031;,
   0.894043;0.849609;,
   0.920898;0.833496;,
   0.893555;0.802246;,
   0.929688;0.810059;,
   0.895020;0.743652;,
   0.919922;0.778320;,
   0.950684;0.774414;,
   0.941406;0.755371;,
   0.961914;0.745605;,
   0.964356;0.722168;,
   0.930664;0.684082;,
   0.974121;0.689453;,
   0.919434;0.640137;,
   0.963379;0.672852;,
   0.982910;0.662109;,
   0.941895;0.630371;,
   0.966309;0.620117;,
   0.990234;0.626953;,
   0.696777;0.334229;,
   0.705566;0.302246;,
   0.732422;0.315674;,
   0.743164;0.298828;,
   0.763184;0.303711;,
   0.761719;0.259033;,
   0.729004;0.268799;,
   0.676758;0.239624;,
   0.743164;0.250732;,
   0.754883;0.221680;,
   0.710938;0.203369;,
   0.740234;0.185791;,
   0.738770;0.214111;,
   0.447754;0.953125;,
   0.466309;0.965332;,
   0.450195;0.988770;,
   0.486084;0.952637;,
   0.416016;0.988281;,
   0.455811;0.917969;,
   0.500000;0.928711;,
   0.421631;0.947754;,
   0.395508;0.971191;,
   0.383545;0.954102;,
   0.419434;0.918945;,
   0.377930;0.903320;,
   0.352783;0.936523;,
   0.479248;0.910645;,
   0.509766;0.900391;,
   0.333496;0.876953;,
   0.323975;0.910645;,
   0.500488;0.881348;,
   0.524414;0.860352;,
   0.475830;0.893066;,
   0.465820;0.852051;,
   0.453613;0.903320;,
   0.431397;0.895996;,
   0.405029;0.877441;,
   0.424316;0.844238;,
   0.379639;0.860352;,
   0.415527;0.804688;,
   0.505371;0.821777;,
   0.541016;0.827637;,
   0.554688;0.801758;,
   0.459717;0.805664;,
   0.515625;0.772461;,
   0.559082;0.767578;,
   0.556641;0.744141;,
   0.476563;0.758789;,
   0.517090;0.708496;,
   0.552246;0.713379;,
   0.532227;0.676270;,
   0.428223;0.751953;,
   0.479980;0.722168;,
   0.491943;0.645508;,
   0.529297;0.649414;,
   0.442139;0.707031;,
   0.493897;0.614258;,
   0.539063;0.618652;,
   0.453613;0.635742;,
   0.509277;0.602539;,
   0.538574;0.590820;,
   0.485596;0.629883;,
   0.478272;0.576172;,
   0.517090;0.546875;,
   0.469238;0.592773;,
   0.457764;0.621582;,
   0.469971;0.536133;,
   0.512207;0.517090;,
   0.427002;0.587402;,
   0.431641;0.600098;,
   0.427490;0.614746;,
   0.402344;0.600586;,
   0.396484;0.676270;,
   0.366699;0.705566;,
   0.363525;0.657715;,
   0.362061;0.750000;,
   0.323730;0.675781;,
   0.365479;0.794434;,
   0.304688;0.724121;,
   0.349121;0.843262;,
   0.323730;0.803223;,
   0.286133;0.778809;,
   0.312988;0.821777;,
   0.308350;0.849121;,
   0.300049;0.869141;,
   0.274414;0.885742;,
   0.240601;0.859375;,
   0.273926;0.814941;,
   0.238159;0.821777;,
   0.208374;0.849609;,
   0.195557;0.816406;,
   0.231079;0.793945;,
   0.251465;0.777344;,
   0.230225;0.755371;,
   0.209473;0.772949;,
   0.156128;0.790039;,
   0.254639;0.726074;,
   0.139160;0.747070;,
   0.125977;0.766113;,
   0.101257;0.735352;,
   0.205444;0.741699;,
   0.145386;0.718750;,
   0.090759;0.703613;,
   0.196289;0.704102;,
   0.159180;0.701172;,
   0.145386;0.667969;,
   0.248901;0.672852;,
   0.202393;0.665039;,
   0.088440;0.663086;,
   0.070190;0.674805;,
   0.053162;0.646484;,
   0.077576;0.619141;,
   0.037933;0.606934;,
   0.118164;0.647461;,
   0.065002;0.556152;,
   0.029953;0.560059;,
   0.021545;0.514160;,
   0.123657;0.579590;,
   0.097229;0.547852;,
   0.061646;0.500488;,
   0.032104;0.495605;,
   0.010475;0.486328;,
   0.045898;0.473877;,
   0.025620;0.456299;,
   0.058838;0.454590;,
   0.097351;0.457520;,
   0.080322;0.439453;,
   0.106873;0.426270;,
   0.109253;0.502441;,
   0.144653;0.534180;,
   0.149902;0.475342;,
   0.156982;0.432617;,
   0.145142;0.401855;,
   0.170898;0.390137;,
   0.194336;0.417480;,
   0.194824;0.386230;,
   0.187866;0.475830;,
   0.233032;0.414063;,
   0.221436;0.375732;,
   0.253906;0.352783;,
   0.182251;0.513184;,
   0.294678;0.377930;,
   0.286865;0.343994;,
   0.314941;0.338623;,
   0.248535;0.463867;,
   0.349609;0.367676;,
   0.349854;0.336182;,
   0.394287;0.340332;,
   0.279785;0.428955;,
   0.370850;0.384766;,
   0.416992;0.368408;,
   0.317871;0.418213;,
   0.409180;0.387695;,
   0.438232;0.393311;,
   0.367676;0.421875;,
   0.411865;0.411133;,
   0.450684;0.420898;,
   0.290039;0.458252;,
   0.346191;0.478272;,
   0.392090;0.455566;,
   0.417480;0.440186;,
   0.445313;0.461426;,
   0.465576;0.458496;,
   0.461914;0.497803;,
   0.487061;0.484619;,
   0.415039;0.519043;,
   0.374512;0.522461;,
   0.393555;0.563477;,
   0.373291;0.545410;,
   0.302490;0.502441;,
   0.331299;0.548340;,
   0.270020;0.520508;,
   0.302490;0.539063;,
   0.350342;0.557129;,
   0.239868;0.515137;,
   0.363525;0.570313;,
   0.209229;0.500000;,
   0.211670;0.528320;,
   0.255615;0.530762;,
   0.285645;0.548340;,
   0.254150;0.549805;,
   0.186768;0.553223;,
   0.209717;0.565918;,
   0.170898;0.589355;,
   0.205078;0.590332;,
   0.245361;0.594238;,
   0.144653;0.624023;,
   0.173462;0.619141;,
   0.161255;0.637207;,
   0.198975;0.640625;,
   0.233276;0.633301;,
   0.277832;0.625000;,
   0.283936;0.571289;,
   0.320313;0.623047;,
   0.309814;0.575684;,
   0.314453;0.553711;,
   0.338379;0.580566;,
   0.360107;0.626465;,
   0.356689;0.595703;,
   0.382568;0.586914;,
   0.382813;0.569336;;
  }

  MeshTextureCoords c2 {
   453;
   0.555664;0.565918;,
   0.568359;0.590820;,
   0.549316;0.587891;,
   0.534180;0.566895;,
   0.542480;0.535645;,
   0.519043;0.541016;,
   0.568359;0.534180;,
   0.540039;0.511719;,
   0.513672;0.509766;,
   0.578125;0.502930;,
   0.591797;0.522949;,
   0.608887;0.512207;,
   0.544922;0.485107;,
   0.571777;0.485840;,
   0.615723;0.478516;,
   0.530762;0.459229;,
   0.492676;0.483154;,
   0.554688;0.442383;,
   0.600098;0.435791;,
   0.629395;0.443359;,
   0.604004;0.393311;,
   0.646484;0.392578;,
   0.563965;0.400146;,
   0.616211;0.356689;,
   0.651367;0.351807;,
   0.646484;0.320557;,
   0.582520;0.380615;,
   0.534180;0.404785;,
   0.585938;0.343750;,
   0.516113;0.429688;,
   0.552246;0.366943;,
   0.539551;0.383057;,
   0.498535;0.372559;,
   0.494629;0.408203;,
   0.498047;0.446777;,
   0.455811;0.461182;,
   0.461426;0.478272;,
   0.429688;0.455811;,
   0.466064;0.427734;,
   0.430908;0.437988;,
   0.405518;0.436035;,
   0.484375;0.385986;,
   0.411377;0.414795;,
   0.384766;0.416260;,
   0.377197;0.395264;,
   0.425537;0.403076;,
   0.397949;0.373291;,
   0.366699;0.356201;,
   0.451904;0.372559;,
   0.430908;0.357178;,
   0.396973;0.344727;,
   0.377441;0.296631;,
   0.344727;0.313721;,
   0.409912;0.319336;,
   0.444824;0.339111;,
   0.479248;0.339355;,
   0.449219;0.317383;,
   0.408936;0.283691;,
   0.510742;0.338379;,
   0.466064;0.301758;,
   0.550293;0.341064;,
   0.504395;0.323730;,
   0.555176;0.275879;,
   0.513184;0.275146;,
   0.430176;0.269531;,
   0.475830;0.241821;,
   0.527344;0.218262;,
   0.439209;0.203491;,
   0.493164;0.203491;,
   0.398682;0.231201;,
   0.375000;0.248413;,
   0.404785;0.169067;,
   0.342773;0.258789;,
   0.380127;0.197144;,
   0.346436;0.207886;,
   0.316895;0.269287;,
   0.311523;0.298096;,
   0.284668;0.284424;,
   0.319824;0.222656;,
   0.294434;0.251709;,
   0.259766;0.261230;,
   0.273193;0.219727;,
   0.238159;0.235718;,
   0.312744;0.183228;,
   0.254150;0.186279;,
   0.213623;0.188232;,
   0.189453;0.217773;,
   0.338379;0.177246;,
   0.165649;0.170044;,
   0.151611;0.206543;,
   0.360352;0.167725;,
   0.323486;0.138428;,
   0.385010;0.160278;,
   0.366699;0.132690;,
   0.271240;0.134644;,
   0.330078;0.091858;,
   0.395508;0.111694;,
   0.375732;0.095093;,
   0.420166;0.122742;,
   0.413574;0.069336;,
   0.449951;0.143921;,
   0.452881;0.173340;,
   0.459473;0.096252;,
   0.512695;0.130005;,
   0.560547;0.177979;,
   0.500488;0.087952;,
   0.456543;0.062103;,
   0.545898;0.108093;,
   0.426025;0.047821;,
   0.389160;0.037781;,
   0.565430;0.137573;,
   0.585449;0.115906;,
   0.373779;0.054749;,
   0.361084;0.013809;,
   0.334961;0.050110;,
   0.331787;0.011398;,
   0.615234;0.121582;,
   0.628418;0.150879;,
   0.300781;0.039185;,
   0.300049;0.010361;,
   0.252930;0.008614;,
   0.269775;0.096863;,
   0.244629;0.044464;,
   0.223267;0.007813;,
   0.197754;0.009933;,
   0.228271;0.086975;,
   0.169800;0.061523;,
   0.169189;0.018173;,
   0.134399;0.039886;,
   0.220093;0.124451;,
   0.171021;0.096008;,
   0.125244;0.084534;,
   0.102295;0.054871;,
   0.204956;0.149170;,
   0.160889;0.140381;,
   0.130005;0.119690;,
   0.114624;0.156250;,
   0.110657;0.187378;,
   0.082947;0.141724;,
   0.069519;0.167236;,
   0.034515;0.140381;,
   0.086975;0.089905;,
   0.076660;0.070496;,
   0.045654;0.089355;,
   0.041351;0.118652;,
   0.007813;0.114929;,
   0.609863;0.841797;,
   0.590332;0.843262;,
   0.595215;0.821289;,
   0.618164;0.806152;,
   0.635254;0.846680;,
   0.592285;0.794922;,
   0.650879;0.817383;,
   0.665039;0.848633;,
   0.598633;0.769531;,
   0.577148;0.770508;,
   0.640625;0.763672;,
   0.683594;0.819336;,
   0.695801;0.853516;,
   0.672363;0.791504;,
   0.706543;0.812988;,
   0.726074;0.838867;,
   0.741699;0.812988;,
   0.690918;0.777344;,
   0.734863;0.790527;,
   0.772949;0.791016;,
   0.670410;0.759277;,
   0.775879;0.764160;,
   0.795410;0.770020;,
   0.716797;0.743164;,
   0.783691;0.721191;,
   0.817871;0.751953;,
   0.671387;0.687012;,
   0.842773;0.729492;,
   0.840332;0.751953;,
   0.877930;0.738281;,
   0.712891;0.693359;,
   0.821289;0.669434;,
   0.872559;0.689453;,
   0.918457;0.716309;,
   0.711914;0.627930;,
   0.913086;0.666016;,
   0.932129;0.684570;,
   0.942871;0.658203;,
   0.895020;0.653320;,
   0.941406;0.618652;,
   0.963379;0.634766;,
   0.982422;0.610352;,
   0.909668;0.613281;,
   0.847168;0.611328;,
   0.908203;0.579590;,
   0.955078;0.575684;,
   0.985352;0.561035;,
   0.939453;0.552734;,
   0.984863;0.522949;,
   0.886719;0.549805;,
   0.942383;0.507813;,
   0.985352;0.479004;,
   0.899902;0.519531;,
   0.945801;0.449219;,
   0.973633;0.435791;,
   0.957031;0.396729;,
   0.892090;0.464844;,
   0.922852;0.400879;,
   0.936523;0.367188;,
   0.901367;0.375000;,
   0.870606;0.384766;,
   0.869141;0.402344;,
   0.842773;0.393799;,
   0.843750;0.416748;,
   0.864258;0.479736;,
   0.844238;0.525879;,
   0.832031;0.405518;,
   0.802246;0.394043;,
   0.839844;0.548340;,
   0.807617;0.414307;,
   0.790527;0.592773;,
   0.790527;0.532227;,
   0.744141;0.574219;,
   0.798828;0.504395;,
   0.753906;0.509766;,
   0.717773;0.547852;,
   0.821777;0.450684;,
   0.760742;0.478027;,
   0.819824;0.435303;,
   0.772461;0.444092;,
   0.773926;0.415771;,
   0.768555;0.399170;,
   0.736328;0.427002;,
   0.747070;0.458496;,
   0.718262;0.451904;,
   0.716309;0.491699;,
   0.684082;0.485596;,
   0.683105;0.523438;,
   0.666992;0.505371;,
   0.640137;0.521973;,
   0.667480;0.553711;,
   0.631348;0.545410;,
   0.666016;0.612305;,
   0.641113;0.577148;,
   0.609863;0.581543;,
   0.619629;0.600586;,
   0.598633;0.610352;,
   0.596680;0.634277;,
   0.630371;0.672363;,
   0.586426;0.666992;,
   0.641602;0.716797;,
   0.597168;0.683594;,
   0.577637;0.694824;,
   0.618652;0.726563;,
   0.594238;0.736816;,
   0.570313;0.729980;,
   0.600586;0.325439;,
   0.609863;0.292969;,
   0.636719;0.306641;,
   0.647949;0.289795;,
   0.667969;0.294434;,
   0.666016;0.249634;,
   0.633301;0.259277;,
   0.581055;0.230103;,
   0.647461;0.241211;,
   0.659668;0.212036;,
   0.615234;0.193604;,
   0.644531;0.175903;,
   0.643555;0.204468;,
   0.119934;0.356201;,
   0.101196;0.343994;,
   0.117310;0.320313;,
   0.081116;0.356445;,
   0.151733;0.320801;,
   0.111816;0.391602;,
   0.066956;0.380859;,
   0.146118;0.361572;,
   0.172607;0.337891;,
   0.184570;0.354980;,
   0.148438;0.390869;,
   0.190186;0.406250;,
   0.215454;0.373047;,
   0.088196;0.398926;,
   0.057159;0.409668;,
   0.234985;0.432861;,
   0.244629;0.399170;,
   0.066711;0.428711;,
   0.042694;0.449951;,
   0.091675;0.416992;,
   0.101624;0.458252;,
   0.113953;0.406738;,
   0.136353;0.413818;,
   0.162720;0.432617;,
   0.143311;0.465820;,
   0.188477;0.449951;,
   0.152344;0.505859;,
   0.061768;0.489014;,
   0.025543;0.482910;,
   0.012062;0.508789;,
   0.107910;0.504883;,
   0.051422;0.538574;,
   0.007813;0.543457;,
   0.009865;0.566895;,
   0.090881;0.551758;,
   0.050110;0.603027;,
   0.014420;0.598145;,
   0.034698;0.635742;,
   0.139404;0.559082;,
   0.087463;0.589355;,
   0.075256;0.666504;,
   0.037750;0.662109;,
   0.125610;0.604492;,
   0.073303;0.697754;,
   0.027603;0.693359;,
   0.113831;0.676270;,
   0.057861;0.709961;,
   0.028152;0.721191;,
   0.081726;0.682129;,
   0.089050;0.736328;,
   0.049957;0.765625;,
   0.098206;0.719727;,
   0.109741;0.690430;,
   0.097595;0.776855;,
   0.054901;0.795898;,
   0.140625;0.724609;,
   0.135986;0.711914;,
   0.140259;0.697266;,
   0.165527;0.711914;,
   0.171509;0.635742;,
   0.201538;0.605957;,
   0.204712;0.654297;,
   0.206055;0.561035;,
   0.244751;0.635742;,
   0.202637;0.516113;,
   0.263916;0.587402;,
   0.219238;0.466797;,
   0.244873;0.507324;,
   0.282471;0.531738;,
   0.255615;0.488525;,
   0.260010;0.460938;,
   0.268555;0.441162;,
   0.294189;0.424316;,
   0.328613;0.450928;,
   0.294678;0.495605;,
   0.331055;0.488770;,
   0.361084;0.460693;,
   0.374023;0.494141;,
   0.338135;0.516602;,
   0.317627;0.533203;,
   0.338867;0.555664;,
   0.359863;0.538086;,
   0.413574;0.520508;,
   0.314453;0.584961;,
   0.430664;0.563965;,
   0.444092;0.544434;,
   0.468994;0.576172;,
   0.364014;0.569336;,
   0.424316;0.592773;,
   0.479492;0.607910;,
   0.373291;0.607422;,
   0.410645;0.610352;,
   0.424316;0.644043;,
   0.320068;0.638672;,
   0.366943;0.646484;,
   0.481934;0.648438;,
   0.500000;0.636719;,
   0.517090;0.665039;,
   0.492920;0.692871;,
   0.532715;0.705078;,
   0.451904;0.664063;,
   0.505371;0.756348;,
   0.540527;0.752441;,
   0.549316;0.799316;,
   0.446289;0.732910;,
   0.472900;0.764648;,
   0.508789;0.812500;,
   0.538574;0.817871;,
   0.560547;0.827148;,
   0.524414;0.839844;,
   0.544922;0.857422;,
   0.511719;0.859375;,
   0.472900;0.855957;,
   0.489990;0.874023;,
   0.463379;0.887695;,
   0.460938;0.810547;,
   0.425293;0.778809;,
   0.419922;0.838379;,
   0.412842;0.881348;,
   0.424805;0.912109;,
   0.398682;0.923828;,
   0.375000;0.896484;,
   0.374756;0.928223;,
   0.381592;0.837891;,
   0.336182;0.899902;,
   0.347900;0.938477;,
   0.314941;0.961426;,
   0.387207;0.799805;,
   0.273926;0.936523;,
   0.281738;0.970703;,
   0.253418;0.976074;,
   0.320557;0.849609;,
   0.218628;0.946777;,
   0.218384;0.978516;,
   0.173584;0.974609;,
   0.289063;0.885254;,
   0.197388;0.929199;,
   0.150757;0.945801;,
   0.250488;0.895508;,
   0.158691;0.926270;,
   0.129395;0.920898;,
   0.200439;0.892090;,
   0.156006;0.902832;,
   0.116882;0.893066;,
   0.278809;0.855469;,
   0.222046;0.835449;,
   0.175781;0.858398;,
   0.150391;0.873535;,
   0.122192;0.852051;,
   0.101929;0.854981;,
   0.105652;0.815430;,
   0.080261;0.828613;,
   0.152832;0.793945;,
   0.193726;0.790039;,
   0.174438;0.749023;,
   0.194702;0.767090;,
   0.266113;0.810547;,
   0.237061;0.764160;,
   0.298828;0.791992;,
   0.266113;0.773926;,
   0.217896;0.755371;,
   0.329346;0.797852;,
   0.204834;0.742188;,
   0.360107;0.812988;,
   0.357666;0.784180;,
   0.313477;0.781738;,
   0.283203;0.764648;,
   0.314941;0.763184;,
   0.382813;0.759766;,
   0.359619;0.746582;,
   0.398682;0.723145;,
   0.364258;0.722168;,
   0.323730;0.718262;,
   0.425049;0.687988;,
   0.396240;0.692871;,
   0.408447;0.674805;,
   0.370361;0.671387;,
   0.335938;0.678711;,
   0.291016;0.687012;,
   0.284912;0.741211;,
   0.248047;0.688965;,
   0.258545;0.736816;,
   0.254150;0.758789;,
   0.229980;0.731934;,
   0.208130;0.685547;,
   0.211548;0.716797;,
   0.185547;0.725098;,
   0.185181;0.743164;;
  }
 }
}