2.38498e-08|0|2|0|0|2|0|0|-2|0|2.38498e-08|0|3500|-2000|3000|1|Map_Static_Lobby_Tree01|15
2.38498e-08|0|2|0|0|2|0|0|-2|0|2.38498e-08|0|-3500|-3000|3000|1|Map_Static_Lobby_Tree02|15
1.19249e-08|0|1|0|0|1|0|0|-1|0|1.19249e-08|0|2209.34|-200|1895.27|1|Map_Static_Lobby_TallTree|15
1.19249e-08|0|1|0|0|1|0|0|-1|0|1.19249e-08|0|119.74|-200|2182.32|1|Map_Static_Lobby_TallTree|15
1|0|0|0|0|1|0|0|0|0|1|0|345.63|0.02|1178.8|1|Map_Static_LogChair_01|15
0.707107|0|-0.707107|0|0|1|0|0|0.707107|0|0.707107|0|405.56|0.02|1333.28|1|Map_Static_LogChair_02|15
0.5|0|-0.866025|0|0|1|0|0|0.866025|0|0.5|0|494.27|0.02|1396.09|1|Map_Static_LogChair_02|15
0.173648|0|-0.984808|0|0|1|0|0|0.984808|0|0.173648|0|618.85|0.02|1470.45|1|Map_Static_LogChair_01|15
0.347296|0|-1.96962|0|0|2|0|0|1.96962|0|0.347296|0|813.19|0|1085.39|1|GameObject_Map_FirePit|0
3200|0|0|0|0|-0.000139876|3200|0|0|-1|-4.37114e-08|0|1000|0|1000|1|GameObject_Map_Terrain|3
2.17887|0|-3.35449|0|0|4|0|0|3.35449|0|2.17887|0|-155.5|0|1878.8|1|GameObject_Map_Grass|22
3.97287|0|-0.465085|0|0|4|0|0|0.465085|0|3.97287|0|-253.69|0|1560.5|1|GameObject_Map_Grass|22
3.98992|0|-0.283698|0|0|4|0|0|0.283698|0|3.98992|0|-403.78|0|1257.61|1|GameObject_Map_Grass|22
-2.51537|0|3.11013|0|0|4|0|0|-3.11013|0|-2.51537|0|122.15|0|1945.33|1|GameObject_Map_Grass|22
-1.12216|0|3.83937|0|0|4|0|0|-3.83937|0|-1.12216|0|443.79|0|2122.61|1|GameObject_Map_Grass|21
-3.95474|0|0.600004|0|0|4|0|0|-0.600004|0|-3.95474|0|1309.23|0|2089.48|1|GameObject_Map_Grass|21
-3.4205|0|-2.0737|0|0|4|0|0|2.0737|0|-3.4205|0|1765.73|0|2025.41|1|GameObject_Map_Grass|21
0.666786|0|3.94403|0|0|4|0|0|-3.94403|0|0.666786|0|1525.71|0|1898.45|1|GameObject_Map_Grass|21
-1.61293|0|-3.6604|0|0|4|0|0|3.6604|0|-1.61293|0|2248.26|0|1665.53|1|GameObject_Map_Grass|21
-1.86972|0|-3.53613|0|0|4|0|0|3.53613|0|-1.86972|0|2393.06|0|1398.33|1|GameObject_Map_Grass|21
-0.396698|0|3.98029|0|0|4|0|0|-3.98029|0|-0.396698|0|-160.72|0|1402.45|1|GameObject_Map_Grass|21
-3.97776|0|0.421233|0|0|4|0|0|-0.421233|0|-3.97776|0|-291.44|0|1472.24|1|GameObject_Map_Grass|21
-2.80582|0|-2.85087|0|0|4|0|0|2.85087|0|-2.80582|0|747.37|0|2274.01|1|GameObject_Map_Grass|22
-1.66377|0|-3.63756|0|0|4|0|0|3.63756|0|-1.66377|0|710.71|0|1859.85|1|GameObject_Map_Grass|22
0.929278|0|1.77101|0|0|2|0|0|-1.77101|0|0.929278|0|-194.4|0|2.93|1|GameObject_Map_Grass|3
-0.696661|0|-1.87473|0|0|2|0|0|1.87473|0|-0.696661|0|90.56|0|9.45|1|GameObject_Map_Grass|3
-0.635421|0|-1.89637|0|0|2|0|0|1.89637|0|-0.635421|0|320.05|0|28.43|1|GameObject_Map_Grass|3
-1.97755|0|0.298789|0|0|2|0|0|-0.298789|0|-1.97755|0|516.3|0|-41.45|1|GameObject_Map_Grass|3
1.99902|0|-0.0627224|0|0|2|0|0|0.0627224|0|1.99902|0|657.06|0|-31.4|1|GameObject_Map_Grass|3
-1.37094|0|-1.4562|0|0|2|0|0|1.4562|0|-1.37094|0|759.67|0|-37.14|1|GameObject_Map_Grass|3
1.94009|0|-0.485833|0|0|2|0|0|0.485833|0|1.94009|0|1074.86|0|18.65|1|GameObject_Map_Grass|3
1.25496|0|-1.55727|0|0|2|0|0|1.55727|0|1.25496|0|932.24|0|-62.15|1|GameObject_Map_Grass|3
1.88459|0|0.669561|0|0|2|0|0|-0.669561|0|1.88459|0|963.45|0|-14.68|1|GameObject_Map_Grass|3
1.75706|0|0.955366|0|0|2|0|0|-0.955366|0|1.75706|0|1253.39|0|-7|1|GameObject_Map_Grass|3
-1.74882|0|-0.970374|0|0|2|0|0|0.970374|0|-1.74882|0|1231.2|0|-96.59|1|GameObject_Map_Grass|3
0.807351|0|1.82981|0|0|2|0|0|-1.82981|0|0.807351|0|1429.73|0|15.56|1|GameObject_Map_Grass|3
-0.15266|0|1.99418|0|0|2|0|0|-1.99418|0|-0.15266|0|1451.97|0|-128.93|1|GameObject_Map_Grass|3
-1.75982|0|-0.950279|0|0|2|0|0|0.950279|0|-1.75982|0|1827.43|0|93.31|1|GameObject_Map_Grass|3
-1.9875|0|0.223241|0|0|2|0|0|-0.223241|0|-1.9875|0|1644.64|0|-89.16|1|GameObject_Map_Grass|3
-1.55296|0|1.2603|0|0|2|0|0|-1.2603|0|-1.55296|0|1760.1|0|-105.85|1|GameObject_Map_Grass|3
0.825561|0|1.82167|0|0|2|0|0|-1.82167|0|0.825561|0|843.03|0|-18.44|1|GameObject_Map_Grass|3
-1.766|0|-0.93872|0|0|2|0|0|0.93872|0|-1.766|0|683.92|0|76.46|1|GameObject_Map_Grass|3
1.22815|0|-1.57849|0|0|2|0|0|1.57849|0|1.22815|0|608.13|0|-125.85|1|GameObject_Map_Grass|3
-1.24325|0|-1.56662|0|0|2|0|0|1.56662|0|-1.24325|0|693.06|0|-154.51|1|GameObject_Map_Grass|3
1.63429|0|-1.15288|0|0|2|0|0|1.15288|0|1.63429|0|693.06|0|-154.51|1|GameObject_Map_Grass|3
1.93575|0|-0.502867|0|0|2|0|0|0.502867|0|1.93575|0|693.06|0|-154.51|1|GameObject_Map_Grass|3
1.71909|0|-1.0221|0|0|2|0|0|1.0221|0|1.71909|0|693.06|0|-154.51|1|GameObject_Map_Grass|3
-1.71826|0|1.02352|0|0|2|0|0|-1.02352|0|-1.71826|0|533.92|0|-54.34|1|GameObject_Map_Grass|12
1.82441|0|-0.8195|0|0|2|0|0|0.8195|0|1.82441|0|608.52|0|-86.76|1|GameObject_Map_Grass|12
-1.62567|0|1.16498|0|0|2|0|0|-1.16498|0|-1.62567|0|608.52|0|-86.76|1|GameObject_Map_Grass|12
1.91936|0|0.562191|0|0|2|0|0|-0.562191|0|1.91936|0|1389.4|0|-55.57|1|GameObject_Map_Grass|12
-3.97113|0|0.479748|0|0|4|0|0|-0.479748|0|-3.97113|0|-212.08|0|-100.87|1|GameObject_Map_Grass|22
2.78684|0|-2.86942|0|0|4|0|0|2.86942|0|2.78684|0|16.63|0|-255.34|1|GameObject_Map_Grass|22
-3.88233|0|-0.963091|0|0|4|0|0|0.963091|0|-3.88233|0|194.19|0|-1.16|1|GameObject_Map_Grass|22
3.53142|0|1.87856|0|0|4|0|0|-1.87856|0|3.53142|0|194.19|0|-1.16|1|GameObject_Map_Grass|22
-3.89023|0|0.930637|0|0|4|0|0|-0.930637|0|-3.89023|0|66.85|0|-36.61|1|GameObject_Map_Grass|22
2.70097|0|-2.95038|0|0|4|0|0|2.95038|0|2.70097|0|250.96|0|-120.83|1|GameObject_Map_Grass|22
2.38498e-08|0|2|0|0|2|0|0|-2|0|2.38498e-08|0|163.26|0|-27.42|1|GameObject_Map_Tree|0
1.97231|0|0.331648|0|0|2|0|0|-0.331648|0|1.97231|0|157.91|0|-537.7|1|GameObject_Map_Grass|21
1.10755|0|-1.66534|0|0|2|0|0|1.66534|0|1.10755|0|157.91|0|-537.7|1|GameObject_Map_Grass|21
0.4893|0|1.93922|0|0|2|0|0|-1.93922|0|0.4893|0|203.7|0|-242.98|1|GameObject_Map_Grass|21
1.22491|0|-1.58102|0|0|2|0|0|1.58102|0|1.22491|0|203.7|0|-242.98|1|GameObject_Map_Grass|21
-1.98162|0|0.27046|0|0|2|0|0|-0.27046|0|-1.98162|0|203.7|0|-242.98|1|GameObject_Map_Grass|21
0.835809|0|-1.81698|0|0|2|0|0|1.81698|0|0.835809|0|203.7|0|-242.98|1|GameObject_Map_Grass|21
-1.99838|0|0.0806407|0|0|2|0|0|-0.0806407|0|-1.99838|0|203.7|0|-242.98|1|GameObject_Map_Grass|21
-1.87251|0|0.702635|0|0|2|0|0|-0.702635|0|-1.87251|0|203.7|0|-242.98|1|GameObject_Map_Grass|21
1.53582|0|1.28113|0|0|2|0|0|-1.28113|0|1.53582|0|24.1|0|-206.57|1|GameObject_Map_Grass|21
-1.33591|0|1.4884|0|0|2|0|0|-1.4884|0|-1.33591|0|24.1|0|-206.57|1|GameObject_Map_Grass|21
2.38498e-08|0|2|0|0|2|0|0|-2|0|2.38498e-08|0|2107.14|0|156.38|1|GameObject_Map_Tree|0
1.22036|0|1.58452|0|0|2|0|0|-1.58452|0|1.22036|0|1860.77|0|-126.38|1|GameObject_Map_Grass|7
0.19234|0|1.99073|0|0|2|0|0|-1.99073|0|0.19234|0|2019.24|0|-190.18|1|GameObject_Map_Grass|7
0.298671|0|-1.97758|0|0|2|0|0|1.97758|0|0.298671|0|1938.9|0|-100.34|1|GameObject_Map_Grass|7
1.97847|0|0.292583|0|0|2|0|0|-0.292583|0|1.97847|0|2051.73|0|-141.49|1|GameObject_Map_Grass|7
-1.13697|0|1.64539|0|0|2|0|0|-1.64539|0|-1.13697|0|1819.62|0|-13.91|1|GameObject_Map_Grass|7
1.02028|0|-1.72017|0|0|2|0|0|1.72017|0|1.02028|0|1840.97|0|36.52|1|GameObject_Map_Grass|21
-0.855238|0|-1.80791|0|0|2|0|0|1.80791|0|-0.855238|0|2006.87|0|-102.89|1|GameObject_Map_Grass|3
-1.90684|0|-0.603273|0|0|2|0|0|0.603273|0|-1.90684|0|1986.03|0|-94.86|1|GameObject_Map_Grass|3
1.72878|0|1.00564|0|0|2|0|0|-1.00564|0|1.72878|0|2059.19|0|-161.32|1|GameObject_Map_Grass|3
0.0556062|0|1.99922|0|0|2|0|0|-1.99922|0|0.0556062|0|1995.41|0|40.09|1|GameObject_Map_Grass|3
-0.377864|0|-1.96398|0|0|2|0|0|1.96398|0|-0.377864|0|2094.92|0|-21.85|1|GameObject_Map_Grass|3
-3.07029|0|2.56384|0|0|4|0|0|-2.56384|0|-3.07029|0|-314.84|0|918.7|1|GameObject_Map_Grass|3
-1.70678|0|3.61758|0|0|4|0|0|-3.61758|0|-1.70678|0|-341.95|0|607.67|1|GameObject_Map_Grass|3
-3.99925|0|0.0776427|0|0|4|0|0|-0.0776427|0|-3.99925|0|-438.69|0|860.19|1|GameObject_Map_Grass|3
1.6596|0|-3.63946|0|0|4|0|0|3.63946|0|1.6596|0|-385.54|0|59.94|1|GameObject_Map_Grass|3
2.83122|0|-2.82563|0|0|4|0|0|2.82563|0|2.83122|0|491.31|0|2210.67|1|GameObject_Map_Grass|3
-3.6754|0|-1.57844|0|0|4|0|0|1.57844|0|-3.6754|0|796.41|0|2223.94|1|GameObject_Map_Grass|3
-1.59104|0|-3.66995|0|0|4|0|0|3.66995|0|-1.59104|0|1145.28|0|2196.9|1|GameObject_Map_Grass|3
-2.23023|0|3.32057|0|0|4|0|0|-3.32057|0|-2.23023|0|1607.36|0|2124.69|1|GameObject_Map_Grass|3
3.2717|0|2.30129|0|0|4|0|0|-2.30129|0|3.2717|0|1732.2|0|2089.68|1|GameObject_Map_Grass|3
2.32839|0|3.25247|0|0|4|0|0|-3.25247|0|2.32839|0|2103.06|0|1975.33|1|GameObject_Map_Grass|3
1.81705|0|-0.835665|0|0|2|0|0|0.835665|0|1.81705|0|2382.43|0|1109.61|1|GameObject_Map_Grass|3
-1.69483|0|-1.06187|0|0|2|0|0|1.06187|0|-1.69483|0|2382.1|0|842.26|1|GameObject_Map_Grass|3
1.69497|0|-1.06163|0|0|2|0|0|1.06163|0|1.69497|0|2345.07|0|536.38|1|GameObject_Map_Grass|3
0.371894|0|-1.96512|0|0|2|0|0|1.96512|0|0.371894|0|2249.04|0|748.41|1|GameObject_Map_Grass|3
-0.275455|0|1.98094|0|0|2|0|0|-1.98094|0|-0.275455|0|2256.09|0|994.63|1|GameObject_Map_Grass|3
-1.22271|0|-1.58272|0|0|2|0|0|1.58272|0|-1.22271|0|2186.86|0|1130.91|1|GameObject_Map_Grass|3
1.97133|0|-0.337426|0|0|2|0|0|0.337426|0|1.97133|0|2235.09|0|736.65|1|GameObject_Map_Grass|3
-1.99999|0|0.00230615|0|0|2|0|0|-0.00230615|0|-1.99999|0|2212.2|0|563.54|1|GameObject_Map_Grass|3
1.92565|0|-0.540288|0|0|2|0|0|0.540288|0|1.92565|0|2143.05|0|1015.01|1|GameObject_Map_Grass|3
-0.52441|0|-1.93001|0|0|2|0|0|1.93001|0|-0.52441|0|2109.67|0|1135.57|1|GameObject_Map_Grass|3
1.49855|0|3.70869|0|0|4|0|0|-3.70869|0|1.49855|0|2691.19|0|1638.44|1|GameObject_Map_Grass|7
0.974717|0|-3.87943|0|0|4|0|0|3.87943|0|0.974717|0|2474.26|0|888.98|1|GameObject_Map_Grass|7
1.67043|0|-3.6345|0|0|4|0|0|3.6345|0|1.67043|0|2472.84|0|867.17|1|GameObject_Map_Grass|7
-1.53371|0|-3.69427|0|0|4|0|0|3.69427|0|-1.53371|0|-234.24|0|1634.96|1|GameObject_Map_Grass|7
2.2906|0|3.27921|0|0|4|0|0|-3.27921|0|2.2906|0|-138.65|0|1838.33|1|GameObject_Map_Grass|7
2.5973|0|3.04206|0|0|4|0|0|-3.04206|0|2.5973|0|-3.23|0|1991.52|1|GameObject_Map_Grass|7
2.98756|0|2.65978|0|0|4|0|0|-2.65978|0|2.98756|0|112.81|0|2016.73|1|GameObject_Map_Grass|7
3.97416|0|0.453868|0|0|4|0|0|-0.453868|0|3.97416|0|-441.36|0|12.51|1|GameObject_Map_Grass|7
-0.953619|0|3.88467|0|0|4|0|0|-3.88467|0|-0.953619|0|-483.72|0|-2.06|1|GameObject_Map_Grass|7
-1.34255|0|-3.76796|0|0|4|0|0|3.76796|0|-1.34255|0|-402.35|0|168.88|1|GameObject_Map_Grass|7
3.40328|0|-2.10184|0|0|4|0|0|2.10184|0|3.40328|0|-381.19|0|441.94|1|GameObject_Map_Grass|7
-2.64849|0|-2.99758|0|0|4|0|0|2.99758|0|-2.64849|0|1308.31|0|1635.69|1|GameObject_Map_Grass|21
0.865724|0|3.90518|0|0|4|0|0|-3.90518|0|0.865724|0|658.32|0|1859.85|1|GameObject_Map_Grass|21
-3.70424|0|1.5095|0|0|4|0|0|-1.5095|0|-3.70424|0|1020.14|0|1623.04|1|GameObject_Map_Grass|21
-2.98621|0|-2.66129|0|0|4|0|0|2.66129|0|-2.98621|0|1723.61|0|1635.69|1|GameObject_Map_Grass|21
-3.35306|0|-2.18105|0|0|4|0|0|2.18105|0|-3.35306|0|1957.95|0|1690.91|1|GameObject_Map_Grass|21
0.399987|0|-3.97995|0|0|4|0|0|3.97995|0|0.399987|0|119.35|0|1629.54|1|GameObject_Map_Grass|21
-3.1538|0|2.46041|0|0|4|0|0|-2.46041|0|-3.1538|0|238.65|0|1672.34|1|GameObject_Map_Grass|21
2.95866|0|-2.69189|0|0|4|0|0|2.69189|0|2.95866|0|270.39|0|1683.98|1|GameObject_Map_Grass|21
-0.0549012|0|3.99962|0|0|4|0|0|-3.99962|0|-0.0549012|0|2361.93|0|469.62|1|GameObject_Map_Grass|22
0.411101|0|3.97883|0|0|4|0|0|-3.97883|0|0.411101|0|2249.44|0|653.86|1|GameObject_Map_Grass|22
-3.99905|0|0.0875398|0|0|4|0|0|-0.0875398|0|-3.99905|0|2316.8|0|1184.04|1|GameObject_Map_Grass|22
3.47769|0|-1.97629|0|0|4|0|0|1.97629|0|3.47769|0|2311.14|0|1135.56|1|GameObject_Map_Grass|22
-1.33919|0|-3.76916|0|0|4|0|0|3.76916|0|-1.33919|0|2309.7|0|1135.56|1|GameObject_Map_Grass|22
-3.76966|0|-1.33777|0|0|4|0|0|1.33777|0|-3.76966|0|2356.9|0|832.67|1|GameObject_Map_Grass|22
0.881698|0|-3.90161|0|0|4|0|0|3.90161|0|0.881698|0|-341.46|0|521.94|1|GameObject_Map_Grass|22
2.58817|0|3.04981|0|0|4|0|0|-3.04981|0|2.58817|0|-265.99|0|927.48|1|GameObject_Map_Grass|22
-3.84507|0|1.10245|0|0|4|0|0|-1.10245|0|-3.84507|0|-162.56|0|1691.83|1|GameObject_Map_Grass|22
-3.83069|0|-1.15144|0|0|4|0|0|1.15144|0|-3.83069|0|-169.3|0|1257.61|1|GameObject_Map_Grass|22
-3.36747|0|2.15874|0|0|4|0|0|-2.15874|0|-3.36747|0|-258.31|0|954.72|1|GameObject_Map_Grass|22
-3.97581|0|-0.439253|0|0|4|0|0|0.439253|0|-3.97581|0|-258.65|0|954.72|1|GameObject_Map_Grass|22
-3.81558|0|-1.20058|0|0|4|0|0|1.20058|0|-3.81558|0|-350.4|0|287.68|1|GameObject_Map_Grass|22
0.194993|0|3.99524|0|0|4|0|0|-3.99524|0|0.194993|0|-273.48|0|1257.61|1|GameObject_Map_Grass|22
0.643486|0|3.9479|0|0|4|0|0|-3.9479|0|0.643486|0|947.15|0|2068.27|1|GameObject_Map_Grass|22
-0.323432|0|-3.9869|0|0|4|0|0|3.9869|0|-0.323432|0|2527.09|0|586.29|1|GameObject_Map_Grass|22
-0.934476|0|-3.88931|0|0|4|0|0|3.88931|0|-0.934476|0|1555.05|0|1762.65|1|GameObject_Map_Grass|21
2.92604|0|2.72732|0|0|4|0|0|-2.72732|0|2.92604|0|1635.45|0|2016.6|1|GameObject_Map_Grass|21
-3.98957|0|-0.28869|0|0|4|0|0|0.28869|0|-3.98957|0|470.77|0|1892.23|1|GameObject_Map_Grass|21
-0.693548|0|-3.93941|0|0|4|0|0|3.93941|0|-0.693548|0|628.79|0|2120.41|1|GameObject_Map_Grass|21
-2.75246|0|2.90241|0|0|4|0|0|-2.90241|0|-2.75246|0|2042.31|0|1762.65|1|GameObject_Map_Grass|21
-1.36687|0|-3.75921|0|0|4|0|0|3.75921|0|-1.36687|0|1184.77|0|1877.19|1|GameObject_Map_Grass|21
0.249414|0|-3.99221|0|0|4|0|0|3.99221|0|0.249414|0|789.86|0|1720.79|1|GameObject_Map_Grass|21
-1.94982|0|-3.49259|0|0|4|0|0|3.49259|0|-1.94982|0|1721.45|0|1753.84|1|GameObject_Map_Grass|21
-0.181048|0|-3.9959|0|0|4|0|0|3.9959|0|-0.181048|0|2546.39|0|1603.95|1|GameObject_Map_Grass|20
3.99998|0|0.0123455|0|0|4|0|0|-0.0123455|0|3.99998|0|2546.39|0|1805.37|1|GameObject_Map_Grass|20
3.79233|0|1.2721|0|0|4|0|0|-1.2721|0|3.79233|0|2421.82|0|1890.75|1|GameObject_Map_Grass|20
-3.98491|0|0.347103|0|0|4|0|0|-0.347103|0|-3.98491|0|1880.35|0|1985.62|1|GameObject_Map_Grass|20
-3.40595|0|2.0975|0|0|4|0|0|-2.0975|0|-3.40595|0|2691.19|0|1444.47|1|GameObject_Map_Grass|20
-3.74899|0|1.39466|0|0|4|0|0|-1.39466|0|-3.74899|0|2691.19|0|1258.33|1|GameObject_Map_Grass|20
1.72609|0|3.60841|0|0|4|0|0|-3.60841|0|1.72609|0|2634.55|0|1043.46|1|GameObject_Map_Grass|20
-3.90875|0|0.849512|0|0|4|0|0|-0.849512|0|-3.90875|0|2597.81|0|833.72|1|GameObject_Map_Grass|20
3.3792|0|2.14032|0|0|4|0|0|-2.14032|0|3.3792|0|2275.65|0|2177.55|1|GameObject_Map_Grass|20
2.61149|0|3.02987|0|0|4|0|0|-3.02987|0|2.61149|0|2014.74|0|2320.12|1|GameObject_Map_Grass|20
0.205874|0|3.9947|0|0|4|0|0|-3.9947|0|0.205874|0|2185.46|0|2318.58|1|GameObject_Map_Grass|20
-2.22818|0|-3.32193|0|0|4|0|0|3.32193|0|-2.22818|0|2358.98|0|2329.67|1|GameObject_Map_Grass|20
1.8692|0|3.5364|0|0|4|0|0|-3.5364|0|1.8692|0|2489.64|0|2080.24|1|GameObject_Map_Grass|20
-3.17559|0|2.43221|0|0|4|0|0|-2.43221|0|-3.17559|0|2207.6|0|2464.35|1|GameObject_Map_Grass|20
