xof 0303txt 0032
template ColorRGBA {
 <35ff44e0-6c7c-11cf-8f52-0040333594a3>
 FLOAT red;
 FLOAT green;
 FLOAT blue;
 FLOAT alpha;
}

template ColorRGB {
 <d3e16e81-7835-11cf-8f52-0040333594a3>
 FLOAT red;
 FLOAT green;
 FLOAT blue;
}

template Material {
 <3d82ab4d-62da-11cf-ab39-0020af71e433>
 ColorRGBA faceColor;
 FLOAT power;
 ColorRGB specularColor;
 ColorRGB emissiveColor;
 [...]
}

template TextureFilename {
 <a42790e1-7810-11cf-8f52-0040333594a3>
 STRING filename;
}

template Frame {
 <3d82ab46-62da-11cf-ab39-0020af71e433>
 [...]
}

template Matrix4x4 {
 <f6f23f45-7686-11cf-8f52-0040333594a3>
 array FLOAT matrix[16];
}

template FrameTransformMatrix {
 <f6f23f41-7686-11cf-8f52-0040333594a3>
 Matrix4x4 frameMatrix;
}

template Vector {
 <3d82ab5e-62da-11cf-ab39-0020af71e433>
 FLOAT x;
 FLOAT y;
 FLOAT z;
}

template MeshFace {
 <3d82ab5f-62da-11cf-ab39-0020af71e433>
 DWORD nFaceVertexIndices;
 array DWORD faceVertexIndices[nFaceVertexIndices];
}

template Mesh {
 <3d82ab44-62da-11cf-ab39-0020af71e433>
 DWORD nVertices;
 array Vector vertices[nVertices];
 DWORD nFaces;
 array MeshFace faces[nFaces];
 [...]
}

template MeshMaterialList {
 <f6f23f42-7686-11cf-8f52-0040333594a3>
 DWORD nMaterials;
 DWORD nFaceIndexes;
 array DWORD faceIndexes[nFaceIndexes];
 [Material <3d82ab4d-62da-11cf-ab39-0020af71e433>]
}

template VertexElement {
 <f752461c-1e23-48f6-b9f8-8350850f336f>
 DWORD Type;
 DWORD Method;
 DWORD Usage;
 DWORD UsageIndex;
}

template DeclData {
 <bf22e553-292c-4781-9fea-62bd554bdd93>
 DWORD nElements;
 array VertexElement Elements[nElements];
 DWORD nDWords;
 array DWORD data[nDWords];
}


Material MI_Crate03 {
 1.000000;1.000000;1.000000;1.000000;;
 10.000000;
 0.000000;0.000000;0.000000;;
 0.000000;0.000000;0.000000;;

 TextureFilename {
  "T_SM_Crate03.tga";
 }
}

Frame SM_Crate03 {
 

 FrameTransformMatrix {
  1.000000,0.000000,0.000000,0.000000,0.000000,1.000000,0.000000,0.000000,0.000000,0.000000,1.000000,0.000000,0.000000,0.000000,0.000000,1.000000;;
 }

 Mesh SM_Crate03 {
  380;
  -28.700554;20.798394;37.816115;,
  28.740019;20.798394;37.816115;,
  -28.700554;173.698496;37.816115;,
  28.740019;173.698496;37.816115;,
  -28.700554;20.798389;-38.199379;,
  -28.700554;173.698496;-38.199373;,
  28.740035;173.698496;-38.199373;,
  28.740035;20.798389;-38.199379;,
  -36.985642;173.698496;-28.683014;,
  -36.985642;20.798394;-28.683014;,
  -36.985642;20.798394;27.068832;,
  -36.985642;173.698496;27.068832;,
  37.632019;173.698496;-28.683014;,
  37.632019;20.798394;27.068832;,
  37.632019;20.798394;-28.683014;,
  37.632019;173.698496;27.068832;,
  28.740035;183.285248;-28.683014;,
  -28.700554;183.285248;-28.683014;,
  28.740035;183.285248;27.068832;,
  -28.700554;183.285248;27.068832;,
  -28.700554;173.698496;-38.199373;,
  -28.700554;173.698496;-41.899261;,
  28.740035;173.698496;-41.899261;,
  28.740035;173.698496;-38.199373;,
  -28.700554;173.698496;-41.899261;,
  -28.700554;20.798389;-38.199379;,
  -28.700554;20.798389;-41.899270;,
  -28.700554;173.698496;-38.199373;,
  28.740035;20.798389;-38.199379;,
  28.740035;20.798389;-41.899270;,
  -28.700554;20.798389;-41.899270;,
  -28.700554;20.798389;-38.199379;,
  28.740035;173.698496;-41.899261;,
  28.740035;20.798389;-41.899270;,
  28.740035;20.798389;-38.199379;,
  28.740035;173.698496;-38.199373;,
  -36.985642;20.798394;-28.683014;,
  -41.899258;20.798394;-28.683014;,
  -41.899258;20.798394;27.068832;,
  -36.985642;20.798394;27.068832;,
  -36.985642;173.698496;-28.683014;,
  -41.899258;20.798394;-28.683014;,
  -36.985642;20.798394;-28.683014;,
  -41.899258;173.698496;-28.683014;,
  -36.985642;173.698496;27.068832;,
  -41.899258;173.698496;-28.683014;,
  -36.985642;173.698496;-28.683014;,
  -41.899258;173.698496;27.068832;,
  -36.985642;20.798394;27.068832;,
  -41.899258;173.698496;27.068832;,
  -36.985642;173.698496;27.068832;,
  -41.899258;20.798394;27.068832;,
  37.632019;20.798394;-28.683014;,
  41.899258;20.798394;-28.683014;,
  41.899258;173.698496;-28.683014;,
  37.632019;173.698496;-28.683014;,
  37.632019;20.798394;27.068832;,
  41.899258;20.798394;-28.683014;,
  37.632019;20.798394;-28.683014;,
  41.899258;20.798394;27.068832;,
  37.632019;173.698496;27.068832;,
  41.899258;173.698496;27.068832;,
  41.899258;20.798394;27.068832;,
  37.632019;20.798394;27.068832;,
  37.632019;173.698496;-28.683014;,
  41.899258;173.698496;-28.683014;,
  41.899258;173.698496;27.068832;,
  37.632019;173.698496;27.068832;,
  -28.700554;20.798394;37.816115;,
  28.740019;20.798394;41.899261;,
  28.740019;20.798394;37.816115;,
  -28.700554;20.798394;41.899261;,
  -28.700554;173.698496;37.816115;,
  -28.700554;20.798394;41.899261;,
  -28.700554;20.798394;37.816115;,
  -28.700554;173.698496;41.899261;,
  28.740019;173.698496;37.816115;,
  -28.700554;173.698496;41.899261;,
  -28.700554;173.698496;37.816115;,
  28.740019;173.698496;41.899261;,
  28.740019;20.798394;37.816115;,
  28.740019;173.698496;41.899261;,
  28.740019;173.698496;37.816115;,
  28.740019;20.798394;41.899261;,
  28.740035;183.285248;-28.683014;,
  -28.700554;187.910669;-28.683014;,
  -28.700554;183.285248;-28.683014;,
  28.740035;187.910669;-28.683014;,
  28.740035;183.285248;27.068832;,
  28.740035;187.910669;-28.683014;,
  28.740035;183.285248;-28.683014;,
  28.740035;187.910669;27.068832;,
  28.740035;187.910669;27.068832;,
  -28.700554;183.285248;27.068832;,
  -28.700554;187.910669;27.068832;,
  28.740035;183.285248;27.068832;,
  -28.700554;183.285248;-28.683014;,
  -28.700554;187.910669;-28.683014;,
  -28.700554;187.910669;27.068832;,
  -28.700554;183.285248;27.068832;,
  38.259520;8.302519;-40.033990;,
  25.959733;0.000000;-40.033981;,
  25.959733;8.302519;-40.033990;,
  38.259520;0.000000;-40.033981;,
  38.259520;-0.000000;40.033981;,
  25.959733;8.302519;40.033981;,
  25.959733;-0.000000;40.033981;,
  38.259520;8.302519;40.033981;,
  25.959733;0.000000;-40.033981;,
  38.259520;0.000000;-40.033981;,
  25.959733;-0.000000;40.033981;,
  38.259520;-0.000000;40.033981;,
  38.259520;8.302519;40.033981;,
  38.259520;0.000000;-40.033981;,
  38.259520;8.302519;-40.033990;,
  38.259520;-0.000000;40.033981;,
  25.959733;0.000000;-40.033981;,
  25.959733;-0.000000;40.033981;,
  25.959733;8.302519;40.033981;,
  25.959733;8.302519;-40.033990;,
  -29.599437;8.302519;-40.033990;,
  -41.899226;0.000000;-40.033981;,
  -41.899226;8.302519;-40.033990;,
  -29.599437;0.000000;-40.033981;,
  -29.599437;-0.000000;40.033981;,
  -41.899226;8.302519;40.033981;,
  -41.899226;-0.000000;40.033981;,
  -29.599437;8.302519;40.033981;,
  -41.899226;0.000000;-40.033981;,
  -29.599437;0.000000;-40.033981;,
  -41.899226;-0.000000;40.033981;,
  -29.599437;-0.000000;40.033981;,
  -29.599437;8.302519;40.033981;,
  -29.599437;0.000000;-40.033981;,
  -29.599437;8.302519;-40.033990;,
  -29.599437;-0.000000;40.033981;,
  -41.899226;0.000000;-40.033981;,
  -41.899226;-0.000000;40.033981;,
  -41.899226;8.302519;40.033981;,
  -41.899226;8.302519;-40.033990;,
  6.015011;8.302519;-40.033990;,
  -6.015011;0.000000;-40.033997;,
  -6.015011;8.302519;-40.033990;,
  6.015011;0.000000;-40.033997;,
  6.015011;-0.000000;40.033981;,
  -6.015011;8.302519;40.033981;,
  -6.015011;-0.000000;40.033981;,
  6.015011;8.302519;40.033981;,
  -6.015011;0.000000;-40.033997;,
  6.015011;0.000000;-40.033997;,
  -6.015011;-0.000000;40.033981;,
  6.015011;-0.000000;40.033981;,
  6.015011;8.302519;-40.033990;,
  6.015011;8.302519;40.033981;,
  6.015011;-0.000000;40.033981;,
  6.015011;0.000000;-40.033997;,
  -6.015011;8.302519;-40.033990;,
  -6.015011;0.000000;-40.033997;,
  -6.015011;-0.000000;40.033981;,
  -6.015011;8.302519;40.033981;,
  28.740035;118.475955;-41.296365;,
  28.740035;97.365504;-41.296365;,
  -28.700538;173.932608;-41.296365;,
  -12.842660;173.932608;-41.296365;,
  -12.842660;173.932608;-41.296365;,
  28.740035;118.475955;-38.199373;,
  28.740035;118.475955;-41.296365;,
  -12.842660;173.932608;-38.199373;,
  28.740035;97.365504;-41.296365;,
  -28.700538;173.932608;-38.199373;,
  -28.700538;173.932608;-41.296365;,
  28.740035;97.365504;-38.199373;,
  28.740016;76.255014;-41.296365;,
  -12.842670;20.798389;-41.296365;,
  -28.700554;20.798389;-41.296365;,
  28.740035;97.365504;-41.296365;,
  -12.842670;20.798389;-38.199379;,
  -12.842670;20.798389;-41.296365;,
  28.740016;76.255014;-41.296365;,
  28.740016;76.255014;-38.199373;,
  28.740035;97.365504;-38.199373;,
  28.740035;97.365504;-41.296365;,
  -28.700554;20.798389;-38.199379;,
  -28.700554;20.798389;-41.296365;,
  40.729018;118.475955;-30.371757;,
  40.729018;173.932608;11.210939;,
  40.729018;173.932608;27.068816;,
  40.729018;97.365504;-30.371757;,
  37.632019;173.932608;11.210939;,
  40.729018;173.932608;11.210939;,
  37.632026;118.475955;-30.371757;,
  40.729018;118.475955;-30.371757;,
  37.632026;97.365504;-30.371757;,
  40.729018;97.365504;-30.371757;,
  40.729018;173.932608;27.068816;,
  37.632019;173.932608;27.068816;,
  40.729018;76.255014;-30.371734;,
  40.729018;20.798394;27.068832;,
  40.729018;20.798402;11.210953;,
  40.729018;97.365504;-30.371757;,
  40.729018;76.255014;-30.371734;,
  40.729018;20.798402;11.210953;,
  37.632026;20.798402;11.210953;,
  37.632019;76.255014;-30.371734;,
  40.729018;20.798394;27.068832;,
  40.729018;97.365504;-30.371757;,
  37.632026;97.365504;-30.371757;,
  37.632019;20.798394;27.068832;,
  28.740013;173.932608;40.913101;,
  -28.700570;118.475955;40.913101;,
  -28.700570;97.365504;40.913101;,
  12.882133;173.932608;40.913101;,
  -28.700570;118.475955;37.816115;,
  12.882133;173.932608;40.913101;,
  12.882133;173.932608;37.816115;,
  -28.700570;118.475955;40.913101;,
  28.740013;173.932608;37.816115;,
  -28.700570;97.365504;40.913101;,
  -28.700570;97.365491;37.816115;,
  28.740013;173.932608;40.913101;,
  -28.700554;76.255014;40.913101;,
  12.882133;20.798394;40.913101;,
  28.740029;20.798394;40.913101;,
  -28.700570;97.365504;40.913101;,
  -28.700554;76.255014;37.816115;,
  12.882133;20.798394;37.816115;,
  12.882133;20.798394;40.913101;,
  -28.700554;76.255014;40.913101;,
  -28.700570;97.365491;37.816115;,
  -28.700570;97.365504;40.913101;,
  28.740029;20.798394;40.913101;,
  28.740029;20.798394;37.816115;,
  -40.082637;97.365491;28.757584;,
  -40.082637;118.475955;28.757584;,
  -40.082637;173.932608;-28.682998;,
  -40.082637;173.932608;-12.825119;,
  -40.082637;118.475955;28.757584;,
  -36.985645;118.475955;28.757584;,
  -40.082637;173.932608;-12.825119;,
  -36.985638;173.932608;-12.825119;,
  -40.082637;173.932608;-28.682998;,
  -36.985638;173.932608;-28.682998;,
  -36.985645;97.365491;28.757584;,
  -40.082637;97.365491;28.757584;,
  -40.082637;20.798394;-28.683014;,
  -40.082637;76.255014;28.757552;,
  -40.082637;97.365491;28.757584;,
  -40.082637;20.798394;-12.825126;,
  -36.985645;20.798394;-12.825126;,
  -36.985638;76.255014;28.757552;,
  -40.082637;76.255014;28.757552;,
  -40.082637;20.798394;-12.825126;,
  -36.985645;97.365491;28.757584;,
  -36.985638;20.798394;-28.683014;,
  -40.082637;20.798394;-28.683014;,
  -40.082637;97.365491;28.757584;,
  28.740022;186.949338;-12.825134;,
  -28.700554;186.949338;11.210953;,
  -28.700554;186.949338;27.068832;,
  28.740022;186.949338;-28.683014;,
  28.740022;183.285248;-12.825134;,
  -28.700554;186.949338;27.068832;,
  -28.700554;183.285248;27.068832;,
  28.740022;186.949338;-12.825134;,
  -28.700554;183.285248;11.210953;,
  -28.700554;186.949338;11.210953;,
  28.740022;186.949338;-28.683014;,
  28.740022;183.285248;-28.683014;,
  -41.899258;173.698496;41.899261;,
  -41.899258;187.910669;41.899261;,
  -41.899258;187.910669;27.068832;,
  -41.899258;173.698496;27.068832;,
  -41.899258;187.910669;-28.683014;,
  -41.899258;20.798394;41.899261;,
  -41.899258;173.698496;-28.683014;,
  -41.899258;20.798394;27.068832;,
  -41.899258;187.910669;-41.899261;,
  -41.899258;8.689355;41.899261;,
  -41.899258;173.698496;-41.899261;,
  -41.899258;8.689355;27.068832;,
  -41.899258;20.798394;-28.683014;,
  -41.899258;20.798389;-41.899270;,
  -41.899258;8.689347;-28.683014;,
  -41.899258;8.689347;-41.899261;,
  41.899258;187.910669;27.068832;,
  41.899258;187.910669;41.899261;,
  41.899258;173.698496;41.899261;,
  41.899258;173.698496;27.068832;,
  41.899258;20.798394;41.899261;,
  41.899258;187.910669;-28.683014;,
  41.899258;20.798394;27.068832;,
  41.899258;8.689355;41.899261;,
  41.899258;173.698496;-28.683014;,
  41.899258;8.689355;27.068832;,
  41.899258;20.798394;-28.683014;,
  41.899258;8.689347;-28.683014;,
  41.899258;8.689347;-41.899261;,
  41.899258;20.798389;-41.899270;,
  41.899258;173.698496;-41.899261;,
  41.899258;187.910669;-41.899261;,
  -41.899258;187.910669;27.068832;,
  -41.899258;187.910669;41.899261;,
  -28.700554;187.910669;41.899261;,
  -28.700554;187.910669;27.068832;,
  28.740035;187.910669;41.899261;,
  -41.899258;187.910669;-28.683014;,
  28.740035;187.910669;27.068832;,
  -28.700554;187.910669;-28.683014;,
  38.997920;187.910669;41.899261;,
  -41.899258;187.910669;-41.899261;,
  -28.700554;187.910669;-41.899261;,
  28.740035;187.910669;-28.683014;,
  28.740035;187.910669;-41.899261;,
  38.997920;187.910669;-41.899261;,
  38.997920;187.910669;-28.683014;,
  41.899258;187.910669;-41.899261;,
  41.899258;187.910669;-28.683014;,
  38.997920;187.910669;27.068832;,
  41.899258;187.910669;27.068832;,
  41.899258;187.910669;41.899261;,
  41.899258;20.798394;41.899261;,
  38.997920;8.689355;41.899261;,
  41.899258;8.689355;41.899261;,
  38.997917;20.798394;41.899261;,
  28.740035;8.689355;41.899261;,
  41.899258;173.698496;41.899261;,
  28.740019;20.798394;41.899261;,
  -28.700554;8.689355;41.899261;,
  38.997917;173.698496;41.899261;,
  41.899258;187.910669;41.899261;,
  38.997920;187.910669;41.899261;,
  28.740035;187.910669;41.899261;,
  28.740019;173.698496;41.899261;,
  -28.700554;187.910669;41.899261;,
  -28.700554;173.698496;41.899261;,
  -41.899258;187.910669;41.899261;,
  -41.899258;173.698496;41.899261;,
  -28.700554;20.798394;41.899261;,
  -41.899258;20.798394;41.899261;,
  -41.899258;8.689355;41.899261;,
  41.899258;8.689347;-28.683014;,
  38.997920;8.689347;-41.899261;,
  41.899258;8.689347;-41.899261;,
  38.997920;8.689347;-28.683014;,
  28.740035;8.689347;-41.899261;,
  41.899258;8.689355;27.068832;,
  28.740035;8.689347;-28.683014;,
  38.997920;8.689355;27.068832;,
  41.899258;8.689355;41.899261;,
  38.997920;8.689355;41.899261;,
  -28.700554;8.689347;-41.899261;,
  28.740035;8.689355;27.068832;,
  28.740035;8.689355;41.899261;,
  -28.700554;8.689355;41.899261;,
  -28.700554;8.689355;27.068832;,
  -41.899258;8.689355;41.899261;,
  -41.899258;8.689355;27.068832;,
  -28.700554;8.689347;-28.683014;,
  -41.899258;8.689347;-28.683014;,
  -41.899258;8.689347;-41.899261;,
  41.899258;173.698496;-41.899261;,
  38.997920;187.910669;-41.899261;,
  41.899258;187.910669;-41.899261;,
  38.997920;173.698496;-41.899261;,
  28.740035;187.910669;-41.899261;,
  41.899258;20.798389;-41.899270;,
  28.740035;173.698496;-41.899261;,
  -28.700554;187.910669;-41.899261;,
  38.997920;20.798389;-41.899270;,
  41.899258;8.689347;-41.899261;,
  38.997920;8.689347;-41.899261;,
  28.740035;20.798389;-41.899270;,
  28.740035;8.689347;-41.899261;,
  -28.700554;8.689347;-41.899261;,
  -28.700554;20.798389;-41.899270;,
  -41.899258;8.689347;-41.899261;,
  -41.899258;20.798389;-41.899270;,
  -28.700554;173.698496;-41.899261;,
  -41.899258;173.698496;-41.899261;,
  -41.899258;187.910669;-41.899261;;
  256;
  3;0,1,2;,
  3;1,3,2;,
  3;4,5,6;,
  3;6,7,4;,
  3;8,9,10;,
  3;10,11,8;,
  3;12,13,14;,
  3;12,15,13;,
  3;16,17,18;,
  3;17,19,18;,
  3;20,21,22;,
  3;22,23,20;,
  3;24,25,26;,
  3;24,27,25;,
  3;28,29,30;,
  3;30,31,28;,
  3;32,33,34;,
  3;34,35,32;,
  3;36,37,38;,
  3;38,39,36;,
  3;40,41,42;,
  3;41,40,43;,
  3;44,45,46;,
  3;45,44,47;,
  3;48,49,50;,
  3;49,48,51;,
  3;52,53,54;,
  3;54,55,52;,
  3;56,57,58;,
  3;57,56,59;,
  3;60,61,62;,
  3;62,63,60;,
  3;64,65,66;,
  3;66,67,64;,
  3;68,69,70;,
  3;68,71,69;,
  3;72,73,74;,
  3;72,75,73;,
  3;76,77,78;,
  3;76,79,77;,
  3;80,81,82;,
  3;80,83,81;,
  3;84,85,86;,
  3;84,87,85;,
  3;88,89,90;,
  3;89,88,91;,
  3;92,93,94;,
  3;92,95,93;,
  3;96,97,98;,
  3;98,99,96;,
  3;100,101,102;,
  3;100,103,101;,
  3;104,105,106;,
  3;104,107,105;,
  3;108,109,110;,
  3;109,111,110;,
  3;112,113,114;,
  3;113,112,115;,
  3;116,117,118;,
  3;118,119,116;,
  3;120,121,122;,
  3;120,123,121;,
  3;124,125,126;,
  3;124,127,125;,
  3;128,129,130;,
  3;129,131,130;,
  3;132,133,134;,
  3;133,132,135;,
  3;136,137,138;,
  3;138,139,136;,
  3;140,141,142;,
  3;140,143,141;,
  3;144,145,146;,
  3;144,147,145;,
  3;148,149,150;,
  3;149,151,150;,
  3;152,153,154;,
  3;154,155,152;,
  3;156,157,158;,
  3;158,159,156;,
  3;160,161,162;,
  3;162,163,160;,
  3;164,165,166;,
  3;164,167,165;,
  3;168,169,170;,
  3;168,171,169;,
  3;172,173,174;,
  3;175,172,174;,
  3;176,177,178;,
  3;178,179,176;,
  3;180,181,182;,
  3;183,182,181;,
  3;184,185,186;,
  3;187,184,186;,
  3;188,189,190;,
  3;189,191,190;,
  3;192,193,194;,
  3;194,195,192;,
  3;196,197,198;,
  3;197,196,199;,
  3;200,201,202;,
  3;202,203,200;,
  3;204,205,206;,
  3;206,207,204;,
  3;208,209,210;,
  3;208,211,209;,
  3;212,213,214;,
  3;212,215,213;,
  3;216,217,218;,
  3;216,219,217;,
  3;220,221,222;,
  3;223,220,222;,
  3;224,225,226;,
  3;226,227,224;,
  3;228,229,230;,
  3;230,231,228;,
  3;232,233,234;,
  3;233,235,234;,
  3;236,237,238;,
  3;237,239,238;,
  3;240,241,242;,
  3;242,243,240;,
  3;244,245,246;,
  3;244,247,245;,
  3;248,249,250;,
  3;250,251,248;,
  3;252,253,254;,
  3;254,255,252;,
  3;256,257,258;,
  3;257,256,259;,
  3;260,261,262;,
  3;260,263,261;,
  3;264,265,266;,
  3;266,267,264;,
  3;268,269,270;,
  3;270,271,268;,
  3;271,270,272;,
  3;273,268,271;,
  3;272,274,271;,
  3;271,275,273;,
  3;274,272,276;,
  3;277,273,275;,
  3;276,278,274;,
  3;275,279,277;,
  3;280,274,278;,
  3;279,275,280;,
  3;278,281,280;,
  3;280,282,279;,
  3;280,281,283;,
  3;283,282,280;,
  3;284,285,286;,
  3;286,287,284;,
  3;287,286,288;,
  3;289,284,287;,
  3;287,288,290;,
  3;290,288,291;,
  3;287,292,289;,
  3;293,290,291;,
  3;294,290,293;,
  3;293,295,294;,
  3;296,294,295;,
  3;297,294,296;,
  3;294,297,298;,
  3;298,292,294;,
  3;298,289,292;,
  3;299,289,298;,
  3;300,301,302;,
  3;303,300,302;,
  3;303,302,304;,
  3;305,300,303;,
  3;303,304,306;,
  3;307,305,303;,
  3;306,304,308;,
  3;309,305,307;,
  3;310,309,307;,
  3;310,307,311;,
  3;310,311,312;,
  3;313,312,311;,
  3;311,314,313;,
  3;314,311,306;,
  3;315,313,314;,
  3;314,316,315;,
  3;306,317,314;,
  3;316,314,317;,
  3;306,308,317;,
  3;317,318,316;,
  3;317,308,319;,
  3;318,317,319;,
  3;320,321,322;,
  3;321,320,323;,
  3;321,323,324;,
  3;325,323,320;,
  3;324,323,326;,
  3;324,326,327;,
  3;323,325,328;,
  3;328,326,323;,
  3;325,329,330;,
  3;330,328,325;,
  3;328,330,331;,
  3;326,328,332;,
  3;331,332,328;,
  3;332,331,333;,
  3;332,333,334;,
  3;334,333,335;,
  3;334,335,336;,
  3;337,334,336;,
  3;337,327,326;,
  3;338,337,336;,
  3;327,337,338;,
  3;327,338,339;,
  3;340,341,342;,
  3;341,340,343;,
  3;341,343,344;,
  3;345,343,340;,
  3;344,343,346;,
  3;343,345,347;,
  3;347,346,343;,
  3;348,347,345;,
  3;347,348,349;,
  3;344,346,350;,
  3;347,349,351;,
  3;346,347,351;,
  3;351,349,352;,
  3;351,352,353;,
  3;353,354,351;,
  3;346,351,354;,
  3;354,353,355;,
  3;354,355,356;,
  3;357,346,354;,
  3;357,354,356;,
  3;357,350,346;,
  3;358,357,356;,
  3;350,357,358;,
  3;350,358,359;,
  3;360,361,362;,
  3;361,360,363;,
  3;361,363,364;,
  3;365,363,360;,
  3;364,363,366;,
  3;364,366,367;,
  3;363,365,368;,
  3;368,366,363;,
  3;369,368,365;,
  3;368,369,370;,
  3;366,368,371;,
  3;368,370,371;,
  3;371,370,372;,
  3;371,372,373;,
  3;371,373,374;,
  3;374,373,375;,
  3;374,375,376;,
  3;377,374,376;,
  3;377,367,366;,
  3;378,377,376;,
  3;367,377,378;,
  3;367,378,379;;

  MeshMaterialList {
   1;
   256;
   0,
   0,
   0,
   0,
   0,
   0,
   0,
   0,
   0,
   0,
   0,
   0,
   0,
   0,
   0,
   0,
   0,
   0,
   0,
   0,
   0,
   0,
   0,
   0,
   0,
   0,
   0,
   0,
   0,
   0,
   0,
   0,
   0,
   0,
   0,
   0,
   0,
   0,
   0,
   0,
   0,
   0,
   0,
   0,
   0,
   0,
   0,
   0,
   0,
   0,
   0,
   0,
   0,
   0,
   0,
   0,
   0,
   0,
   0,
   0,
   0,
   0,
   0,
   0,
   0,
   0,
   0,
   0,
   0,
   0,
   0,
   0,
   0,
   0,
   0,
   0,
   0,
   0,
   0,
   0,
   0,
   0,
   0,
   0,
   0,
   0,
   0,
   0,
   0,
   0,
   0,
   0,
   0,
   0,
   0,
   0,
   0,
   0,
   0,
   0,
   0,
   0,
   0,
   0,
   0,
   0,
   0,
   0,
   0,
   0,
   0,
   0,
   0,
   0,
   0,
   0,
   0,
   0,
   0,
   0,
   0,
   0,
   0,
   0,
   0,
   0,
   0,
   0,
   0,
   0,
   0,
   0,
   0,
   0,
   0,
   0,
   0,
   0,
   0,
   0,
   0,
   0,
   0,
   0,
   0,
   0,
   0,
   0,
   0,
   0,
   0,
   0,
   0,
   0,
   0,
   0,
   0,
   0,
   0,
   0,
   0,
   0,
   0,
   0,
   0,
   0,
   0,
   0,
   0,
   0,
   0,
   0,
   0,
   0,
   0,
   0,
   0,
   0,
   0,
   0,
   0,
   0,
   0,
   0,
   0,
   0,
   0,
   0,
   0,
   0,
   0,
   0,
   0,
   0,
   0,
   0,
   0,
   0,
   0,
   0,
   0,
   0,
   0,
   0,
   0,
   0,
   0,
   0,
   0,
   0,
   0,
   0,
   0,
   0,
   0,
   0,
   0,
   0,
   0,
   0,
   0,
   0,
   0,
   0,
   0,
   0,
   0,
   0,
   0,
   0,
   0,
   0,
   0,
   0,
   0,
   0,
   0,
   0,
   0,
   0,
   0,
   0,
   0,
   0,
   0,
   0,
   0,
   0,
   0,
   0,
   0,
   0,
   0,
   0,
   0,
   0;
   { MI_Crate03 }
  }

  DeclData {
   3;
   2;0;3;0;,
   1;0;5;0;,
   1;0;5;1;;
   2660;
   0,
   0,
   1065353216,
   1055727616,
   1064427520,
   1055727616,
   1064427520,
   0,
   0,
   1065353216,
   1050263552,
   1064427520,
   1050263552,
   1064427520,
   0,
   0,
   1065353216,
   1055727616,
   1057767424,
   1055727616,
   1057767424,
   0,
   0,
   1065353216,
   1050263552,
   1057767424,
   1050263552,
   1057767424,
   0,
   861294419,
   3212836864,
   1029906432,
   1064427520,
   1029906432,
   1064427520,
   0,
   861294417,
   3212836864,
   1029906432,
   1057767424,
   1029906432,
   1057767424,
   0,
   861294419,
   3212836864,
   1046446080,
   1057767424,
   1046446080,
   1057767424,
   0,
   861294417,
   3212836864,
   1046446080,
   1064427520,
   1046446080,
   1064427520,
   3212836864,
   0,
   0,
   1064558592,
   1057767424,
   1064558592,
   1057767424,
   3212836864,
   0,
   0,
   1064558592,
   1064427520,
   1064558592,
   1064427520,
   3212836864,
   0,
   0,
   1061904384,
   1064427520,
   1061904384,
   1064427520,
   3212836864,
   0,
   0,
   1061904384,
   1057767424,
   1061904384,
   1057767424,
   1065353216,
   0,
   0,
   1057718272,
   1057767424,
   1057718272,
   1057767424,
   1065353216,
   0,
   0,
   1060372480,
   1064427520,
   1060372480,
   1064427520,
   1065353216,
   0,
   0,
   1057718272,
   1064427520,
   1057718272,
   1064427520,
   1065353216,
   0,
   0,
   1060372480,
   1057767424,
   1060372480,
   1057767424,
   0,
   1065353216,
   0,
   1059291136,
   1055850496,
   1059291136,
   1055850496,
   0,
   1065353216,
   0,
   1056153600,
   1055850496,
   1056153600,
   1055850496,
   0,
   1065353216,
   0,
   1059291136,
   1050550272,
   1059291136,
   1050550272,
   0,
   1065353216,
   0,
   1056153600,
   1050550272,
   1056153600,
   1050550272,
   0,
   3212836864,
   0,
   1062445056,
   1032257536,
   1062445056,
   1032257536,
   0,
   3212836864,
   0,
   1062445056,
   1029906432,
   1062445056,
   1029906432,
   0,
   3212836864,
   0,
   1065172992,
   1029906432,
   1065172992,
   1029906432,
   0,
   3212836864,
   0,
   1065172992,
   1032257536,
   1065172992,
   1032257536,
   1065353216,
   0,
   0,
   1062076416,
   1037860864,
   1062076416,
   1037860864,
   1065353216,
   0,
   0,
   1062248448,
   1057038336,
   1062248448,
   1057038336,
   1065353216,
   0,
   0,
   1062076416,
   1057038336,
   1062076416,
   1057038336,
   1065353216,
   0,
   0,
   1062248448,
   1037860864,
   1062248448,
   1037860864,
   0,
   1065353216,
   0,
   1065172992,
   1032978432,
   1065172992,
   1032978432,
   0,
   1065353216,
   0,
   1065172992,
   1034387456,
   1065172992,
   1034387456,
   0,
   1065353216,
   0,
   1062445056,
   1034387456,
   1062445056,
   1034387456,
   0,
   1065353216,
   0,
   1062445056,
   1032978432,
   1062445056,
   1032978432,
   3212836864,
   0,
   0,
   1061986304,
   1037860864,
   1061986304,
   1037860864,
   3212836864,
   0,
   0,
   1061986304,
   1057038336,
   1061986304,
   1057038336,
   3212836864,
   0,
   0,
   1061806080,
   1057038336,
   1061806080,
   1057038336,
   3212836864,
   0,
   0,
   1061806080,
   1037860864,
   1061806080,
   1037860864,
   0,
   1065353216,
   0,
   1046069248,
   1028472832,
   1046069248,
   1028472832,
   0,
   1065353216,
   0,
   1046069248,
   1024737280,
   1046069248,
   1024737280,
   0,
   1065353216,
   0,
   1052622848,
   1024737280,
   1052622848,
   1024737280,
   0,
   1065353216,
   0,
   1052622848,
   1028472832,
   1052622848,
   1028472832,
   0,
   0,
   1065353216,
   1061486592,
   1037860864,
   1061486592,
   1037860864,
   0,
   0,
   1065353216,
   1061715968,
   1057038336,
   1061715968,
   1057038336,
   0,
   0,
   1065353216,
   1061486592,
   1057038336,
   1061486592,
   1057038336,
   0,
   0,
   1065353216,
   1061715968,
   1037860864,
   1061715968,
   1037860864,
   0,
   3212836864,
   0,
   1052622848,
   1015709696,
   1052622848,
   1015709696,
   0,
   3212836864,
   0,
   1046069248,
   1023188992,
   1046069248,
   1023188992,
   0,
   3212836864,
   0,
   1046069248,
   1015709696,
   1046069248,
   1015709696,
   0,
   3212836864,
   0,
   1052622848,
   1023188992,
   1052622848,
   1023188992,
   0,
   0,
   3212836864,
   1061396480,
   1057038336,
   1061396480,
   1057038336,
   0,
   0,
   3212836864,
   1061158912,
   1037860864,
   1061158912,
   1037860864,
   0,
   0,
   3212836864,
   1061396480,
   1037860864,
   1061396480,
   1037860864,
   0,
   0,
   3212836864,
   1061158912,
   1057038336,
   1061158912,
   1057038336,
   0,
   0,
   1065353216,
   1061068800,
   1057038336,
   1061068800,
   1057038336,
   0,
   0,
   1065353216,
   1060864000,
   1057038336,
   1060864000,
   1057038336,
   0,
   0,
   1065353216,
   1060864000,
   1037860864,
   1060864000,
   1037860864,
   0,
   0,
   1065353216,
   1061068800,
   1037860864,
   1061068800,
   1037860864,
   0,
   1065353216,
   0,
   1040809984,
   1037230080,
   1040809984,
   1037230080,
   0,
   1065353216,
   0,
   1041620992,
   1048944640,
   1041620992,
   1048944640,
   0,
   1065353216,
   0,
   1040809984,
   1048944640,
   1040809984,
   1048944640,
   0,
   1065353216,
   0,
   1041620992,
   1037230080,
   1041620992,
   1037230080,
   0,
   0,
   3212836864,
   1060577280,
   1037860864,
   1060577280,
   1037860864,
   0,
   0,
   3212836864,
   1060773888,
   1037860864,
   1060773888,
   1037860864,
   0,
   0,
   3212836864,
   1060773888,
   1057038336,
   1060773888,
   1057038336,
   0,
   0,
   3212836864,
   1060577280,
   1057038336,
   1060577280,
   1057038336,
   0,
   3212836864,
   0,
   1040449536,
   1048944640,
   1040449536,
   1048944640,
   0,
   3212836864,
   0,
   1039097856,
   1048944640,
   1039097856,
   1048944640,
   0,
   3212836864,
   0,
   1039097856,
   1037230080,
   1039097856,
   1037230080,
   0,
   3212836864,
   0,
   1040449536,
   1037230080,
   1040449536,
   1037230080,
   0,
   1065353216,
   0,
   1062445056,
   1036656640,
   1062445056,
   1036656640,
   0,
   1065353216,
   0,
   1065172992,
   1035108352,
   1065172992,
   1035108352,
   0,
   1065353216,
   0,
   1065172992,
   1036656640,
   1065172992,
   1036656640,
   0,
   1065353216,
   0,
   1062445056,
   1035108352,
   1062445056,
   1035108352,
   1065353216,
   0,
   0,
   1060290560,
   1037860864,
   1060290560,
   1037860864,
   1065353216,
   0,
   0,
   1060487168,
   1057038336,
   1060487168,
   1057038336,
   1065353216,
   0,
   0,
   1060290560,
   1057038336,
   1060290560,
   1057038336,
   1065353216,
   0,
   0,
   1060487168,
   1037860864,
   1060487168,
   1037860864,
   0,
   3212836864,
   0,
   1065172992,
   1037377536,
   1065172992,
   1037377536,
   0,
   3212836864,
   0,
   1062445056,
   1038934016,
   1062445056,
   1038934016,
   0,
   3212836864,
   0,
   1062445056,
   1037377536,
   1062445056,
   1037377536,
   0,
   3212836864,
   0,
   1065172992,
   1038934016,
   1065172992,
   1038934016,
   3212836864,
   0,
   0,
   1060200448,
   1057038336,
   1060200448,
   1057038336,
   3212836864,
   0,
   0,
   1060003840,
   1037860864,
   1060003840,
   1037860864,
   3212836864,
   0,
   0,
   1060200448,
   1037860864,
   1060200448,
   1037860864,
   3212836864,
   0,
   0,
   1060003840,
   1057038336,
   1060003840,
   1057038336,
   0,
   0,
   1065353216,
   1065172992,
   1039654912,
   1065172992,
   1039654912,
   0,
   0,
   1065353216,
   1062445056,
   1040752640,
   1062445056,
   1040752640,
   0,
   0,
   1065353216,
   1062445056,
   1039654912,
   1062445056,
   1039654912,
   0,
   0,
   1065353216,
   1065172992,
   1040752640,
   1065172992,
   1040752640,
   3212836864,
   0,
   0,
   1055285248,
   1034256384,
   1055285248,
   1034256384,
   3212836864,
   0,
   0,
   1058775040,
   1032585216,
   1058775040,
   1032585216,
   3212836864,
   0,
   0,
   1058775040,
   1034256384,
   1058775040,
   1034256384,
   3212836864,
   0,
   0,
   1055285248,
   1032585216,
   1055285248,
   1032585216,
   0,
   0,
   3212836864,
   1065172992,
   1041113088,
   1065172992,
   1041113088,
   0,
   0,
   3212836864,
   1062445056,
   1041948672,
   1062445056,
   1041948672,
   0,
   0,
   3212836864,
   1062445056,
   1041113088,
   1062445056,
   1041113088,
   0,
   0,
   3212836864,
   1065172992,
   1041948672,
   1065172992,
   1041948672,
   1065353216,
   0,
   0,
   1058775040,
   1028603904,
   1058775040,
   1028603904,
   1065353216,
   0,
   0,
   1058775040,
   1031864320,
   1058775040,
   1031864320,
   1065353216,
   0,
   0,
   1055285248,
   1031864320,
   1055285248,
   1031864320,
   1065353216,
   0,
   0,
   1055285248,
   1028603904,
   1055285248,
   1028603904,
   0,
   3044453393,
   3212836864,
   1035304960,
   1036976128,
   1035304960,
   1036976128,
   0,
   3044453393,
   3212836864,
   1029455872,
   1039966208,
   1029455872,
   1039966208,
   0,
   3044453392,
   3212836864,
   1029455872,
   1036976128,
   1029455872,
   1036976128,
   0,
   3044453392,
   3212836864,
   1035304960,
   1039966208,
   1035304960,
   1039966208,
   0,
   0,
   1065353216,
   1035476992,
   1044209664,
   1035476992,
   1044209664,
   0,
   0,
   1065353216,
   1029799936,
   1045708800,
   1029799936,
   1045708800,
   0,
   0,
   1065353216,
   1029799936,
   1044209664,
   1029799936,
   1044209664,
   0,
   0,
   1065353216,
   1035476992,
   1045708800,
   1035476992,
   1045708800,
   0,
   3212836864,
   2760716594,
   1063436288,
   1056972800,
   1063436288,
   1056972800,
   0,
   3212836864,
   2760716594,
   1062846464,
   1056972800,
   1062846464,
   1056972800,
   0,
   3212836864,
   2760716594,
   1063436288,
   1049362432,
   1063436288,
   1049362432,
   0,
   3212836864,
   2760716594,
   1062846464,
   1049362432,
   1062846464,
   1049362432,
   1065353216,
   0,
   0,
   1044561920,
   1057038336,
   1044561920,
   1057038336,
   1065353216,
   0,
   0,
   1043062784,
   1049493504,
   1043062784,
   1049493504,
   1065353216,
   0,
   0,
   1044561920,
   1049493504,
   1044561920,
   1049493504,
   1065353216,
   0,
   0,
   1043062784,
   1057038336,
   1043062784,
   1057038336,
   3212836864,
   0,
   0,
   1042702336,
   1049493504,
   1042702336,
   1049493504,
   3212836864,
   0,
   0,
   1042702336,
   1057038336,
   1042702336,
   1057038336,
   3212836864,
   0,
   0,
   1041203200,
   1057038336,
   1041203200,
   1057038336,
   3212836864,
   0,
   0,
   1041203200,
   1049493504,
   1041203200,
   1049493504,
   0,
   3044453393,
   3212836864,
   1035476992,
   1046069248,
   1035476992,
   1046069248,
   0,
   3044453393,
   3212836864,
   1029799936,
   1047568384,
   1029799936,
   1047568384,
   0,
   3044453392,
   3212836864,
   1029799936,
   1046069248,
   1029799936,
   1046069248,
   0,
   3044453392,
   3212836864,
   1035476992,
   1047568384,
   1035476992,
   1047568384,
   0,
   0,
   1065353216,
   1035476992,
   1047920640,
   1035476992,
   1047920640,
   0,
   0,
   1065353216,
   1029799936,
   1048993792,
   1029799936,
   1048993792,
   0,
   0,
   1065353216,
   1029799936,
   1047920640,
   1029799936,
   1047920640,
   0,
   0,
   1065353216,
   1035476992,
   1048993792,
   1035476992,
   1048993792,
   0,
   3212836864,
   2760716594,
   1064108032,
   1056972800,
   1064108032,
   1056972800,
   0,
   3212836864,
   2760716594,
   1063526400,
   1056972800,
   1063526400,
   1056972800,
   0,
   3212836864,
   2760716594,
   1064108032,
   1049362432,
   1064108032,
   1049362432,
   0,
   3212836864,
   2760716594,
   1063526400,
   1049362432,
   1063526400,
   1049362432,
   1065353216,
   0,
   0,
   1040842752,
   1057038336,
   1040842752,
   1057038336,
   1065353216,
   0,
   0,
   1038508032,
   1049493504,
   1038508032,
   1049493504,
   1065353216,
   0,
   0,
   1040842752,
   1049493504,
   1040842752,
   1049493504,
   1065353216,
   0,
   0,
   1038508032,
   1057038336,
   1038508032,
   1057038336,
   3212836864,
   0,
   0,
   1037795328,
   1049493504,
   1037795328,
   1049493504,
   3212836864,
   0,
   0,
   1037795328,
   1057038336,
   1037795328,
   1057038336,
   3212836864,
   0,
   0,
   1034797056,
   1057038336,
   1034797056,
   1057038336,
   3212836864,
   0,
   0,
   1034797056,
   1049493504,
   1034797056,
   1049493504,
   0,
   896969746,
   3212836864,
   1035272192,
   1040400384,
   1035272192,
   1040400384,
   0,
   896969746,
   3212836864,
   1029595136,
   1041899520,
   1029595136,
   1041899520,
   0,
   896969745,
   3212836864,
   1029595136,
   1040400384,
   1029595136,
   1040400384,
   0,
   896969745,
   3212836864,
   1035272192,
   1041899520,
   1035272192,
   1041899520,
   0,
   0,
   1065353216,
   1035272192,
   1042259968,
   1035272192,
   1042259968,
   0,
   0,
   1065353216,
   1029595136,
   1043750912,
   1029595136,
   1043750912,
   0,
   0,
   1065353216,
   1029595136,
   1042259968,
   1029595136,
   1042259968,
   0,
   0,
   1065353216,
   1035272192,
   1043750912,
   1035272192,
   1043750912,
   0,
   3212836864,
   2760716594,
   1034076160,
   1057038336,
   1034076160,
   1057038336,
   0,
   3212836864,
   2760716594,
   1027203072,
   1057038336,
   1027203072,
   1057038336,
   0,
   3212836864,
   2760716594,
   1034076160,
   1049493504,
   1034076160,
   1049493504,
   0,
   3212836864,
   2760716594,
   1027203072,
   1049493504,
   1027203072,
   1049493504,
   1065353216,
   0,
   0,
   1025851392,
   1049493504,
   1025851392,
   1049493504,
   1065353216,
   0,
   0,
   1025851392,
   1057038336,
   1025851392,
   1057038336,
   1065353216,
   0,
   0,
   1016324096,
   1057038336,
   1016324096,
   1057038336,
   1065353216,
   0,
   0,
   1016324096,
   1049493504,
   1016324096,
   1049493504,
   3212836864,
   0,
   0,
   1062379520,
   1049362432,
   1062379520,
   1049362432,
   3212836864,
   0,
   0,
   1062756352,
   1049362432,
   1062756352,
   1049362432,
   3212836864,
   0,
   0,
   1062756352,
   1056972800,
   1062756352,
   1056972800,
   3212836864,
   0,
   0,
   1062379520,
   1056972800,
   1062379520,
   1056972800,
   0,
   0,
   3212836864,
   1059045376,
   1041768448,
   1059045376,
   1041768448,
   0,
   0,
   3212836864,
   1059758080,
   1044094976,
   1059758080,
   1044094976,
   0,
   0,
   3212836864,
   1053941760,
   1044127744,
   1053941760,
   1044127744,
   0,
   0,
   3212836864,
   1054892032,
   1041784832,
   1054892032,
   1041784832,
   1061998910,
   1058640813,
   0,
   1062404096,
   1043144704,
   1062404096,
   1043144704,
   1061998910,
   1058640813,
   0,
   1064812544,
   1042554880,
   1064812544,
   1042554880,
   1061998910,
   1058640813,
   0,
   1064812544,
   1043144704,
   1064812544,
   1043144704,
   1061998910,
   1058640813,
   0,
   1062404096,
   1042554880,
   1062404096,
   1042554880,
   3209480137,
   3206127690,
   0,
   1064378368,
   1056825344,
   1064378368,
   1056825344,
   3209480137,
   3206127690,
   0,
   1064230912,
   1050157056,
   1064230912,
   1050157056,
   3209480137,
   3206127689,
   0,
   1064378368,
   1050157056,
   1064378368,
   1050157056,
   3209480137,
   3206127689,
   0,
   1064230912,
   1056825344,
   1064230912,
   1056825344,
   0,
   0,
   3212836864,
   1044971520,
   1031806976,
   1044971520,
   1031806976,
   0,
   0,
   3212836864,
   1053016064,
   1031864320,
   1053016064,
   1031864320,
   0,
   0,
   3212836864,
   1053966336,
   1036541952,
   1053966336,
   1036541952,
   0,
   0,
   3212836864,
   1042120704,
   1036451840,
   1042120704,
   1036451840,
   1061998908,
   3206124464,
   0,
   1064812544,
   1046355968,
   1064812544,
   1046355968,
   1061998909,
   3206124463,
   0,
   1064812544,
   1046945792,
   1064812544,
   1046945792,
   1061998909,
   3206124462,
   0,
   1062404096,
   1046945792,
   1062404096,
   1046945792,
   1061998909,
   3206124462,
   0,
   1062404096,
   1046355968,
   1062404096,
   1046355968,
   3209480137,
   1058644042,
   0,
   1062289408,
   1030963200,
   1062289408,
   1030963200,
   3209480136,
   1058644042,
   0,
   1062289408,
   1032560640,
   1062289408,
   1032560640,
   3209480137,
   1058644041,
   0,
   1058955264,
   1030963200,
   1058955264,
   1030963200,
   3209480137,
   1058644041,
   0,
   1058955264,
   1032560640,
   1058955264,
   1032560640,
   1065353216,
   0,
   0,
   1052614656,
   1041178624,
   1052614656,
   1041178624,
   1065353216,
   0,
   0,
   1044176896,
   1041145856,
   1044176896,
   1041145856,
   1065353216,
   0,
   0,
   1042268160,
   1037434880,
   1042268160,
   1037434880,
   1065353216,
   0,
   0,
   1054040064,
   1037524992,
   1054040064,
   1037524992,
   0,
   1058640813,
   3209482558,
   1062404096,
   1044094976,
   1062404096,
   1044094976,
   0,
   1058640813,
   3209482558,
   1062404096,
   1043505152,
   1062404096,
   1043505152,
   0,
   1058640813,
   3209482558,
   1064812544,
   1044094976,
   1064812544,
   1044094976,
   0,
   1058640813,
   3209482558,
   1064812544,
   1043505152,
   1064812544,
   1043505152,
   0,
   3206127690,
   1061996489,
   1065058304,
   1056964608,
   1065058304,
   1056964608,
   0,
   3206127689,
   1061996489,
   1064910848,
   1056964608,
   1064910848,
   1056964608,
   0,
   3206127689,
   1061996489,
   1064910848,
   1050296320,
   1064910848,
   1050296320,
   0,
   3206127689,
   1061996489,
   1065058304,
   1050296320,
   1065058304,
   1050296320,
   1065353216,
   0,
   0,
   1055473664,
   1048903680,
   1055473664,
   1048903680,
   1065353216,
   0,
   0,
   1059815424,
   1046880256,
   1059815424,
   1046880256,
   1065353216,
   0,
   0,
   1059340288,
   1048895488,
   1059340288,
   1048895488,
   1065353216,
   0,
   0,
   1054048256,
   1046913024,
   1054048256,
   1046913024,
   0,
   3206124465,
   3209482555,
   1062404096,
   1048887296,
   1062404096,
   1048887296,
   0,
   3206124464,
   3209482556,
   1064812544,
   1048887296,
   1064812544,
   1048887296,
   0,
   3206124464,
   3209482556,
   1064812544,
   1049182208,
   1064812544,
   1049182208,
   0,
   3206124464,
   3209482556,
   1062404096,
   1049182208,
   1062404096,
   1049182208,
   0,
   1058644042,
   1061996489,
   1058938880,
   1023639552,
   1058938880,
   1023639552,
   0,
   1058644042,
   1061996489,
   1062273024,
   1023639552,
   1062273024,
   1023639552,
   0,
   1058644042,
   1061996488,
   1062273024,
   1025998848,
   1062273024,
   1025998848,
   0,
   1058644041,
   1061996489,
   1058938880,
   1025998848,
   1058938880,
   1025998848,
   0,
   0,
   1065353216,
   1053810688,
   1041014784,
   1053810688,
   1041014784,
   0,
   0,
   1065353216,
   1058979840,
   1037123584,
   1058979840,
   1037123584,
   0,
   0,
   1065353216,
   1059692544,
   1040973824,
   1059692544,
   1040973824,
   0,
   0,
   1065353216,
   1054760960,
   1037164544,
   1054760960,
   1037164544,
   3209482558,
   1058640814,
   0,
   1064812544,
   1044455424,
   1064812544,
   1044455424,
   3209482558,
   1058640814,
   0,
   1062404096,
   1045045248,
   1062404096,
   1045045248,
   3209482557,
   1058640814,
   0,
   1062404096,
   1044455424,
   1062404096,
   1044455424,
   3209482557,
   1058640814,
   0,
   1064812544,
   1045045248,
   1064812544,
   1045045248,
   1061996489,
   3206127689,
   855817205,
   1062281216,
   1035214848,
   1062281216,
   1035214848,
   1061996490,
   3206127687,
   901928372,
   1058947072,
   1036394496,
   1058947072,
   1036394496,
   1061996490,
   3206127688,
   902196115,
   1058947072,
   1035214848,
   1058947072,
   1035214848,
   1061996489,
   3206127689,
   0,
   1062281216,
   1036394496,
   1062281216,
   1036394496,
   0,
   0,
   1065353216,
   1046380544,
   1044144128,
   1046380544,
   1044144128,
   0,
   0,
   1065353216,
   1053720576,
   1044176896,
   1053720576,
   1044176896,
   0,
   0,
   1065353216,
   1054670848,
   1046511616,
   1054670848,
   1046511616,
   0,
   0,
   1065353216,
   1043529728,
   1046462464,
   1043529728,
   1046462464,
   3209482556,
   3206124464,
   0,
   1062404096,
   1047306240,
   1062404096,
   1047306240,
   3209482556,
   3206124464,
   0,
   1064812544,
   1047306240,
   1064812544,
   1047306240,
   3209482556,
   3206124464,
   0,
   1064812544,
   1047887872,
   1064812544,
   1047887872,
   3209482556,
   3206124464,
   0,
   1062404096,
   1047887872,
   1062404096,
   1047887872,
   1061996489,
   1058644042,
   3050866364,
   1062305792,
   1027145728,
   1062305792,
   1027145728,
   1061996489,
   1058644042,
   3051164715,
   1062305792,
   1029505024,
   1062305792,
   1029505024,
   1061996487,
   1058644043,
   3004281382,
   1058971648,
   1029505024,
   1058971648,
   1029505024,
   1061996488,
   1058644043,
   0,
   1058971648,
   1027145728,
   1058971648,
   1027145728,
   3212836864,
   0,
   0,
   1054834688,
   1041432576,
   1054834688,
   1041432576,
   3212836864,
   0,
   0,
   1053409280,
   1043759104,
   1053409280,
   1043759104,
   3212836864,
   0,
   0,
   1043857408,
   1041391616,
   1043857408,
   1041391616,
   3212836864,
   0,
   0,
   1045766144,
   1043726336,
   1045766144,
   1043726336,
   0,
   1058640814,
   1061998910,
   1064812544,
   1045405696,
   1064812544,
   1045405696,
   0,
   1058640813,
   1061998910,
   1064812544,
   1045995520,
   1064812544,
   1045995520,
   0,
   1058640813,
   1061998910,
   1062404096,
   1045405696,
   1062404096,
   1045405696,
   0,
   1058640814,
   1061998910,
   1062404096,
   1045995520,
   1062404096,
   1045995520,
   0,
   3206127688,
   3209480138,
   1064550400,
   1050107904,
   1064550400,
   1050107904,
   0,
   3206127689,
   3209480137,
   1064697856,
   1050107904,
   1064697856,
   1050107904,
   0,
   3206127688,
   3209480138,
   1064697856,
   1056768000,
   1064697856,
   1056768000,
   0,
   3206127689,
   3209480137,
   1064550400,
   1056768000,
   1064550400,
   1056768000,
   3212836864,
   0,
   0,
   1059741696,
   1044242432,
   1059741696,
   1044242432,
   3212836864,
   0,
   0,
   1055326208,
   1046601728,
   1055326208,
   1046601728,
   3212836864,
   0,
   0,
   1053900800,
   1044275200,
   1053900800,
   1044275200,
   3212836864,
   0,
   0,
   1059266560,
   1046577152,
   1059266560,
   1046577152,
   0,
   3206124461,
   1061998910,
   1064812544,
   1048707072,
   1064812544,
   1048707072,
   0,
   3206124462,
   1061998910,
   1062404096,
   1048707072,
   1062404096,
   1048707072,
   0,
   3206124462,
   1061998909,
   1062404096,
   1048248320,
   1062404096,
   1048248320,
   0,
   3206124462,
   1061998910,
   1064812544,
   1048248320,
   1064812544,
   1048248320,
   0,
   1058644043,
   3209480135,
   1062281216,
   1034362880,
   1062281216,
   1034362880,
   0,
   1058644043,
   3209480136,
   1058947072,
   1034362880,
   1058947072,
   1034362880,
   0,
   1058644043,
   3209480135,
   1058947072,
   1033183232,
   1058947072,
   1033183232,
   0,
   1058644043,
   3209480136,
   1062281216,
   1033183232,
   1062281216,
   1033183232,
   0,
   1065353216,
   0,
   1052860416,
   1046904832,
   1052860416,
   1046904832,
   0,
   1065353216,
   0,
   1045553152,
   1048969216,
   1045553152,
   1048969216,
   0,
   1065353216,
   0,
   1043841024,
   1046880256,
   1043841024,
   1046880256,
   0,
   1065353216,
   0,
   1053720576,
   1048977408,
   1053720576,
   1048977408,
   1058146410,
   0,
   1062355776,
   1038114816,
   1048911872,
   1038114816,
   1048911872,
   1058146410,
   0,
   1062355776,
   1036795904,
   1036451840,
   1036795904,
   1036451840,
   1058146411,
   0,
   1062355776,
   1038114816,
   1036451840,
   1038114816,
   1036451840,
   1058146411,
   0,
   1062355776,
   1036795904,
   1048911872,
   1036795904,
   1048911872,
   3205630058,
   0,
   3209839424,
   1058856960,
   1034977280,
   1058856960,
   1034977280,
   3205630059,
   0,
   3209839424,
   1058856960,
   1036296192,
   1058856960,
   1036296192,
   3205630058,
   0,
   3209839424,
   1055285248,
   1036296192,
   1055285248,
   1036296192,
   3205630059,
   0,
   3209839424,
   1055285248,
   1034977280,
   1055285248,
   1034977280,
   3212836864,
   0,
   0,
   1061199872,
   1057767424,
   1061199872,
   1057767424,
   3212836864,
   0,
   0,
   1061199872,
   1057079296,
   1061199872,
   1057079296,
   3212836864,
   0,
   0,
   1061904384,
   1057079296,
   1061904384,
   1057079296,
   3212836864,
   0,
   0,
   1061904384,
   1057767424,
   1061904384,
   1057767424,
   3212836864,
   0,
   0,
   1064558592,
   1057079296,
   1064558592,
   1057079296,
   3212836864,
   0,
   0,
   1061199872,
   1064427520,
   1061199872,
   1064427520,
   3212836864,
   0,
   0,
   1064558592,
   1057767424,
   1064558592,
   1057767424,
   3212836864,
   0,
   0,
   1061904384,
   1064427520,
   1061904384,
   1064427520,
   3212836864,
   0,
   0,
   1065181184,
   1057079296,
   1065181184,
   1057079296,
   3212836864,
   0,
   0,
   1061199872,
   1065164800,
   1061199872,
   1065164800,
   3212836864,
   0,
   0,
   1065181184,
   1057767424,
   1065181184,
   1057767424,
   3212836864,
   0,
   0,
   1061904384,
   1065164800,
   1061904384,
   1065164800,
   3212836864,
   0,
   0,
   1064558592,
   1064427520,
   1064558592,
   1064427520,
   3212836864,
   0,
   0,
   1065181184,
   1064427520,
   1065181184,
   1064427520,
   3212836864,
   0,
   0,
   1064558592,
   1065164800,
   1064558592,
   1065164800,
   3212836864,
   0,
   0,
   1065181184,
   1065164800,
   1065181184,
   1065164800,
   1065353216,
   0,
   0,
   1060372480,
   1057079296,
   1060372480,
   1057079296,
   1065353216,
   0,
   0,
   1061076992,
   1057079296,
   1061076992,
   1057079296,
   1065353216,
   0,
   0,
   1061076992,
   1057767424,
   1061076992,
   1057767424,
   1065353216,
   0,
   0,
   1060372480,
   1057767424,
   1060372480,
   1057767424,
   1065353216,
   0,
   0,
   1061076992,
   1064427520,
   1061076992,
   1064427520,
   1065353216,
   0,
   0,
   1057718272,
   1057079296,
   1057718272,
   1057079296,
   1065353216,
   0,
   0,
   1060372480,
   1064427520,
   1060372480,
   1064427520,
   1065353216,
   0,
   0,
   1061076992,
   1065164800,
   1061076992,
   1065164800,
   1065353216,
   0,
   0,
   1057718272,
   1057767424,
   1057718272,
   1057767424,
   1065353216,
   0,
   0,
   1060372480,
   1065164800,
   1060372480,
   1065164800,
   1065353216,
   0,
   0,
   1057718272,
   1064427520,
   1057718272,
   1064427520,
   1065353216,
   0,
   0,
   1057718272,
   1065164800,
   1057718272,
   1065164800,
   1065353216,
   0,
   0,
   1057095680,
   1065164800,
   1057095680,
   1065164800,
   1065353216,
   0,
   0,
   1057095680,
   1064427520,
   1057095680,
   1064427520,
   1065353216,
   0,
   0,
   1057095680,
   1057767424,
   1057095680,
   1057767424,
   1065353216,
   0,
   0,
   1057095680,
   1057079296,
   1057095680,
   1057079296,
   0,
   1065353216,
   0,
   1054900224,
   1050550272,
   1054900224,
   1050550272,
   0,
   1065353216,
   0,
   1054900224,
   1049141248,
   1054900224,
   1049141248,
   0,
   1065353216,
   0,
   1056153600,
   1049141248,
   1056153600,
   1049141248,
   0,
   1065353216,
   0,
   1056153600,
   1050550272,
   1056153600,
   1050550272,
   0,
   1065353216,
   0,
   1059291136,
   1049141248,
   1059291136,
   1049141248,
   0,
   1065353216,
   0,
   1054900224,
   1055850496,
   1054900224,
   1055850496,
   0,
   1065353216,
   0,
   1059291136,
   1050550272,
   1059291136,
   1050550272,
   0,
   1065353216,
   0,
   1056153600,
   1055850496,
   1056153600,
   1055850496,
   0,
   1065353216,
   0,
   1059774464,
   1049141248,
   1059774464,
   1049141248,
   0,
   1065353216,
   0,
   1054900224,
   1057038336,
   1054900224,
   1057038336,
   0,
   1065353216,
   0,
   1056153600,
   1057038336,
   1056153600,
   1057038336,
   0,
   1065353216,
   0,
   1059291136,
   1055850496,
   1059291136,
   1055850496,
   0,
   1065353216,
   0,
   1059291136,
   1057038336,
   1059291136,
   1057038336,
   0,
   1065353216,
   0,
   1059774464,
   1057038336,
   1059774464,
   1057038336,
   0,
   1065353216,
   0,
   1059774464,
   1055850496,
   1059774464,
   1055850496,
   0,
   1065353216,
   0,
   1059913728,
   1057038336,
   1059913728,
   1057038336,
   0,
   1065353216,
   0,
   1059913728,
   1055850496,
   1059913728,
   1055850496,
   0,
   1065353216,
   0,
   1059774464,
   1050550272,
   1059774464,
   1050550272,
   0,
   1065353216,
   0,
   1059913728,
   1050550272,
   1059913728,
   1050550272,
   0,
   1065353216,
   0,
   1059913728,
   1049141248,
   1059913728,
   1049141248,
   0,
   0,
   1065353216,
   1049010176,
   1064427520,
   1049010176,
   1064427520,
   0,
   0,
   1065353216,
   1049288704,
   1065164800,
   1049288704,
   1065164800,
   0,
   0,
   1065353216,
   1049010176,
   1065164800,
   1049010176,
   1065164800,
   0,
   0,
   1065353216,
   1049288704,
   1064427520,
   1049288704,
   1064427520,
   0,
   0,
   1065353216,
   1050263552,
   1065164800,
   1050263552,
   1065164800,
   0,
   0,
   1065353216,
   1049010176,
   1057767424,
   1049010176,
   1057767424,
   0,
   0,
   1065353216,
   1050263552,
   1064427520,
   1050263552,
   1064427520,
   0,
   0,
   1065353216,
   1055727616,
   1065164800,
   1055727616,
   1065164800,
   0,
   0,
   1065353216,
   1049288704,
   1057767424,
   1049288704,
   1057767424,
   0,
   0,
   1065353216,
   1049010176,
   1057079296,
   1049010176,
   1057079296,
   0,
   0,
   1065353216,
   1049288704,
   1057079296,
   1049288704,
   1057079296,
   0,
   0,
   1065353216,
   1050263552,
   1057079296,
   1050263552,
   1057079296,
   0,
   0,
   1065353216,
   1050263552,
   1057767424,
   1050263552,
   1057767424,
   0,
   0,
   1065353216,
   1055727616,
   1057079296,
   1055727616,
   1057079296,
   0,
   0,
   1065353216,
   1055727616,
   1057767424,
   1055727616,
   1057767424,
   0,
   0,
   1065353216,
   1056972800,
   1057079296,
   1056972800,
   1057079296,
   0,
   0,
   1065353216,
   1056972800,
   1057767424,
   1056972800,
   1057767424,
   0,
   0,
   1065353216,
   1055727616,
   1064427520,
   1055727616,
   1064427520,
   0,
   0,
   1065353216,
   1056972800,
   1064427520,
   1056972800,
   1064427520,
   0,
   0,
   1065353216,
   1056972800,
   1065164800,
   1056972800,
   1065164800,
   0,
   3212836864,
   865267668,
   1044922368,
   1055850496,
   1044922368,
   1055850496,
   0,
   3212836864,
   0,
   1045471232,
   1057038336,
   1045471232,
   1057038336,
   0,
   3212836864,
   0,
   1044922368,
   1057038336,
   1044922368,
   1057038336,
   0,
   3212836864,
   865267667,
   1045471232,
   1055850496,
   1045471232,
   1055850496,
   0,
   3212836864,
   0,
   1047420928,
   1057038336,
   1047420928,
   1057038336,
   0,
   3212836864,
   865267665,
   1044922368,
   1050550272,
   1044922368,
   1050550272,
   0,
   3212836864,
   865267670,
   1047420928,
   1055850496,
   1047420928,
   1055850496,
   0,
   3212836864,
   865267669,
   1045471232,
   1050550272,
   1045471232,
   1050550272,
   0,
   3212836864,
   0,
   1044922368,
   1049141248,
   1044922368,
   1049141248,
   0,
   3212836864,
   0,
   1045471232,
   1049141248,
   1045471232,
   1049141248,
   0,
   3212836864,
   0,
   1053458432,
   1057038336,
   1053458432,
   1057038336,
   0,
   3212836864,
   865267669,
   1047420928,
   1050550272,
   1047420928,
   1050550272,
   0,
   3212836864,
   0,
   1047420928,
   1049141248,
   1047420928,
   1049141248,
   0,
   3212836864,
   0,
   1053458432,
   1049141248,
   1053458432,
   1049141248,
   0,
   3212836864,
   865267669,
   1053458432,
   1050550272,
   1053458432,
   1050550272,
   0,
   3212836864,
   0,
   1054720000,
   1049141248,
   1054720000,
   1049141248,
   0,
   3212836864,
   865267669,
   1054720000,
   1050550272,
   1054720000,
   1050550272,
   0,
   3212836864,
   865267669,
   1053458432,
   1055850496,
   1053458432,
   1055850496,
   0,
   3212836864,
   865267668,
   1054720000,
   1055850496,
   1054720000,
   1055850496,
   0,
   3212836864,
   0,
   1054720000,
   1057038336,
   1054720000,
   1057038336,
   0,
   852905811,
   3212836864,
   1048764416,
   1057767424,
   1048764416,
   1057767424,
   0,
   0,
   3212836864,
   1048395776,
   1057079296,
   1048395776,
   1057079296,
   0,
   0,
   3212836864,
   1048764416,
   1057079296,
   1048764416,
   1057079296,
   0,
   852905814,
   3212836864,
   1048395776,
   1057767424,
   1048395776,
   1057767424,
   0,
   0,
   3212836864,
   1046446080,
   1057079296,
   1046446080,
   1057079296,
   0,
   3030105153,
   3212836864,
   1048764416,
   1064427520,
   1048764416,
   1064427520,
   0,
   848224138,
   3212836864,
   1046446080,
   1057767424,
   1046446080,
   1057767424,
   0,
   0,
   3212836864,
   1029906432,
   1057079296,
   1029906432,
   1057079296,
   0,
   3030105159,
   3212836864,
   1048395776,
   1064427520,
   1048395776,
   1064427520,
   0,
   3039371580,
   3212836864,
   1048764416,
   1065164800,
   1048764416,
   1065164800,
   0,
   3039371579,
   3212836864,
   1048395776,
   1065164800,
   1048395776,
   1065164800,
   0,
   3034092460,
   3212836864,
   1046446080,
   1064427520,
   1046446080,
   1064427520,
   0,
   3039371579,
   3212836864,
   1046446080,
   1065164800,
   1046446080,
   1065164800,
   0,
   3039371580,
   3212836864,
   1029906432,
   1065164800,
   1029906432,
   1065164800,
   0,
   3034092461,
   3212836864,
   1029906432,
   1064427520,
   1029906432,
   1064427520,
   0,
   3039371581,
   3212836864,
   1016324096,
   1065164800,
   1016324096,
   1065164800,
   0,
   3030105159,
   3212836864,
   1016324096,
   1064427520,
   1016324096,
   1064427520,
   0,
   848224140,
   3212836864,
   1029906432,
   1057767424,
   1029906432,
   1057767424,
   0,
   852905809,
   3212836864,
   1016324096,
   1057767424,
   1016324096,
   1057767424,
   0,
   0,
   3212836864,
   1016324096,
   1057079296,
   1016324096,
   1057079296;
  }
 }
}